Division,WeightClassKg,Place,Name,Team,BodyweightKg,Best3SquatKg,Best3BenchKg,Best3DeadliftKg,TotalKg,Equipment,Event,Sex
Girls,44.23,1,Celeste Correa,Carrizo Springs,43,102.06,38.56,108.86,249.48,Single-ply,SBD,F
Girls,44.23,2,Michelle Paredes,Carrizo Springs,44.09,83.91,45.36,99.79,229.06,Single-ply,SBD,F
Girls,44.23,3,Gabby Riojas,Carrizo Springs,41.91,79.38,31.75,83.91,195.04,Single-ply,SBD,F
Girls,44.23,4,Joshlyn Cardenas,Uvalde,42.82,65.77,29.48,72.57,167.83,Single-ply,SBD,F
Girls,44.23,5,Ariana Reyes,Uvalde,43.64,70.31,22.68,70.31,163.29,Single-ply,SBD,F
Girls,44.23,DQ,Katherine Perez,Crystal City,44.18,65.77,,,,Single-ply,SBD,F
Girls,44.23,DQ,Dulce De La Cruz,Floresville,41.37,83.91,34.02,,,Single-ply,SBD,F
Girls,47.85,1,Aaliyah Garcia,Crystal City,47.31,140.61,70.31,136.08,347,Single-ply,SBD,F
Girls,47.85,2,Iyesha Trevino,Knippa,45.09,45.36,29.48,47.63,122.47,Single-ply,SBD,F
Girls,47.85,DQ,Ana Granados,Crystal City,46.08,102.06,,,,Single-ply,SBD,F
Girls,51.94,1,Alamar Garcia,Pearsall,48.35,117.93,52.16,106.59,276.69,Single-ply,SBD,F
Girls,51.94,2,Virginia Gallegos,Carrizo Springs,50.89,92.99,43.09,120.2,256.28,Single-ply,SBD,F
Girls,51.94,3,Crystal Hernandez,Pearsall,49.99,83.91,40.82,88.45,213.19,Single-ply,SBD,F
Girls,51.94,4,Erin Garza,Knippa,48.53,83.91,43.09,83.91,210.92,Single-ply,SBD,F
Girls,51.94,5,Karina Longoria,Center Point,51.94,74.84,45.36,88.45,208.65,Single-ply,SBD,F
Girls,51.94,6,Devany Reyna,Pearsall,49.08,81.65,31.75,86.18,199.58,Single-ply,SBD,F
Girls,51.94,7,Alessandra Valdes,Carrizo Springs,49.99,74.84,36.29,83.91,195.04,Single-ply,SBD,F
Girls,51.94,DQ,Veronica Martinez,Crystal City,49.08,,,,,Single-ply,SBD,F
Girls,51.94,DQ,Ivanna Olivarez,Crystal City,50.44,81.65,,,,Single-ply,SBD,F
Girls,51.94,DQ,Nelli Martinez,Crystal City,51.44,,,,,Single-ply,SBD,F
Girls,51.94,DQ,Daeja Gomez,Floresville,50.35,77.11,,,,Single-ply,SBD,F
Girls,56.02,1,Gabby Moncada,Crystal City,54.7,117.93,61.23,127.01,306.17,Single-ply,SBD,F
Girls,56.02,2,Nimue Amaya,Pearsall,53.25,99.79,54.43,106.59,260.82,Single-ply,SBD,F
Girls,56.02,3,Zoe E Martinez,Floresville,55.16,88.45,52.16,106.59,247.21,Single-ply,SBD,F
Girls,56.02,4,Klarissa Sonora,Uvalde,54.98,95.25,40.82,104.33,240.4,Single-ply,SBD,F
Girls,56.02,5,Zoe B Martinez,Floresville,54.7,90.72,45.36,95.25,231.33,Single-ply,SBD,F
Girls,56.02,6,Taylor Sansing,Floresville,54.79,83.91,43.09,99.79,226.8,Single-ply,SBD,F
Girls,56.02,7,Kaylee Longoria,Carrizo Springs,55.61,61.23,38.56,90.72,190.51,Single-ply,SBD,F
Girls,56.02,DQ,Ariana Perez,Uvalde,55.07,65.77,36.29,92.99,,Single-ply,SBD,F
Girls,60.1,1,Rosie Martinez,Crystal City,60.1,131.54,63.5,113.4,308.44,Single-ply,SBD,F
Girls,60.1,2,Rochelle Orosco,Carrizo Springs,59.6,104.33,56.7,104.33,265.35,Single-ply,SBD,F
Girls,60.1,3,Claire Dean,Knippa,59.87,99.79,54.43,108.86,263.08,Single-ply,SBD,F
Girls,60.1,4,Juliana Castor,Floresville,59.69,102.06,49.9,97.52,249.48,Single-ply,SBD,F
Girls,60.1,5,Lizzy Bustamante,Center Point,60.06,97.52,52.16,95.25,244.94,Single-ply,SBD,F
Girls,60.1,6,Ally-Beth Marlowe,Center Point,59.87,74.84,47.63,108.86,231.33,Single-ply,SBD,F
Girls,60.1,7,Cesi Ramirez,Center Point,60.06,90.72,43.09,90.72,224.53,Single-ply,SBD,F
Girls,60.1,8,Nayeli Swicker,Center Point,59.96,79.38,45.36,95.25,219.99,Single-ply,SBD,F
Girls,60.1,9,Ale Carmona,Knippa,59.96,74.84,43.09,79.38,197.31,Single-ply,SBD,F
Girls,60.1,10,Llubia Rodriguez,Pearsall,59.06,77.11,38.56,79.38,195.04,Single-ply,SBD,F
Girls,60.1,11,Hailey Medrano,Pearsall,57.52,68.04,29.48,74.84,172.37,Single-ply,SBD,F
Girls,67.36,1,Brenda Macklin,Center Point,67.13,147.42,54.43,124.74,326.59,Single-ply,SBD,F
Girls,67.36,2,Jennifer Montellano,Crystal City,63.14,147.42,61.23,113.4,322.05,Single-ply,SBD,F
Girls,67.36,3,Laura Puente,Carrizo Springs,66.22,124.74,54.43,127.01,306.17,Single-ply,SBD,F
Girls,67.36,4,Regina Prado,Uvalde,66.32,142.88,45.36,97.52,285.76,Single-ply,SBD,F
Girls,67.36,5,Madalynn Armendarez,Crystal City,63.96,95.25,47.63,113.4,256.28,Single-ply,SBD,F
Girls,67.36,6,Samara Gandara,Pearsall,63.32,92.99,40.82,117.93,251.74,Single-ply,SBD,F
Girls,67.36,7,Kelsey Garcia,Uvalde,63.5,92.99,40.82,113.4,247.21,Single-ply,SBD,F
Girls,67.36,8,Yesenia Arellano,Floresville,67.31,97.52,43.09,97.52,238.14,Single-ply,SBD,F
Girls,67.36,9,Jenna Oakley,Floresville,61.51,102.06,40.82,92.99,235.87,Single-ply,SBD,F
Girls,67.36,10,Pricislla Alvarez,Uvalde,61.51,99.79,43.09,92.99,235.87,Single-ply,SBD,F
Girls,67.36,11,Gabby Quirova,Uvalde,66.27,83.91,36.29,92.99,213.19,Single-ply,SBD,F
Girls,67.36,12,Celi Ortiz,Pearsall,62.14,83.91,36.29,90.72,210.92,Single-ply,SBD,F
Girls,67.36,13,JoAnn Navarro,Uvalde,65.5,68.04,29.48,90.72,188.24,Single-ply,SBD,F
Girls,75.07,1,Monica Villalobos,Center Point,74.57,158.76,70.31,151.95,381.02,Single-ply,SBD,F
Girls,75.07,2,Avery Contreras,Uvalde,74.48,151.95,63.5,136.08,351.53,Single-ply,SBD,F
Girls,75.07,3,Susana Marquez,Crystal City,74.53,145.15,61.23,131.54,337.93,Single-ply,SBD,F
Girls,75.07,4,Alyssa Lombrana,Crystal City,68.4,115.67,70.31,117.93,303.91,Single-ply,SBD,F
Girls,75.07,5,Mayra Mendoza,Center Point,69.49,127.01,54.43,117.93,299.37,Single-ply,SBD,F
Girls,75.07,6,Andrea Costilla,Carrizo Springs,70.13,99.79,45.36,95.25,240.4,Single-ply,SBD,F
Girls,75.07,7,Azalea Orozco,Floresville,71.49,95.25,43.09,90.72,229.06,Single-ply,SBD,F
Girls,75.07,8,Saralynn Banuelos,Floresville,70.94,86.18,38.56,102.06,226.8,Single-ply,SBD,F
Girls,75.07,9,Destiny DeLeon,Knippa,72.03,86.18,45.36,90.72,222.26,Single-ply,SBD,F
Girls,75.07,10,Aaliyah Pena,Crystal City,68.95,83.91,31.75,79.38,195.04,Single-ply,SBD,F
Girls,75.07,DQ,Marissa Ramirez #3,Crystal City,72.76,102.06,,,,Single-ply,SBD,F
Girls,75.07,DQ,Sarina Ramirez,Crystal City,74.66,,,,,Single-ply,SBD,F
Girls,75.07,DQ,Kaiya Germany,Rocksprings,69.94,61.23,,,,Single-ply,SBD,F
Girls,82.33,1,Maria Rodriquez,Crystal City,81.56,170.1,113.4,165.56,449.06,Single-ply,SBD,F
Girls,82.33,2,Destiny Sepulveda,Crystal City,78.11,136.08,95.25,131.54,362.87,Single-ply,SBD,F
Girls,82.33,3,Jocelyn Bustamante,Uvalde,81.74,151.95,65.77,129.27,347,Single-ply,SBD,F
Girls,82.33,4,Ariana Camarillo,Carrizo Springs,76.02,136.08,61.23,138.35,335.66,Single-ply,SBD,F
Girls,82.33,5,Gabriela Uriega,Floresville,77.56,113.4,54.43,115.67,283.5,Single-ply,SBD,F
Girls,82.33,6,Kimberley Frausto,Pearsall,76.75,97.52,52.16,117.93,267.62,Single-ply,SBD,F
Girls,82.33,7,Janel Garcia,Uvalde,81.28,97.52,38.56,102.06,238.14,Single-ply,SBD,F
Girls,82.33,DQ,Isanelli Escamilla,Crystal City,80.92,102.06,,,,Single-ply,SBD,F
Girls,90.04,1,Alyssa Alva,Pearsall,89.9,195.04,86.18,181.44,462.66,Single-ply,SBD,F
Girls,90.04,2,Destiny Cox,Crystal City,84.19,136.08,52.16,102.06,290.3,Single-ply,SBD,F
Girls,90.04,3,Valeria Rodriquez,Uvalde,87.09,113.4,45.36,127.01,285.76,Single-ply,SBD,F
Girls,90.04,4,Sierra Pardo,Floresville,86.55,104.33,54.43,106.59,265.35,Single-ply,SBD,F
Girls,100.02,1,Bethanie Rodriguez,Crystal City,99.56,204.12,120.2,167.83,492.15,Single-ply,SBD,F
Girls,100.02,2,Chasity Holt,Center Point,93.26,83.91,61.23,102.06,247.21,Single-ply,SBD,F
Girls,100.02,3,Teresa Valadez,Center Point,93.44,79.38,43.09,102.06,224.53,Single-ply,SBD,F
Girls,100.02,DQ,Kat Villarreal,Crystal City,97.89,113.4,,,,Single-ply,SBD,F
Girls,117.71,1,Nikki Rangel,Rocksprings,105.51,197.31,86.18,170.1,453.59,Single-ply,SBD,F
Girls,117.71,2,Emily Casilllas,Center Point,102.51,145.15,86.18,138.35,369.68,Single-ply,SBD,F
Girls,117.71,3,Victoria Gonzales,Carrizo Springs,103.33,154.22,70.31,136.08,360.61,Single-ply,SBD,F
Girls,117.71,4,Distiny Ramirez,Pearsall,103.78,142.88,65.77,136.08,344.73,Single-ply,SBD,F
Girls,117.71,5,Paola Valadez,Center Point,109.95,56.7,43.09,63.5,163.29,Single-ply,SBD,F
Girls,117.71+,1,Luz Garcia,Crystal City,117.84,208.65,90.72,131.54,430.91,Single-ply,SBD,F
Girls,117.71+,2,Clarissa Ramirez,Crystal City,122.74,124.74,70.31,127.01,322.05,Single-ply,SBD,F
Girls,,NS,Mikayla Solis,Pearsall,,,,,,Single-ply,SBD,F
