Division,WeightClassKg,Place,Name,Team,BodyweightKg,Best3SquatKg,Best3BenchKg,Best3DeadliftKg,TotalKg,Equipment,Event,Sex,BirthDate
Girls,44.23,1,Kirsten Boyd,Alvarado,41,113.4,61.23,106.59,281.23,Single-ply,SBD,F,
Girls,44.23,2,Lauren Hollace,Lampasas,42.37,47.63,20.41,54.43,122.47,Single-ply,SBD,F,
Girls,44.23,DQ,Jozlynnn Medley,Fredericksburg,43,,,,,Single-ply,SBD,F,
Girls,47.85,1,Kailonee Razo,Salado,46.18,99.79,52.16,102.06,254.01,Single-ply,SBD,F,
Girls,47.85,2,Teresa Antunez,Hillsboro,46.36,99.79,52.16,102.06,254.01,Single-ply,SBD,F,
Girls,47.85,3,Olivia Hernandez,Alvarado,44.91,99.79,52.16,86.18,238.14,Single-ply,SBD,F,
Girls,47.85,4,Lindsey Cummings,Gatesville,47.17,83.91,47.63,90.72,222.26,Single-ply,SBD,F,
Girls,47.85,5,Kayley Floriano,Jarrell,47.81,83.91,40.82,92.99,217.72,Single-ply,SBD,F,
Girls,47.85,6,Nimsi Vergara,Lampasas,45.99,77.11,34.02,92.99,204.12,Single-ply,SBD,F,
Girls,47.85,7,Katie Kirby,Godley,47.81,70.31,34.02,83.91,188.24,Single-ply,SBD,F,
Girls,47.85,8,Madison Lopez,Glen Rose,47.81,70.31,34.02,81.65,185.97,Single-ply,SBD,F,
Girls,47.85,9,Chesney Mouser,Smithville,47.17,63.5,45.36,65.77,174.63,Single-ply,SBD,F,
Girls,51.94,1,Rylie Dlouhy,Taylor,51.71,113.4,70.31,124.74,308.44,Single-ply,SBD,F,
Girls,51.94,2,Caelan Teer,Salado,50.44,111.13,56.7,90.72,258.55,Single-ply,SBD,F,
Girls,51.94,3,Abby Smith,Burnet,49.08,92.99,54.43,102.06,249.48,Single-ply,SBD,F,
Girls,51.94,4,Allie Hale,Hillsboro,49.35,92.99,54.43,97.52,244.94,Single-ply,SBD,F,
Girls,51.94,5,Aislinn Venegas,Mexia,50.71,79.38,47.63,106.59,233.6,Single-ply,SBD,F,
Girls,51.94,6,Baylor Phenix,Alvarado,50.8,97.52,47.63,83.91,229.06,Single-ply,SBD,F,
Girls,51.94,7,Daisy Leija,Stephenville,50.98,90.72,43.09,95.25,229.06,Single-ply,SBD,F,
Girls,51.94,8,Kelaiah Wehmeyer,Fredericksburg,51.17,74.84,45.36,90.72,210.92,Single-ply,SBD,F,
Girls,51.94,9,Jayme Cottle,Brownwood,50.62,79.38,47.63,79.38,206.38,Single-ply,SBD,F,
Girls,51.94,10,Catrina Leverett,Godley,48.17,79.38,38.56,83.91,201.85,Single-ply,SBD,F,
Girls,51.94,11,Anna Burgess,Lampasas,49.8,63.5,40.82,86.18,190.51,Single-ply,SBD,F,
Girls,51.94,12,Madisyn Questelle,China Spring,50.89,68.04,31.75,86.18,185.97,Single-ply,SBD,F,
Girls,51.94,13,Graeson Fanning,Fredericksburg,51.17,72.57,38.56,74.84,185.97,Single-ply,SBD,F,
Girls,51.94,14,Alexis Hamilton,Lampasas,51.44,65.77,34.02,79.38,179.17,Single-ply,SBD,F,
Girls,56.02,1,Alyssa Ayers,Lampasas,53.43,149.69,90.72,145.15,385.55,Single-ply,SBD,F,
Girls,56.02,2,Mia Rodriguez,Taylor,55.34,140.61,74.84,140.61,356.07,Single-ply,SBD,F,
Girls,56.02,3,Amiah Rodriguez,Stephenville,54.88,124.74,63.5,133.81,322.05,Single-ply,SBD,F,
Girls,56.02,4,Catalina Ramirez,Hillsboro,55.25,113.4,61.23,115.67,290.3,Single-ply,SBD,F,
Girls,56.02,5,Kayla Herrera,Giddings,55.16,113.4,49.9,115.67,278.96,Single-ply,SBD,F,
Girls,56.02,6,Hanna Peebles,Lake Belton,51.98,102.06,61.23,113.4,276.69,Single-ply,SBD,F,
Girls,56.02,7,Kenna Cashon,Stephenville,54.52,106.59,56.7,106.59,269.89,Single-ply,SBD,F,
Girls,56.02,8,Brianna Miller,Lampasas,55.16,97.52,61.23,111.13,269.89,Single-ply,SBD,F,
Girls,56.02,9,Mia Shafer,Gatesville,55.97,102.06,72.57,90.72,265.35,Single-ply,SBD,F,
Girls,56.02,10,Cassady Galabeas,Smithville,55.25,108.86,40.82,95.25,244.94,Single-ply,SBD,F,
Girls,56.02,11,Marlee Williams,Gatesville,55.97,92.99,47.63,104.33,244.94,Single-ply,SBD,F,
Girls,56.02,12,Sarah Hand,China Spring,53.61,77.11,49.9,99.79,226.8,Single-ply,SBD,F,
Girls,56.02,13,Brooke Coffman,Lampasas,55.7,77.11,40.82,97.52,215.46,Single-ply,SBD,F,
Girls,56.02,14,Kaitlyn Knight,Smithville,55.97,72.57,36.29,83.91,192.78,Single-ply,SBD,F,
Girls,60.1,1,Beneranda Martinez,Hillsboro,56.34,138.35,79.38,136.08,353.8,Single-ply,SBD,F,
Girls,60.1,2,Kayshawna Fields,Taylor,60.06,138.35,61.23,131.54,331.12,Single-ply,SBD,F,
Girls,60.1,3,Jade Oliver,Salado,59.42,127.01,72.57,108.86,308.44,Single-ply,SBD,F,
Girls,60.1,4,Lila Richards,Stephenville,56.79,111.13,65.77,122.47,299.37,Single-ply,SBD,F,
Girls,60.1,5,Briella Cervantes,Venus,57.06,120.2,58.97,111.13,290.3,Single-ply,SBD,F,
Girls,60.1,6,Jordan Schaub,Salado,58.79,127.01,58.97,97.52,283.5,Single-ply,SBD,F,
Girls,60.1,7,Zayda Gorecki,Lampasas,59.51,104.33,54.43,115.67,274.42,Single-ply,SBD,F,
Girls,60.1,8,Angela Terrazas,Hillsboro,56.88,92.99,61.23,108.86,263.08,Single-ply,SBD,F,
Girls,60.1,9,Aaliyah Belcher,Taylor,58.97,95.25,54.43,111.13,260.82,Single-ply,SBD,F,
Girls,60.1,10,Anya Cano,Sealy,56.79,99.79,43.09,99.79,242.67,Single-ply,SBD,F,
Girls,60.1,11,Kaitlyn Capps,China Spring,59.51,90.72,52.16,97.52,240.4,Single-ply,SBD,F,
Girls,60.1,DQ,Jaqui Aguilar,Alvarado,58.88,,,,,Single-ply,SBD,F,
Girls,60.1,DQ,Carrie Clawson,Jarrell,59.51,145.15,,,,Single-ply,SBD,F,
Girls,60.1,DQ,Kenzie Kollman,Sealy,59.33,,,,,Single-ply,SBD,F,
Girls,67.36,1,Salma Ramirez,Hillsboro,65.23,154.22,81.65,140.61,376.48,Single-ply,SBD,F,
Girls,67.36,2,Emalie Arnold,Alvarado,63.41,147.42,88.45,133.81,369.68,Single-ply,SBD,F,
Girls,67.36,3,Jessilyn Fuentes,Taylor,65.68,147.42,74.84,140.61,362.87,Single-ply,SBD,F,
Girls,67.36,4,Lexy Wilson,Salado,62.6,122.47,65.77,129.27,317.51,Single-ply,SBD,F,
Girls,67.36,5,Natalie Dollar,Glen Rose,66.59,117.93,65.77,131.54,315.25,Single-ply,SBD,F,
Girls,67.36,6,Cate Heiner,Godley,67.13,122.47,56.7,129.27,308.44,Single-ply,SBD,F,
Girls,67.36,7,Emery Castillo,Lake Belton,61.51,115.67,70.31,111.13,297.1,Single-ply,SBD,F,
Girls,67.36,8,Alexa Arriola,Brownwood,64.68,106.59,61.23,129.27,297.1,Single-ply,SBD,F,
Girls,67.36,9,Sydni Garza,Jarrell,63.87,124.74,56.7,111.13,292.57,Single-ply,SBD,F,
Girls,67.36,10,Ana De La Portillia,Sealy,65.86,113.4,61.23,117.93,292.57,Single-ply,SBD,F,
Girls,67.36,11,Liz Locke,Glen Rose,65.32,108.86,54.43,122.47,285.76,Single-ply,SBD,F,
Girls,67.36,12,Leslie Kozok,Stephenville,65.86,111.13,56.7,117.93,285.76,Single-ply,SBD,F,
Girls,67.36,DQ,Angelica Sanchez,Venus,62.32,,,,,Single-ply,SBD,F,
Girls,67.36,DQ,Hailey Tindell,Burnet,65.86,120.2,,,,Single-ply,SBD,F,
Girls,75.07,1,Annette Castaneda,Hillsboro,72.39,142.88,79.38,142.88,365.14,Single-ply,SBD,F,
Girls,75.07,2,Ayleen Gonzalez,Hillsboro,73.39,154.22,74.84,133.81,362.87,Single-ply,SBD,F,
Girls,75.07,3,Jaslin Jones,Brownwood,74.3,120.2,70.31,136.08,326.59,Single-ply,SBD,F,
Girls,75.07,4,Paigeryn Ayers,Lake Belton,73.3,124.74,61.23,129.27,315.25,Single-ply,SBD,F,
Girls,75.07,5,Deygan Hilliker,Gatesville,68.67,113.4,61.23,131.54,306.17,Single-ply,SBD,F,
Girls,75.07,6,Amy Tindell,Burnet,70.4,113.4,68.04,124.74,306.17,Single-ply,SBD,F,
Girls,75.07,7,Caris Howell,Stephenville,70.03,102.06,72.57,120.2,294.84,Single-ply,SBD,F,
Girls,75.07,8,Hannah Crawford,China Spring,74.93,104.33,65.77,115.67,285.76,Single-ply,SBD,F,
Girls,75.07,9,America Rojas,Taylor,68.04,108.86,54.43,113.4,276.69,Single-ply,SBD,F,
Girls,75.07,DQ,Mia Carrizales,Taylor,73.03,113.4,,,,Single-ply,SBD,F,
Girls,75.07,DQ,Jackie Brown,Venus,70.13,,,,,Single-ply,SBD,F,
Girls,75.07,DQ,Anna Ramirez,Lake Belton,73.3,,,,,Single-ply,SBD,F,
Girls,75.07,DQ,Melanie Nieto,Sealy,70.13,,,,,Single-ply,SBD,F,
Girls,75.07,DQ,Laney Cornelius,Godley,72.85,,,,,Single-ply,SBD,F,
Girls,82.33,1,Arianna Rosati,Stephenville,81.19,149.69,90.72,149.69,390.09,Single-ply,SBD,F,
Girls,82.33,2,Alondra Comacho,Jarrell,75.84,138.35,81.65,138.35,358.34,Single-ply,SBD,F,
Girls,82.33,3,Andrea Barrientos,Jarrell,81.19,136.08,63.5,142.88,342.46,Single-ply,SBD,F,
Girls,82.33,4,Maddie Durant,Stephenville,80.83,140.61,65.77,133.81,340.19,Single-ply,SBD,F,
Girls,82.33,5,Rylea Whitus,Burnet,79.65,127.01,83.91,124.74,335.66,Single-ply,SBD,F,
Girls,82.33,6,Kenzie Mayes,Godley,78.65,127.01,77.11,124.74,328.85,Single-ply,SBD,F,
Girls,82.33,7,Jayla Banks,Mexia,78.65,120.2,63.5,142.88,326.59,Single-ply,SBD,F,
Girls,82.33,8,Kaitlyn Casper,Salado,78.74,120.2,70.31,127.01,317.51,Single-ply,SBD,F,
Girls,82.33,9,Erakah Mendez,Glen Rose,79.38,108.86,56.7,131.54,297.1,Single-ply,SBD,F,
Girls,82.33,10,Kiara Trevino,Smithville,79.56,117.93,61.23,113.4,292.57,Single-ply,SBD,F,
Girls,82.33,11,Alyson Rea,Hillsboro,80.01,124.74,65.77,99.79,290.3,Single-ply,SBD,F,
Girls,82.33,12,Teagen Tappe,Burnet,76.84,111.13,56.7,106.59,274.42,Single-ply,SBD,F,
Girls,82.33,13,Maggie Fletcher,Lampasas,75.93,102.06,56.7,108.86,267.62,Single-ply,SBD,F,
Girls,82.33,DQ,Giseiry Arroyo Rios,Jarrell,78.02,149.69,,,,Single-ply,SBD,F,
Girls,90.04,1,Jaedyn Campos,Hillsboro,82.64,165.56,122.47,129.27,417.3,Single-ply,SBD,F,
Girls,90.04,2,Jacky Cuevas,Hillsboro,86.73,161.03,72.57,142.88,376.48,Single-ply,SBD,F,
Girls,90.04,3,Haley Gober,Hillsboro,87.27,156.49,74.84,136.08,367.41,Single-ply,SBD,F,
Girls,90.04,4,Haylee Thomas,Lake Belton,83.28,136.08,70.31,145.15,351.53,Single-ply,SBD,F,
Girls,90.04,5,Kailey Thompson,Godley,86.36,138.35,65.77,124.74,328.85,Single-ply,SBD,F,
Girls,90.04,6,Austin Woolard,Glen Rose,84.28,122.47,65.77,124.74,312.98,Single-ply,SBD,F,
Girls,90.04,7,Carolina Soto,Stephenville,88.09,127.01,63.5,117.93,308.44,Single-ply,SBD,F,
Girls,90.04,8,Melina Solis,Salado,88.54,106.59,68.04,115.67,290.3,Single-ply,SBD,F,
Girls,90.04,9,Jenyfer Sanchez,Sealy,88.99,122.47,52.16,111.13,285.76,Single-ply,SBD,F,
Girls,90.04,10,Katie May,China Spring,86,102.06,56.7,115.67,274.42,Single-ply,SBD,F,
Girls,90.04,11,Victoria Smith,Giddings,87.54,104.33,56.7,102.06,263.08,Single-ply,SBD,F,
Girls,90.04,12,Isabel Ramirez,Godley,85,88.45,43.09,111.13,242.67,Single-ply,SBD,F,
Girls,90.04,DQ,Ciclali Rodriguez,Glen Rose,89.81,,,,,Single-ply,SBD,F,
Girls,90.04,DQ,Persia Rodriguez,Giddings,84.28,97.52,,,,Single-ply,SBD,F,
Girls,100.02,1,Destiny Taylor,Jarrell,93.08,176.9,77.11,154.22,408.23,Single-ply,SBD,F,
Girls,100.02,2,Ariel Lopez #1,Giddings,94.62,151.95,86.18,147.42,385.55,Single-ply,SBD,F,
Girls,100.02,3,Austyn Montemayor,Salado,91.9,154.22,95.25,133.81,383.29,Single-ply,SBD,F,
Girls,100.02,4,Izabella Vidales,Taylor,94.89,138.35,79.38,149.69,367.41,Single-ply,SBD,F,
Girls,100.02,5,Crystal Collins,Jarrell,90.72,133.81,77.11,154.22,365.14,Single-ply,SBD,F,
Girls,100.02,6,Landri Sagebiel,Fredericksburg,93.26,136.08,70.31,149.69,356.07,Single-ply,SBD,F,
Girls,100.02,7,Brittyn Hutson,Alvarado,97.34,145.15,72.57,122.47,340.19,Single-ply,SBD,F,
Girls,100.02,8,Arianna Phillips,Hillsboro,97.16,131.54,79.38,108.86,319.78,Single-ply,SBD,F,
Girls,100.02,9,Lillian Mayfield,Robinson,96.98,120.2,61.23,131.54,312.98,Single-ply,SBD,F,
Girls,100.02,10,Lluvia Loredo,Burnet,96.43,131.54,58.97,108.86,299.37,Single-ply,SBD,F,
Girls,100.02,11,Abigail Zientek,Sealy,93.62,113.4,47.63,104.33,265.35,Single-ply,SBD,F,
Girls,100.02,DQ,Steeley Earp,Smithville,91.26,113.4,56.7,,,Single-ply,SBD,F,
Girls,100.02,DQ,Karen Maldonado,Taylor,92.17,136.08,72.57,,,Single-ply,SBD,F,
Girls,100.02,DQ,Elizabeth Rutherford,Lake Belton,90.63,,,,,Single-ply,SBD,F,
Girls,117.71,1,Ana Frias,Taylor,113.13,172.37,88.45,147.42,408.23,Single-ply,SBD,F,
Girls,117.71,2,Lila Walling,Lampasas,103.51,151.95,86.18,127.01,365.14,Single-ply,SBD,F,
Girls,117.71,3,Janie Rainwater,Salado,109.77,133.81,88.45,140.61,362.87,Single-ply,SBD,F,
Girls,117.71,4,Ashlyn Harris,Brownwood,101.6,147.42,79.38,124.74,351.53,Single-ply,SBD,F,
Girls,117.71,5,Emma Huerta,Smithville,101.15,127.01,70.31,138.35,335.66,Single-ply,SBD,F,
Girls,117.71,6,Adela Ortega,Stephenville,100.61,122.47,61.23,129.27,312.98,Single-ply,SBD,F,
Girls,117.71,7,Lina Price,Giddings,112.31,111.13,79.38,122.47,312.98,Single-ply,SBD,F,
Girls,117.71,8,Shaden Soto,Fredericksburg,104.78,129.27,70.31,102.06,301.64,Single-ply,SBD,F,
Girls,117.71,9,Trezser Anderson,Smithville,100.79,113.4,61.23,120.2,294.84,Single-ply,SBD,F,
Girls,117.71,10,Haley Coski,Lake Belton,104.51,115.67,63.5,102.06,281.23,Single-ply,SBD,F,
Girls,117.71,11,Destiny Miller,Lake Belton,107.23,92.99,58.97,95.25,247.21,Single-ply,SBD,F,
Girls,117.71,DQ,McKayla Bible,China Spring,105.6,108.86,61.23,,,Single-ply,SBD,F,
Girls,117.71+,1,Emmaleah Zacha,Gatesville,138.25,192.78,104.33,149.69,446.79,Single-ply,SBD,F,
Girls,117.71+,2,Mallory Alexander,Glen Rose,136.44,172.37,90.72,145.15,408.23,Single-ply,SBD,F,
Girls,117.71+,3,Delaney Turner,Giddings,120.02,163.29,83.91,117.93,365.14,Single-ply,SBD,F,
Girls,117.71+,4,Emily Hernandez,Giddings,120.02,138.35,72.57,102.06,312.98,Single-ply,SBD,F,
Girls,117.71+,DQ,Kamryn Nichols,Mexia,121.11,,,,,Single-ply,SBD,F,
Girls,117.71+,DQ,Rachel Harville,Jarrell,127.1,,,,,Single-ply,SBD,F,
