Division,WeightClassKg,Place,Name,Team,BodyweightKg,Best3SquatKg,Best3BenchKg,Best3DeadliftKg,TotalKg,Equipment,Event,Sex
Boys,51.71,1,Alec Page,Tyler Lee,46.45,77.11,38.56,81.65,197.31,Single-ply,SBD,M
Boys,55.79,1,Angel Barroso,Tyler Chapel Hill,54.34,151.95,104.33,158.76,415.04,Single-ply,SBD,M
Boys,55.79,2,Vann Rainer,Tyler Lee,55.79,133.81,58.97,136.08,328.85,Single-ply,SBD,M
Boys,55.79,3,Lukas Gill,Tyler Lee,54.16,117.93,70.31,120.2,308.44,Single-ply,SBD,M
Boys,55.79,DQ,Nathan Tarkington,Tyler Chapel Hill,54.88,,,,,Single-ply,SBD,M
Boys,59.87,1,Tysen Pierce,Henderson,59.15,124.74,65.77,147.42,337.93,Single-ply,SBD,M
Boys,59.87,2,Mario Carrasco,Whitehouse,59.24,108.86,79.38,129.27,317.51,Single-ply,SBD,M
Boys,59.87,3,Hunter Clemmons,Tyler Lee,59.33,115.67,52.16,145.15,312.98,Single-ply,SBD,M
Boys,59.87,4,Austin Miller,Troup,59.33,99.79,58.97,108.86,267.62,Single-ply,SBD,M
Boys,59.87,DQ,Tim McFall,Whitehouse,57.61,,,,,Single-ply,SBD,M
Boys,67.13,1,D'Cameron Walker,Henderson,66.59,183.7,117.93,181.44,483.08,Single-ply,SBD,M
Boys,67.13,2,Alex Tellez,Tyler Chapel Hill,64.5,161.03,92.99,181.44,435.45,Single-ply,SBD,M
Boys,67.13,3,Kaden Mahoney,Troup,63.68,181.44,95.25,156.49,433.18,Single-ply,SBD,M
Boys,67.13,4,Bryce Gregory,Tyler Lee,65.95,151.95,104.33,176.9,433.18,Single-ply,SBD,M
Boys,67.13,5,Ben Villegas,Jacksonville,62.51,167.83,102.06,158.76,428.64,Single-ply,SBD,M
Boys,67.13,6,John Ford #3,Troup,66.86,158.76,86.18,165.56,410.5,Single-ply,SBD,M
Boys,67.13,7,Braden Miller,Whitehouse,65.59,149.69,92.99,147.42,390.09,Single-ply,SBD,M
Boys,67.13,8,Jesse Calley,Troup,65.41,142.88,74.84,156.49,374.21,Single-ply,SBD,M
Boys,74.84,1,Chaez Spurlock,Whitehouse,74.3,215.46,138.35,217.72,571.53,Single-ply,SBD,M
Boys,74.84,2,Bryce Attaway,Troup,72.94,217.72,131.54,195.04,544.31,Single-ply,SBD,M
Boys,74.84,3,Jordan Martin #1,Whitehouse,73.57,183.7,108.86,185.97,478.54,Single-ply,SBD,M
Boys,74.84,4,Jacob Huddleston,Jacksonville,74.3,181.44,97.52,192.78,471.74,Single-ply,SBD,M
Boys,74.84,5,Gerardo Ramirez,Jacksonville,74.57,167.83,104.33,181.44,453.59,Single-ply,SBD,M
Boys,74.84,6,John Cunyus,Henderson,69.94,151.95,102.06,192.78,446.79,Single-ply,SBD,M
Boys,74.84,7,Malakai Preston,Tyler Lee,74.75,170.1,97.52,163.29,430.91,Single-ply,SBD,M
Boys,74.84,8,Marion Rico,Tyler Chapel Hill,73.48,154.22,106.59,158.76,419.57,Single-ply,SBD,M
Boys,74.84,9,Alberto Lozano,Jacksonville,72.94,140.61,104.33,149.69,394.63,Single-ply,SBD,M
Boys,74.84,10,Julius Asuncion,Whitehouse,68.31,124.74,97.52,151.95,374.21,Single-ply,SBD,M
Boys,74.84,11,Jeremiah Ramirez,Troup,69.31,138.35,77.11,145.15,360.61,Single-ply,SBD,M
Boys,74.84,DQ,Chadd Cole,Troup,68.49,,,,,Single-ply,SBD,M
Boys,82.1,1,Brayden Bulman,Whitehouse,81.92,222.26,145.15,233.6,601.01,Single-ply,SBD,M
Boys,82.1,2,Byron Johnson #1,Rusk,81.37,217.72,127.01,226.8,571.53,Single-ply,SBD,M
Boys,82.1,3,Sean Rogers,Rusk,81.74,176.9,120.2,195.04,492.15,Single-ply,SBD,M
Boys,82.1,4,Luis Lajqi,Tyler Lee,82.1,181.44,95.25,210.92,487.61,Single-ply,SBD,M
Boys,82.1,5,Aj MeGaha,Tyler Chapel Hill,81.37,163.29,61.23,163.29,387.82,Single-ply,SBD,M
Boys,82.1,6,Caleb Bolay,Whitehouse,77.47,145.15,95.25,142.88,383.29,Single-ply,SBD,M
Boys,82.1,DQ,Jamarcus Mumphrey,Tyler Chapel Hill,79.11,174.63,108.86,,,Single-ply,SBD,M
Boys,89.81,1,Cameron Castles,Henderson,87.72,201.85,120.2,213.19,535.24,Single-ply,SBD,M
Boys,89.81,2,Jamichael Nicholson,Tyler Lee,89.54,192.78,106.59,210.92,510.29,Single-ply,SBD,M
Boys,89.81,3,Jacob Taylor,Henderson,88.54,206.38,106.59,192.78,505.76,Single-ply,SBD,M
Boys,89.81,4,Jackson Rogers,Rusk,87.36,197.31,106.59,199.58,503.49,Single-ply,SBD,M
Boys,89.81,5,Tariq Woods,Tyler Lee,87.72,192.78,113.4,188.24,494.42,Single-ply,SBD,M
Boys,89.81,6,Jordan Hicks,Jacksonville,87.27,170.1,104.33,179.17,453.59,Single-ply,SBD,M
Boys,89.81,7,Sy Ybarra,Whitehouse,84.1,142.88,111.13,158.76,412.77,Single-ply,SBD,M
Boys,89.81,8,Tristin Turner,Jacksonville,84.37,149.69,88.45,170.1,408.23,Single-ply,SBD,M
Boys,89.81,9,Cade Spearman,Whitehouse,85.91,136.08,83.91,142.88,362.87,Single-ply,SBD,M
Boys,99.79,1,Jay'Quan Barnett,Henderson,94.17,226.8,120.2,197.31,544.31,Single-ply,SBD,M
Boys,99.79,2,Willy Figueroa,Tyler Lee,98.61,190.51,95.25,192.78,478.54,Single-ply,SBD,M
Boys,99.79,3,Caleb Pittman,Whitehouse,96.71,185.97,95.25,151.95,433.18,Single-ply,SBD,M
Boys,99.79,4,Spencer Allen,Troup,98.52,163.29,79.38,147.42,390.09,Single-ply,SBD,M
Boys,99.79,5,Will Nix,Henderson,89.99,151.95,74.84,136.08,362.87,Single-ply,SBD,M
Boys,99.79,DQ,Adrian Lacy,Tyler Chapel Hill,90.54,199.58,,,,Single-ply,SBD,M
Boys,109.77,1,Clayton Conrad,Henderson,105.23,242.67,131.54,238.14,612.35,Single-ply,SBD,M
Boys,109.77,2,Johnathan Housley,Whitehouse,103.96,215.46,142.88,217.72,576.06,Single-ply,SBD,M
Boys,109.77,3,Nick Acker,Rusk,106.32,235.87,129.27,210.92,576.06,Single-ply,SBD,M
Boys,109.77,4,Micah Dudley,Henderson,109.77,219.99,142.88,213.19,576.06,Single-ply,SBD,M
Boys,109.77,5,Jackson Smith,Tyler Chapel Hill,101.51,213.19,113.4,229.06,555.65,Single-ply,SBD,M
Boys,109.77,6,Donovan Jordan,Tyler Lee,109.32,192.78,108.86,201.85,503.49,Single-ply,SBD,M
Boys,109.77,7,Tariq Robinson,Tyler Lee,105.96,188.24,131.54,158.76,478.54,Single-ply,SBD,M
Boys,109.77,8,Lane Gilchrest,Rusk,100.06,190.51,95.25,181.44,467.2,Single-ply,SBD,M
Boys,109.77,9,Zalatiel Antonio,Jacksonville,104.33,183.7,90.72,188.24,462.66,Single-ply,SBD,M
Boys,109.77,10,Caleb Nichols,Henderson,108.5,181.44,106.59,170.1,458.13,Single-ply,SBD,M
Boys,124.74,1,Darius Trimble,Whitehouse,118.84,272.16,161.03,238.14,671.32,Single-ply,SBD,M
Boys,124.74,2,Michael Sutton,Tyler Chapel Hill,123.2,278.96,136.08,240.4,655.44,Single-ply,SBD,M
Boys,124.74,3,Brayden Price,Tyler Chapel Hill,116.94,272.16,136.08,206.38,614.62,Single-ply,SBD,M
Boys,124.74,4,Jaqlon Turner,Rusk,120.47,258.55,115.67,231.33,605.55,Single-ply,SBD,M
Boys,124.74,5,Roberto Miranda,Henderson,120.84,242.67,138.35,215.46,596.47,Single-ply,SBD,M
Boys,124.74,6,Kah'Lil Montague,Tyler Lee,119.75,204.12,122.47,188.24,514.83,Single-ply,SBD,M
Boys,124.74,7,Lance Deal,Whitehouse,110.95,183.7,124.74,204.12,512.56,Single-ply,SBD,M
Boys,124.74,8,Caleb Power,Whitehouse,124.65,179.17,97.52,185.97,462.66,Single-ply,SBD,M
Boys,124.74+,1,Malik Gilliam,Troup,169.55,317.51,167.83,231.33,716.68,Single-ply,SBD,M
Boys,124.74+,2,Jacmaine Lewis,Rusk,132.63,285.76,142.88,278.96,707.6,Single-ply,SBD,M
Boys,124.74+,3,Garrett Blalock,Rusk,132.99,281.23,138.35,238.14,657.71,Single-ply,SBD,M
Boys,124.74+,4,Samua Turner,Whitehouse,141.97,190.51,122.47,208.65,521.63,Single-ply,SBD,M
Boys,124.74+,5,Mason Adams,Henderson,129,219.99,102.06,174.63,496.68,Single-ply,SBD,M
