Division,WeightClassKg,Place,Name,Team,BodyweightKg,Best3SquatKg,Best3BenchKg,Best3DeadliftKg,TotalKg,Equipment,Event,Sex
Girls,44.23,1,Ally Highful,Los Fresnos,43.77,129.27,65.77,129.27,324.32,Single-ply,SBD,F
Girls,44.23,2,Lauren Aldape,Mercedes,42.18,127.01,54.43,129.27,310.71,Single-ply,SBD,F
Girls,44.23,3,Rhema Orta,Port Lavaca Calhoun,40.82,117.93,54.43,117.93,290.3,Single-ply,SBD,F
Girls,44.23,4,Xochitl Gamez,Edinburg Vela,44,108.86,54.43,113.4,276.69,Single-ply,SBD,F
Girls,44.23,5,Yanitza Vazquez,La Joya Juarez-Lincoln,42.41,102.06,43.09,124.74,269.89,Single-ply,SBD,F
Girls,44.23,6,Abby Silva,Edcouch-Elsa,43.54,108.86,47.63,113.4,269.89,Single-ply,SBD,F
Girls,44.23,7,Leah Sandoval,La Joya Palmview,43.54,97.52,49.9,108.86,256.28,Single-ply,SBD,F
Girls,44.23,8,Haylee Olguin,Victoria West,43.54,97.52,49.9,108.86,256.28,Single-ply,SBD,F
Girls,44.23,9,Alexis Herrera,Alice,41.5,115.67,40.82,97.52,254.01,Single-ply,SBD,F
Girls,44.23,10,Natalie Pruneda,Pharr Valley View,42.64,102.06,38.56,113.4,254.01,Single-ply,SBD,F
Girls,44.23,11,Maria Pro,PSJA Southwest,44.23,111.13,45.36,97.52,254.01,Single-ply,SBD,F
Girls,44.23,12,Tianne Trujillo,Alice,39.69,113.4,47.63,90.72,251.74,Single-ply,SBD,F
Girls,44.23,13,Itzel Garcia #2,PSJA Southwest,42.64,106.59,40.82,102.06,249.48,Single-ply,SBD,F
Girls,44.23,14,Arielle Ruiz,Edcouch-Elsa,42.96,102.06,49.9,97.52,249.48,Single-ply,SBD,F
Girls,44.23,15,Amber Flores,Uvalde,43.54,102.06,34.02,113.4,249.48,Single-ply,SBD,F
Girls,44.23,16,Amaya Rodriguez,Weslaco,42.64,81.65,36.29,129.27,247.21,Single-ply,SBD,F
Girls,44.23,17,Chloe Canales,San Antonio East Central,42.18,95.25,43.09,102.06,240.4,Single-ply,SBD,F
Girls,44.23,18,Briana Cisneros,McAllen Memorial,43.54,90.72,47.63,102.06,240.4,Single-ply,SBD,F
Girls,44.23,19,Breanna Rodriguez,Edinburg Vela,44,83.91,54.43,97.52,235.87,Single-ply,SBD,F
Girls,44.23,NS,Alexandra Gracia,Brownsville Pace,,,,,,Single-ply,SBD,F
Girls,44.23,DQ,Frida Rodriguez,Brownsville Pace,41.96,,,,,Single-ply,SBD,F
Girls,47.85,1,Aliana Richardson,Los Fresnos,47.4,131.54,65.77,145.15,342.46,Single-ply,SBD,F
Girls,47.85,2,Alexis Rivas,Brownsville Lopez,46.72,142.88,58.97,129.27,331.12,Single-ply,SBD,F
Girls,47.85,3,Laisha Lopez,La Joya Palmview,46.72,138.35,77.11,111.13,326.59,Single-ply,SBD,F
Girls,47.85,4,Helen Reyes,Weslaco,47.4,127.01,61.23,138.35,326.59,Single-ply,SBD,F
Girls,47.85,5,Present May,Port Lavaca Calhoun,47.63,138.35,56.7,131.54,326.59,Single-ply,SBD,F
Girls,47.85,6,Daniela Perez,Los Fresnos,47.63,129.27,70.31,122.47,322.05,Single-ply,SBD,F
Girls,47.85,7,Cassandra Puente,Los Fresnos,47.58,124.74,61.23,131.54,317.51,Single-ply,SBD,F
Girls,47.85,8,Evelyn Hernandez,Weslaco East,46.95,131.54,47.63,131.54,310.71,Single-ply,SBD,F
Girls,47.85,9,Camila Velez,Mission Sharyland,47.63,131.54,49.9,124.74,306.17,Single-ply,SBD,F
Girls,47.85,10,Madison Maldonado,Port Lavaca Calhoun,47.17,120.2,56.7,122.47,299.37,Single-ply,SBD,F
Girls,47.85,11,Yliana Beltran,Donna,46.27,117.93,63.5,115.67,297.1,Single-ply,SBD,F
Girls,47.85,12,Perla Hernandez,Brownsville Pace,47.4,131.54,52.16,113.4,297.1,Single-ply,SBD,F
Girls,47.85,13,Anahi Castro,PSJA North,46.27,117.93,54.43,122.47,294.84,Single-ply,SBD,F
Girls,47.85,14,Julie Escobar,Los Fresnos,47.85,113.4,61.23,120.2,294.84,Single-ply,SBD,F
Girls,47.85,15,Valeria Perez,Weslaco East,46.72,122.47,49.9,120.2,292.57,Single-ply,SBD,F
Girls,47.85,16,Norma Vega,Brownsville Lopez,46.49,124.74,52.16,111.13,288.03,Single-ply,SBD,F
Girls,47.85,17,Tammy Idrogo,Laredo United South,46.72,115.67,47.63,120.2,283.5,Single-ply,SBD,F
Girls,47.85,18,Nallely Gallegos,Laredo Johnson,46.95,120.2,49.9,113.4,283.5,Single-ply,SBD,F
Girls,47.85,19,Karen Olivo,Brownsville Pace,47.63,111.13,47.63,113.4,272.16,Single-ply,SBD,F
Girls,47.85,20,Zenaida Araujo,Brownsville Veterans Memorial,46.95,104.33,47.63,111.13,263.08,Single-ply,SBD,F
Girls,47.85,21,Michelle Rodriguez,La Joya Palmview,46.95,108.86,49.9,102.06,260.82,Single-ply,SBD,F
Girls,47.85,NS,Odalys Garduno,Victoria West,,,,,,Single-ply,SBD,F
Girls,47.85,DQ,Alysha Alvarez,Edinburg Vela,44.45,108.86,61.23,,,Single-ply,SBD,F
Girls,47.85,DQ,Mia Macias,Alice,46.72,,,,,Single-ply,SBD,F
Girls,47.85,DQ,Jonique Rodriguez,Brownsville Pace,47.85,,,,,Single-ply,SBD,F
Girls,47.85,DQ,Janiece Uribe,Brownsville Hanna,47.85,,,,,Single-ply,SBD,F
Girls,51.94,1,McKayla Cortez,Port Lavaca Calhoun,48.76,151.95,81.65,142.88,376.48,Single-ply,SBD,F
Girls,51.94,2,Juliette Cantu,Edinburg Vela,50.8,147.42,77.11,124.74,349.27,Single-ply,SBD,F
Girls,51.94,3,Monika Saldivar,Laredo United South,50.8,138.35,63.5,142.88,344.73,Single-ply,SBD,F
Girls,51.94,4,Ale Escandon,Brownsville Hanna,50.35,138.35,70.31,133.81,342.46,Single-ply,SBD,F
Girls,51.94,5,Mandy Sanchez,Los Fresnos,50.58,133.81,65.77,142.88,342.46,Single-ply,SBD,F
Girls,51.94,6,Brissa Ramirez,Mission Sharyland,49.9,136.08,63.5,140.61,340.19,Single-ply,SBD,F
Girls,51.94,7,Ianellie Aguilar,Los Fresnos,51.48,131.54,65.77,142.88,340.19,Single-ply,SBD,F
Girls,51.94,8,Amanda Rodriguez #3,Mission Sharyland,50.8,129.27,61.23,142.88,333.39,Single-ply,SBD,F
Girls,51.94,9,Mia Reyes,Corpus Christi Tuloso-Midway,50.8,145.15,54.43,133.81,333.39,Single-ply,SBD,F
Girls,51.94,10,Summer Sosa,Los Fresnos,50.8,136.08,58.97,136.08,331.12,Single-ply,SBD,F
Girls,51.94,11,Leena Salinas,Donna,50.8,127.01,56.7,136.08,319.78,Single-ply,SBD,F
Girls,51.94,12,Hope Davila,Corpus Christi Tuloso-Midway,50.8,142.88,52.16,124.74,319.78,Single-ply,SBD,F
Girls,51.94,13,Lacey Littles,Victoria West,50.58,122.47,58.97,136.08,317.51,Single-ply,SBD,F
Girls,51.94,14,Jackie Martinez,Los Fresnos,50.8,122.47,52.16,142.88,317.51,Single-ply,SBD,F
Girls,51.94,15,Kailey Castillo,Corpus Christi Tuloso-Midway,51.48,124.74,63.5,124.74,312.98,Single-ply,SBD,F
Girls,51.94,16,Stephanie Ray,Brownsville Veterans Memorial,51.94,117.93,49.9,145.15,312.98,Single-ply,SBD,F
Girls,51.94,17,Pricilla Hernandez,La Joya Palmview,50.35,124.74,61.23,124.74,310.71,Single-ply,SBD,F
Girls,51.94,18,Jade Ross,Seguin,50.35,111.13,49.9,145.15,306.17,Single-ply,SBD,F
Girls,51.94,19,Daphne Antu,PSJA North,51.03,124.74,58.97,122.47,306.17,Single-ply,SBD,F
Girls,51.94,20,Melanie Loa,Los Fresnos,51.03,122.47,54.43,129.27,306.17,Single-ply,SBD,F
Girls,51.94,21,Kalista Solis,PSJA Southwest,51.48,142.88,47.63,115.67,306.17,Single-ply,SBD,F
Girls,51.94,22,Alina Corpus,PSJA,51.26,113.4,56.7,127.01,297.1,Single-ply,SBD,F
Girls,51.94,23,Brooke Brown,Floresville,49.67,120.2,47.63,113.4,281.23,Single-ply,SBD,F
Girls,51.94,NS,Noemi Balderrama,Laredo Johnson,,,,,,Single-ply,SBD,F
Girls,51.94,DQ,Sylvia Gil,San Antonio Kennedy,49.67,,,,,Single-ply,SBD,F
Girls,56.02,1,Martha Salaya,Weslaco,55.79,192.78,102.06,174.63,469.47,Single-ply,SBD,F
Girls,56.02,2,Bella Vargas,Los Fresnos,55.79,142.88,86.18,163.29,392.36,Single-ply,SBD,F
Girls,56.02,3,Corina Yanez,Donna,53.3,161.03,74.84,149.69,385.55,Single-ply,SBD,F
Girls,56.02,4,Misty Prado,McAllen Memorial,53.98,136.08,90.72,149.69,376.48,Single-ply,SBD,F
Girls,56.02,5,Danielle Bacon,Port Lavaca Calhoun,52.16,147.42,77.11,147.42,371.95,Single-ply,SBD,F
Girls,56.02,6,Audrey Olivarez,Edinburg Vela,54.2,142.88,83.91,142.88,369.68,Single-ply,SBD,F
Girls,56.02,7,Yesenia Valdez,Edinburg,55.7,145.15,72.57,145.15,362.87,Single-ply,SBD,F
Girls,56.02,8,Brianna Ruiz,Los Fresnos,54.2,145.15,61.23,147.42,353.8,Single-ply,SBD,F
Girls,56.02,9,Jenacy Avitia,Donna North,55.57,131.54,77.11,133.81,342.46,Single-ply,SBD,F
Girls,56.02,10,Mariah Garcia,Weslaco,56.02,136.08,68.04,138.35,342.46,Single-ply,SBD,F
Girls,56.02,11,Veronica Alaniz,Edinburg,53.07,122.47,70.31,147.42,340.19,Single-ply,SBD,F
Girls,56.02,12,Shelby Webster,Corpus Christi Tuloso-Midway,55.34,133.81,58.97,140.61,333.39,Single-ply,SBD,F
Girls,56.02,13,Daesha Cano,PSJA North,54.43,140.61,61.23,127.01,328.85,Single-ply,SBD,F
Girls,56.02,14,Kimberly Salas,Edinburg Vela,54.88,131.54,56.7,140.61,328.85,Single-ply,SBD,F
Girls,56.02,15,Victoria Olivarez,Mission Veterans Memorial,55.34,133.81,65.77,129.27,328.85,Single-ply,SBD,F
Girls,56.02,16,Jocelyn Martinez,Pharr Valley View,55.34,131.54,40.82,156.49,328.85,Single-ply,SBD,F
Girls,56.02,17,Odalys Serna,Edinburg Economedes,56.02,117.93,61.23,136.08,315.25,Single-ply,SBD,F
Girls,56.02,18,Haley Svadlenak,Gregory-Portland,53.52,147.42,54.43,111.13,312.98,Single-ply,SBD,F
Girls,56.02,19,Miranda Reyes,Corpus Christi Tuloso-Midway,54.43,129.27,58.97,124.74,312.98,Single-ply,SBD,F
Girls,56.02,20,Abbi Hernandez,Seguin,54.66,120.2,65.77,120.2,306.17,Single-ply,SBD,F
Girls,56.02,21,Angel Esquibel,Los Fresnos,54.88,113.4,52.16,136.08,301.64,Single-ply,SBD,F
Girls,56.02,DQ,Veida Gonzalez,La Joya,54.43,117.93,,,,Single-ply,SBD,F
Girls,56.02,DQ,Shelsey Calvillo,Brownsville Hanna,52.16,111.13,,,,Single-ply,SBD,F
Girls,60.1,1,Lorena Martinez,Los Fresnos,59.65,167.83,70.31,181.44,419.57,Single-ply,SBD,F
Girls,60.1,2,Mikella Trevino,Weslaco,60.1,156.49,74.84,149.69,381.02,Single-ply,SBD,F
Girls,60.1,3,Skyleigh Sears,Port Lavaca Calhoun,57.61,145.15,74.84,158.76,378.75,Single-ply,SBD,F
Girls,60.1,4,Katherine Hernandez,PSJA North,58.29,133.81,68.04,170.1,371.95,Single-ply,SBD,F
Girls,60.1,5,Melanie Garcia,Laredo Johnson,59.19,165.56,58.97,147.42,371.95,Single-ply,SBD,F
Girls,60.1,6,Amanda Olivarez,Donna North,59.65,149.69,77.11,142.88,369.68,Single-ply,SBD,F
Girls,60.1,7,Genesis Villarreal,Port Lavaca Calhoun,58.06,151.95,70.31,145.15,367.41,Single-ply,SBD,F
Girls,60.1,8,Karen Martinez,Donna,59.65,147.42,68.04,151.95,367.41,Single-ply,SBD,F
Girls,60.1,9,Nora Balladares,Edinburg,56.93,142.88,86.18,136.08,365.14,Single-ply,SBD,F
Girls,60.1,10,Jessica Luna,Mission,59.19,147.42,58.97,156.49,362.87,Single-ply,SBD,F
Girls,60.1,11,Jasmine Hernandez,Alice,58.97,145.15,61.23,151.95,358.34,Single-ply,SBD,F
Girls,60.1,12,Pamela Arce,Edinburg,59.78,133.81,95.25,129.27,358.34,Single-ply,SBD,F
Girls,60.1,13,Gabriella DeLaRosa,Edinburg Vela,58.29,142.88,77.11,133.81,353.8,Single-ply,SBD,F
Girls,60.1,14,Kassidy Sanchez,Mercedes,58.51,142.88,58.97,151.95,353.8,Single-ply,SBD,F
Girls,60.1,15,Julianna Perez,Corpus Christi Tuloso-Midway,56.93,142.88,68.04,140.61,351.53,Single-ply,SBD,F
Girls,60.1,16,Steffi Olivarez,Edinburg Vela,58.51,133.81,83.91,133.81,351.53,Single-ply,SBD,F
Girls,60.1,17,Deandra Flores,Edinburg Vela,58.29,136.08,74.84,127.01,337.93,Single-ply,SBD,F
Girls,60.1,18,Victoria Torres,Sharyland Pioneer,58.51,149.69,68.04,120.2,337.93,Single-ply,SBD,F
Girls,60.1,19,Destiny Lazcano,Edcouch-Elsa,59.87,131.54,47.63,147.42,326.59,Single-ply,SBD,F
Girls,60.1,20,Erin Quiroz,Edinburg Vela,58.74,120.2,68.04,131.54,319.78,Single-ply,SBD,F
Girls,60.1,21,Destini Thomas,Donna,57.61,133.81,70.31,113.4,317.51,Single-ply,SBD,F
Girls,60.1,DQ,Val Reyes,Brownsville Hanna,59.65,,,,,Single-ply,SBD,F
Girls,60.1,DQ,Aleiyah Mireles,San Benito,58.74,,,,,Single-ply,SBD,F
Girls,60.1,DQ,Cassie Perez,San Benito,60.1,142.88,72.57,,,Single-ply,SBD,F
Girls,67.36,1,Felissa Ponce de Leon,La Joya Palmview,66.68,199.58,102.06,185.97,487.61,Single-ply,SBD,F
Girls,67.36,2,Alexandra Chavez,Brownsville Hanna,66.9,197.31,106.59,174.63,478.54,Single-ply,SBD,F
Girls,67.36,3,Marisol Pulido,Brownsville Lopez,65.09,174.63,79.38,183.7,437.72,Single-ply,SBD,F
Girls,67.36,4,Lizeth De La Fuente,Brownsville Lopez,66,199.58,63.5,165.56,428.64,Single-ply,SBD,F
Girls,67.36,5,Gabriella Canales,Alice,65.77,158.76,70.31,172.37,401.43,Single-ply,SBD,F
Girls,67.36,6,Alexis Tamez,Weslaco,67.13,163.29,79.38,149.69,392.36,Single-ply,SBD,F
Girls,67.36,7,Jennifer Cisneros,Brownsville Lopez,66.22,154.22,63.5,165.56,383.29,Single-ply,SBD,F
Girls,67.36,8,Mary Jane Maldonado,Los Fresnos,65.54,142.88,74.84,158.76,376.48,Single-ply,SBD,F
Girls,67.36,9,Erica Garcia,Port Lavaca Calhoun,65.54,154.22,68.04,151.95,374.21,Single-ply,SBD,F
Girls,67.36,10,Rheagan Schmidt,Seguin,66.22,147.42,68.04,158.76,374.21,Single-ply,SBD,F
Girls,67.36,11,Dalila Sanchez,Donna North,66,156.49,68.04,147.42,371.95,Single-ply,SBD,F
Girls,67.36,12,Nehemiah Coronado,La Joya,67.36,151.95,68.04,151.95,371.95,Single-ply,SBD,F
Girls,67.36,13,Christina Ybarra,Sharyland Pioneer,64.86,151.95,68.04,145.15,365.14,Single-ply,SBD,F
Girls,67.36,14,Rebecca Castillo,Seguin,63.5,142.88,56.7,163.29,362.87,Single-ply,SBD,F
Girls,67.36,15,Sophia Torres,Los Fresnos,66.22,140.61,63.5,158.76,362.87,Single-ply,SBD,F
Girls,67.36,16,Jenneth Perez,Weslaco,66.68,145.15,63.5,136.08,344.73,Single-ply,SBD,F
Girls,67.36,DQ,Hailey Nichols,Port Lavaca Calhoun,63.73,,,,,Single-ply,SBD,F
Girls,67.36,DQ,Jorja Vela,Edinburg,64.86,138.35,74.84,,,Single-ply,SBD,F
Girls,75.07,1,LeAnn Ramirez,San Benito,74.62,197.31,102.06,190.51,489.88,Single-ply,SBD,F
Girls,75.07,2,Laisha Gardner,Laredo United South,73.26,188.24,102.06,192.78,483.08,Single-ply,SBD,F
Girls,75.07,3,Paola Espinoza,Weslaco East,73.03,176.9,88.45,181.44,446.79,Single-ply,SBD,F
Girls,75.07,4,Alex Bazan #1,La Joya Palmview,73.94,167.83,92.99,163.29,424.11,Single-ply,SBD,F
Girls,75.07,5,Alexis Estringel,Alice,74.84,176.9,92.99,140.61,410.5,Single-ply,SBD,F
Girls,75.07,6,Jaci Cavazos,Corpus Christi Tuloso-Midway,72.12,176.9,77.11,149.69,403.7,Single-ply,SBD,F
Girls,75.07,7,Edy Garza,Alice,73.48,156.49,74.84,154.22,385.55,Single-ply,SBD,F
Girls,75.07,8,Destany Guzman,Edinburg Vela,74.16,138.35,88.45,156.49,383.29,Single-ply,SBD,F
Girls,75.07,9,Marisela Gonzalez,Edinburg,73.71,147.42,90.72,140.61,378.75,Single-ply,SBD,F
Girls,75.07,10,Jessica Stein,Castroville Medina Valley,73.03,163.29,77.11,136.08,376.48,Single-ply,SBD,F
Girls,75.07,11,Jaylin Kindles,Seguin,69.63,151.95,61.23,161.03,374.21,Single-ply,SBD,F
Girls,75.07,12,Jaslyn Olivarez,McAllen,71.44,165.56,74.84,133.81,374.21,Single-ply,SBD,F
Girls,75.07,13,Taylor Shelton,Victoria West,73.26,142.88,92.99,138.35,374.21,Single-ply,SBD,F
Girls,75.07,14,Jozlyn Lara,Edcouch-Elsa,73.48,151.95,68.04,154.22,374.21,Single-ply,SBD,F
Girls,75.07,15,Priscilla Acosta,McAllen Rowe,73.71,165.56,77.11,131.54,374.21,Single-ply,SBD,F
Girls,75.07,16,Virginia Watkins,Edinburg Vela,74.16,142.88,79.38,151.95,374.21,Single-ply,SBD,F
Girls,75.07,17,Adriana Valerio,Brownsville Pace,74.84,163.29,65.77,145.15,374.21,Single-ply,SBD,F
Girls,75.07,18,Hannah Spencer,Port Lavaca Calhoun,75.07,151.95,74.84,147.42,374.21,Single-ply,SBD,F
Girls,75.07,19,Jessica Saenz,Donna North,73.94,154.22,72.57,136.08,362.87,Single-ply,SBD,F
Girls,75.07,20,Tiy King,Corpus Christi Calallen,71.21,149.69,65.77,142.88,358.34,Single-ply,SBD,F
Girls,75.07,21,Mackenzie Contreras,Edcouch-Elsa,74.84,142.88,70.31,136.08,349.27,Single-ply,SBD,F
Girls,75.07,22,Alexis Alaniz,Brownsville Hanna,71.44,142.88,79.38,122.47,344.73,Single-ply,SBD,F
Girls,75.07,DQ,Anika Perez,Laredo United South,74.62,172.37,61.23,,,Single-ply,SBD,F
Girls,75.07,DQ,Ariyana Martinez,Gregory-Portland,70.99,145.15,70.31,,,Single-ply,SBD,F
Girls,82.33,1,Jesed Castro,Los Fresnos,81.87,233.6,127.01,170.1,530.7,Single-ply,SBD,F
Girls,82.33,2,Jackie Guerra,Alice,80.51,185.97,86.18,165.56,437.72,Single-ply,SBD,F
Girls,82.33,3,Destiny Andrade,Castroville Medina Valley,79.83,190.51,102.06,140.61,433.18,Single-ply,SBD,F
Girls,82.33,4,Victoria Trevino,San Antonio Southside,81.42,188.24,74.84,151.95,415.04,Single-ply,SBD,F
Girls,82.33,5,Kacie Lopez,Weslaco,80.74,176.9,77.11,158.76,412.77,Single-ply,SBD,F
Girls,82.33,6,Alyssa Juarez,Weslaco East,78.7,165.56,90.72,151.95,408.23,Single-ply,SBD,F
Girls,82.33,7,Julie Stanford,Corpus Christi Tuloso-Midway,81.19,183.7,79.38,145.15,408.23,Single-ply,SBD,F
Girls,82.33,8,Katherine Garza,Edinburg Vela,79.61,158.76,95.25,145.15,399.16,Single-ply,SBD,F
Girls,82.33,9,Maya Perez,Brownsville Hanna,79.61,165.56,72.57,154.22,392.36,Single-ply,SBD,F
Girls,82.33,10,Madelyne McKinney,Brownsville Veterans Memorial,78.47,158.76,68.04,163.29,390.09,Single-ply,SBD,F
Girls,82.33,11,Katrina Mendez,Mission Sharyland,79.61,149.69,77.11,129.27,356.07,Single-ply,SBD,F
Girls,82.33,12,Liana Garcia,Roma,81.65,147.42,61.23,145.15,353.8,Single-ply,SBD,F
Girls,82.33,NS,Andrade Destiny,Castroville Medina Valley,,,,,,Single-ply,SBD,F
Girls,90.04,1,Chloe Zapata,Alice,88.45,226.8,104.33,174.63,505.76,Single-ply,SBD,F
Girls,90.04,2,Elexa Silva,Brownsville Pace,87.32,204.12,92.99,158.76,455.86,Single-ply,SBD,F
Girls,90.04,3,Valerie Silva,Weslaco,82.55,176.9,113.4,163.29,453.59,Single-ply,SBD,F
Girls,90.04,4,Angeline Young,Edinburg Vela,88,179.17,106.59,165.56,451.32,Single-ply,SBD,F
Girls,90.04,5,Layla Espinoza,Laredo United South,88,192.78,77.11,172.37,442.25,Single-ply,SBD,F
Girls,90.04,6,Itzayanni Martinez,McAllen Memorial,88.45,183.7,92.99,151.95,428.64,Single-ply,SBD,F
Girls,90.04,7,Fatima Herrera,San Antonio Southside,89.58,188.24,95.25,145.15,428.64,Single-ply,SBD,F
Girls,90.04,8,Avery Heimer,Floresville,87.09,188.24,92.99,145.15,426.38,Single-ply,SBD,F
Girls,90.04,9,Stephanie Urquieta,Corpus Christi Tuloso-Midway,88.22,201.85,77.11,138.35,417.3,Single-ply,SBD,F
Girls,90.04,10,Destinee Perez,Mercedes,88.68,174.63,72.57,163.29,410.5,Single-ply,SBD,F
Girls,90.04,11,Marianna Mejia,Laredo Cigarroa,88.45,167.83,99.79,136.08,403.7,Single-ply,SBD,F
Girls,90.04,12,Amber Gaytan,Brownsville Hanna,88.45,165.56,72.57,165.56,403.7,Single-ply,SBD,F
Girls,90.04,13,Jaretze Ramon,La Joya Palmview,87.09,161.03,77.11,158.76,396.89,Single-ply,SBD,F
Girls,90.04,DQ,Sara Ramos,Uvalde,89.36,174.63,68.04,,,Single-ply,SBD,F
Girls,100.02,1,Lucy Zamora,Gregory-Portland,95.93,229.06,95.25,179.17,503.49,Single-ply,SBD,F
Girls,100.02,2,Carolina De Leon,Weslaco East,93.89,204.12,90.72,176.9,471.74,Single-ply,SBD,F
Girls,100.02,3,Julieann Delgado,Brownsville Lopez,97.3,190.51,92.99,188.24,471.74,Single-ply,SBD,F
Girls,100.02,4,Ashley Tapia,PSJA,99.34,192.78,86.18,176.9,455.86,Single-ply,SBD,F
Girls,100.02,5,Amanda Garcia,Brownsville Hanna,99.11,183.7,106.59,156.49,446.79,Single-ply,SBD,F
Girls,100.02,6,Justine Guerrero,Edcouch-Elsa,99.79,188.24,83.91,163.29,435.45,Single-ply,SBD,F
Girls,100.02,7,Julie Sepulveda,Alice,97.3,179.17,83.91,163.29,426.38,Single-ply,SBD,F
Girls,100.02,8,Brenda Lopez,Pharr Valley View,96.84,158.76,88.45,161.03,408.23,Single-ply,SBD,F
Girls,100.02,9,Sitlalik Chapa,La Joya,98.88,181.44,68.04,158.76,408.23,Single-ply,SBD,F
Girls,100.02,10,Damarys Salazar,Donna North,95.25,154.22,95.25,147.42,396.89,Single-ply,SBD,F
Girls,100.02,11,Halie Guajardo,Port Lavaca Calhoun,96.84,163.29,61.23,154.22,378.75,Single-ply,SBD,F
Girls,100.02,NS,Lupita Lerma,San Benito,,,,,,Single-ply,SBD,F
Girls,117.71,1,Deborah Lugo,Laredo United South,108.18,222.26,104.33,172.37,498.95,Single-ply,SBD,F
Girls,117.71,2,Crystal Hernandez,PSJA North,110.45,190.51,108.86,183.7,483.08,Single-ply,SBD,F
Girls,117.71,3,Jasmine Medina,San Antonio Southwest,114.76,204.12,83.91,176.9,464.93,Single-ply,SBD,F
Girls,117.71,4,Joy Perez,Brownsville Hanna,113.17,197.31,95.25,163.29,455.86,Single-ply,SBD,F
Girls,117.71,5,Aria Metcalf,San Antonio East Central,114.53,176.9,81.65,176.9,435.45,Single-ply,SBD,F
Girls,117.71,6,Miranda Lopez,Edcouch-Elsa,108.64,192.78,88.45,142.88,424.11,Single-ply,SBD,F
Girls,117.71,7,Blanca Gonzalez,Brownsville Pace,100.92,183.7,79.38,156.49,419.57,Single-ply,SBD,F
Girls,117.71,8,Brittany Lozano,Brownsville Hanna,106.59,174.63,74.84,170.1,419.57,Single-ply,SBD,F
Girls,117.71,9,Raelene Chavez,Corpus Christi Tuloso-Midway,112.72,195.04,79.38,145.15,419.57,Single-ply,SBD,F
Girls,117.71,10,Jazzmine Barrera,Edcouch-Elsa,106.14,163.29,77.11,142.88,383.29,Single-ply,SBD,F
Girls,117.71,11,Brianna Campos,La Joya Juarez-Lincoln,106.14,136.08,79.38,147.42,362.87,Single-ply,SBD,F
Girls,117.71,DQ,Emma Leyva,PSJA,114.99,192.78,,,,Single-ply,SBD,F
Girls,117.71+,1,Melissa Moralez,Weslaco East,123.38,267.62,133.81,188.24,589.67,Single-ply,SBD,F
Girls,117.71+,2,Marlene Martinez,Edinburg Economedes,122.47,192.78,102.06,158.76,453.59,Single-ply,SBD,F
Girls,117.71+,3,Victoria Casares,Donna,122.24,204.12,63.5,140.61,408.23,Single-ply,SBD,F
Girls,117.71+,4,Arely Rincon,Weslaco East,117.75,165.56,99.79,136.08,401.43,Single-ply,SBD,F
Girls,117.71+,5,Karla Anguiano,Seguin,134.72,151.95,83.91,165.56,401.43,Single-ply,SBD,F
Girls,117.71+,6,Jameleht Gonzalez,Laredo Martin,119.29,161.03,72.57,161.03,394.63,Single-ply,SBD,F
Girls,117.71+,7,Errlentina Garcia,La Joya Juarez-Lincoln,123.38,161.03,83.91,136.08,381.02,Single-ply,SBD,F
Girls,117.71+,8,Kim Rojas,Mercedes,119.52,127.01,58.97,147.42,333.39,Single-ply,SBD,F
Girls,117.71+,9,Ericka Valdivia,Laredo Nixon,122.02,133.81,56.7,140.61,331.12,Single-ply,SBD,F
Girls,117.71+,10,Kaylynn Lawson,Victoria West,121.56,113.4,65.77,108.86,288.03,Single-ply,SBD,F
Girls,117.71+,DQ,Victoria Cardenas,Brownsville Pace,130.41,,,,,Single-ply,SBD,F
