Division,WeightClassKg,Place,Name,Team,BodyweightKg,Best3SquatKg,Best3BenchKg,Best3DeadliftKg,TotalKg,Equipment,Event,Sex,BirthDate
Boys,51.71,1,Chase Stansbury,Vidor,50.71,138.35,88.45,138.35,365.14,Single-ply,SBD,M,
Boys,51.71,2,Evan Ceja,Nederland,51.53,120.2,88.45,140.61,349.27,Single-ply,SBD,M,
Boys,51.71,3,Logan Williams,Nederland,51.71,127.01,81.65,140.61,349.27,Single-ply,SBD,M,
Boys,55.79,1,Westin Sepulvado,Vidor,54.88,151.95,95.25,158.76,405.97,Single-ply,SBD,M,
Boys,55.79,2,Seth Miller,Sour Lake Hardin-Jefferson,55.52,117.93,56.7,117.93,292.57,Single-ply,SBD,M,
Boys,55.79,3,Gavin Talina,Lumberton,54.7,90.72,56.7,92.99,240.4,Single-ply,SBD,M,
Boys,59.87,1,Mason Harvill,Sour Lake Hardin-Jefferson,57.61,156.49,74.84,154.22,385.55,Single-ply,SBD,M,
Boys,59.87,2,Noah Hardy #2,Nederland,57.52,127.01,70.31,145.15,342.46,Single-ply,SBD,M,
Boys,67.13,1,Diego Torres,Nederland,67.04,197.31,108.86,224.53,530.7,Single-ply,SBD,M,
Boys,67.13,2,Stephen Lopez,Lumberton,66.13,165.56,113.4,174.63,453.59,Single-ply,SBD,M,
Boys,67.13,3,Brayden Martel,Sour Lake Hardin-Jefferson,66.68,151.95,74.84,161.03,387.82,Single-ply,SBD,M,
Boys,67.13,4,Karson Brewer,Nederland,62.69,145.15,81.65,154.22,381.02,Single-ply,SBD,M,
Boys,67.13,5,Blake Hughes,Sour Lake Hardin-Jefferson,63.78,124.74,90.72,147.42,362.87,Single-ply,SBD,M,
Boys,67.13,6,Amari Berry,Sour Lake Hardin-Jefferson,63.41,117.93,61.23,124.74,303.91,Single-ply,SBD,M,
Boys,74.84,1,Devin Peterson,Vidor,74.84,204.12,136.08,210.92,551.11,Single-ply,SBD,M,
Boys,74.84,2,Jacob Humble,Lumberton,72.85,190.51,97.52,204.12,492.15,Single-ply,SBD,M,
Boys,74.84,3,Jaedon Woodard,Vidor,74.39,185.97,108.86,170.1,464.93,Single-ply,SBD,M,
Boys,74.84,4,Grant McWherter,Vidor,74.12,161.03,70.31,167.83,399.16,Single-ply,SBD,M,
Boys,74.84,5,Conner Richard,Vidor,69.31,133.81,79.38,151.95,365.14,Single-ply,SBD,M,
Boys,74.84,6,Toby Davis,Sour Lake Hardin-Jefferson,68.76,124.74,74.84,147.42,347,Single-ply,SBD,M,
Boys,74.84,7,Hayden Comer,Sour Lake Hardin-Jefferson,72.67,120.2,70.31,124.74,315.25,Single-ply,SBD,M,
Boys,82.1,1,Tyler Fountain,Sour Lake Hardin-Jefferson,80.56,206.38,117.93,183.7,508.02,Single-ply,SBD,M,
Boys,82.1,2,Sebastian Goodman,Lumberton,76.2,188.24,113.4,199.58,501.22,Single-ply,SBD,M,
Boys,82.1,3,Luke McCullough,Sour Lake Hardin-Jefferson,78.2,190.51,111.13,176.9,478.54,Single-ply,SBD,M,
Boys,82.1,4,Trevor Hatton,Vidor,79.74,142.88,102.06,170.1,415.04,Single-ply,SBD,M,
Boys,82.1,5,Nate Stapleton,Lumberton,75.84,149.69,99.79,163.29,412.77,Single-ply,SBD,M,
Boys,82.1,6,Jimmy Pham,Nederland,78.11,136.08,95.25,142.88,374.21,Single-ply,SBD,M,
Boys,89.81,1,Johnnie Torres,Nederland,89.18,195.04,124.74,208.65,528.44,Single-ply,SBD,M,
Boys,89.81,2,Dakota McNair,Sour Lake Hardin-Jefferson,84.73,192.78,117.93,197.31,508.02,Single-ply,SBD,M,
Boys,89.81,3,Faustino Galvan,Lumberton,85.37,176.9,131.54,176.9,485.34,Single-ply,SBD,M,
Boys,89.81,4,Tyler Rojas,Vidor,86.09,172.37,102.06,136.08,410.5,Single-ply,SBD,M,
Boys,99.79,1,Robert Hendon,Lumberton,98.16,197.31,97.52,156.49,451.32,Single-ply,SBD,M,
Boys,109.77,1,Clayton Corne,Lumberton,108.5,224.53,113.4,215.46,553.38,Single-ply,SBD,M,
Boys,109.77,2,Matthew Gil,Nederland,103.33,190.51,149.69,195.04,535.24,Single-ply,SBD,M,
Boys,109.77,3,Gabe Hernandez,Lumberton,106.05,183.7,108.86,174.63,467.2,Single-ply,SBD,M,
Boys,124.74,1,Jordan Smith #5,Vidor,124.1,281.23,206.38,265.35,752.96,Single-ply,SBD,M,
Boys,124.74,2,Aldo Salinas,Lumberton,123.92,238.14,124.74,204.12,566.99,Single-ply,SBD,M,
Boys,124.74,3,Holden Craver,Nederland,120.75,231.33,138.35,195.04,564.72,Single-ply,SBD,M,
Boys,124.74,4,Peter Thielen #2,Sour Lake Hardin-Jefferson,115.58,206.38,124.74,165.56,496.68,Single-ply,SBD,M,
Boys,124.74,5,Landon Wilcoxson,Vidor,112.94,179.17,115.67,163.29,458.13,Single-ply,SBD,M,
Boys,124.74,6,Wacey Blanchard,Nederland,119.02,195.04,79.38,147.42,421.84,Single-ply,SBD,M,
Boys,124.74,DQ,Grayden Spencer,Lumberton,118.12,204.12,108.86,,,Single-ply,SBD,M,
Boys,124.74,DQ,Micah Torres,Sour Lake Hardin-Jefferson,116.3,,,,,Single-ply,SBD,M,
Boys,139.71,1,Tyler Webb,Vidor,129.46,256.28,183.7,244.94,684.92,Single-ply,SBD,M,
Boys,139.71,2,Jonathan Petoskey,Lumberton,137.53,260.82,190.51,215.46,666.78,Single-ply,SBD,M,
Boys,139.71,3,Michael Marshall,Nederland,128.91,240.4,149.69,226.8,616.89,Single-ply,SBD,M,
Boys,139.71+,1,Andrew Hall,Nederland,164.84,172.37,95.25,158.76,426.38,Single-ply,SBD,M,
