Division,WeightClassKg,Place,Name,Team,BodyweightKg,Best3SquatKg,Best3BenchKg,Best3DeadliftKg,TotalKg,Equipment,Event,Sex,BirthDate
Boys,51.71,1,Hisaac Guerrero,Rio Hondo,50.89,142.88,115.67,156.49,415.04,Single-ply,SBD,M,
Boys,51.71,2,David Chittarath,Rockport-Fulton,51.71,149.69,77.11,158.76,385.55,Single-ply,SBD,M,
Boys,51.71,3,Josiah Maldonado,Robstown,49.44,142.88,70.31,142.88,356.07,Single-ply,SBD,M,
Boys,51.71,4,Ricky Martinez,Pearsall,50.35,122.47,77.11,133.81,333.39,Single-ply,SBD,M,
Boys,51.71,5,Joseph Norman,Corpus Christi John Paul II High School,47.54,106.59,74.84,142.88,324.32,Single-ply,SBD,M,
Boys,51.71,6,Christopher Reyes,San Antonio Brooks Academy,50.8,108.86,65.77,142.88,317.51,Single-ply,SBD,M,
Boys,51.71,7,Joel Tagle,Rio Hondo,50.44,111.13,77.11,127.01,315.25,Single-ply,SBD,M,
Boys,51.71,8,Robert Longoria,Pearsall,51.71,86.18,56.7,136.08,278.96,Single-ply,SBD,M,
Boys,51.71,DQ,Jacob Granado,Brownsville St. Joseph Academy,51.71,,,,,Single-ply,SBD,M,
Boys,51.71,DQ,Jaden Lopez,Port Isabel,51.17,170.1,,,,Single-ply,SBD,M,
Boys,51.71,NS,Tony Garza,Carrizo Springs,,,,,,Single-ply,SBD,M,
Boys,51.71,NS,Dorian Ramirez,Hidalgo Early College,,,,,,Single-ply,SBD,M,
Boys,55.79,1,Ethan Brown,Bandera,55.7,174.63,97.52,176.9,449.06,Single-ply,SBD,M,
Boys,55.79,2,Marco Garza,Pearsall,55.79,149.69,95.25,195.04,439.98,Single-ply,SBD,M,
Boys,55.79,3,Josh Trevino,Corpus Christi West Oso,55.79,161.03,95.25,174.63,430.91,Single-ply,SBD,M,
Boys,55.79,4,Donavon Longoria,Beeville Jones,54.16,151.95,92.99,176.9,421.84,Single-ply,SBD,M,
Boys,55.79,5,Ethan Hernandez,Geronimo Navarro,55.34,163.29,92.99,149.69,405.97,Single-ply,SBD,M,
Boys,55.79,6,Rigo Rosales,Robstown,54.79,154.22,83.91,165.56,403.7,Single-ply,SBD,M,
Boys,55.79,7,Anthony Ramirez,Corpus Christi West Oso,55.61,133.81,88.45,161.03,383.29,Single-ply,SBD,M,
Boys,55.79,8,Devin Garza,Pearsall,55.52,142.88,74.84,147.42,365.14,Single-ply,SBD,M,
Boys,55.79,9,Ryan Jimenez,Crystal City,55.52,124.74,92.99,145.15,362.87,Single-ply,SBD,M,
Boys,55.79,10,Thomas Dorman,Comal Canyon Lake,55.25,136.08,77.11,142.88,356.07,Single-ply,SBD,M,
Boys,55.79,NS,Adrian Lopez #7,Hidalgo Early College,,,,,,Single-ply,SBD,M,
Boys,59.87,1,David Hernandez,Port Isabel,59.6,197.31,111.13,206.38,514.83,Single-ply,SBD,M,
Boys,59.87,2,Ryan Garcia,Cuero,58.33,204.12,113.4,183.7,501.22,Single-ply,SBD,M,
Boys,59.87,3,Tommy Huerta,Crystal City,59.6,181.44,108.86,181.44,471.74,Single-ply,SBD,M,
Boys,59.87,4,Anthony Trevino,Rio Grande City Grulla,59.87,158.76,102.06,199.58,460.4,Single-ply,SBD,M,
Boys,59.87,5,Corey Francis,Beeville Jones,59.51,161.03,122.47,170.1,453.59,Single-ply,SBD,M,
Boys,59.87,6,Deonte Duhart,Ingleside,58.06,165.56,92.99,179.17,437.72,Single-ply,SBD,M,
Boys,59.87,7,John Contreras,Beeville Jones,57.7,165.56,70.31,195.04,430.91,Single-ply,SBD,M,
Boys,59.87,8,Ray Flores,Orange Grove,59.24,163.29,97.52,167.83,428.64,Single-ply,SBD,M,
Boys,59.87,9,Jonathan Mendoza,Ingleside,59.69,165.56,97.52,163.29,426.38,Single-ply,SBD,M,
Boys,59.87,DQ,Michael Lopez,Robstown,58.69,,,,,Single-ply,SBD,M,
Boys,59.87,NS,Cristian Martinez,Hondo,,,,,,Single-ply,SBD,M,
Boys,59.87,DQ,Tomas Arredondo,Rio Hondo,59.87,,,,,Single-ply,SBD,M,
Boys,67.13,1,Vimbainashe Muzheve,Kingsville King,66.59,226.8,120.2,217.72,564.72,Single-ply,SBD,M,
Boys,67.13,2,Angel Trujillo,Rockport-Fulton,67.13,210.92,129.27,217.72,557.92,Single-ply,SBD,M,
Boys,67.13,3,Angel Rodríguez #1,Crystal City,66.68,213.19,127.01,172.37,512.56,Single-ply,SBD,M,
Boys,67.13,4,Diego Hernandez,Gonzales,65.68,204.12,102.06,201.85,508.02,Single-ply,SBD,M,
Boys,67.13,5,Rafael Garza,Poteet,67.13,188.24,117.93,199.58,505.76,Single-ply,SBD,M,
Boys,67.13,6,Efrain Lopez,Rio Hondo,64.41,181.44,127.01,192.78,501.22,Single-ply,SBD,M,
Boys,67.13,7,Angelus Lopez,Kingsville King,64.41,185.97,104.33,199.58,489.88,Single-ply,SBD,M,
Boys,67.13,8,Abel Cervantes,Sinton,66.32,179.17,106.59,201.85,487.61,Single-ply,SBD,M,
Boys,67.13,9,Luke Davis,Sinton,65.59,174.63,111.13,195.04,480.81,Single-ply,SBD,M,
Boys,67.13,DQ,Brian Burns,Bandera,66.59,,,,,Single-ply,SBD,M,
Boys,67.13,DQ,Frank Hernandez,Rio Hondo,65.95,181.44,136.08,,,Single-ply,SBD,M,
Boys,74.84,1,Jaxon Mabile,Ingleside,73.57,272.16,142.88,258.55,673.58,Single-ply,SBD,M,
Boys,74.84,2,Buddy Santos,Devine,74.12,231.33,120.2,238.14,589.67,Single-ply,SBD,M,
Boys,74.84,3,Ryan Wells,Rockport-Fulton,74.84,210.92,131.54,217.72,560.19,Single-ply,SBD,M,
Boys,74.84,4,Joe Chick,Zapata,74.57,208.65,127.01,213.19,548.85,Single-ply,SBD,M,
Boys,74.84,5,Gabriel Martinez,Pearsall,73.39,199.58,122.47,201.85,523.9,Single-ply,SBD,M,
Boys,74.84,6,Cesar Matamoros,Gonzales,73.48,204.12,120.2,188.24,512.56,Single-ply,SBD,M,
Boys,74.84,7,Catorino Tijerina,Raymondville,74.57,183.7,122.47,201.85,508.02,Single-ply,SBD,M,
Boys,74.84,8,Exander Gomez,Sinton,74.84,188.24,122.47,188.24,498.95,Single-ply,SBD,M,
Boys,74.84,9,Tony Garcia,Rio Hondo,74.39,163.29,127.01,199.58,489.88,Single-ply,SBD,M,
Boys,74.84,DQ,Jon Loya,Pleasanton,74.57,188.24,,,,Single-ply,SBD,M,
Boys,74.84,NS,Jacob Martinez,Hidalgo Early College,,,,,,Single-ply,SBD,M,
Boys,74.84,NS,Steven Perales,Carrizo Springs,,,,,,Single-ply,SBD,M,
Boys,74.84,DQ,Javen Mendiola,Cuero,71.76,,,,,Single-ply,SBD,M,
Boys,82.1,1,Euler de Leon,Geronimo Navarro,82.1,267.62,163.29,272.16,703.07,Single-ply,SBD,M,
Boys,82.1,2,Juan Torres,Raymondville,81.37,256.28,133.81,238.14,628.23,Single-ply,SBD,M,
Boys,82.1,3,Roberto Torres,Sinton,82.01,235.87,142.88,226.8,605.55,Single-ply,SBD,M,
Boys,82.1,4,Eden Fuentes,Pearsall,77.93,231.33,140.61,226.8,598.74,Single-ply,SBD,M,
Boys,82.1,5,Tyler Felux,San Antonio Brooks Academy,79.02,226.8,142.88,226.8,596.47,Single-ply,SBD,M,
Boys,82.1,6,Marcus Trejo,Sinton,82.1,235.87,117.93,229.06,582.87,Single-ply,SBD,M,
Boys,82.1,7,David Saldana,Zapata,78.47,224.53,124.74,226.8,576.06,Single-ply,SBD,M,
Boys,82.1,8,Jonathan Mendoza,Port Isabel,82.1,217.72,129.27,219.99,566.99,Single-ply,SBD,M,
Boys,82.1,DQ,Ray Leal,Pearsall,81.92,,,,,Single-ply,SBD,M,
Boys,82.1,DQ,Ethan Thomas,Geronimo Navarro,81.74,,,,,Single-ply,SBD,M,
Boys,82.1,DQ,Zakary Widenor,Bandera,80.47,,,,,Single-ply,SBD,M,
Boys,82.1,DQ,Nathan Delgado,Crystal City,81.74,,,,,Single-ply,SBD,M,
Boys,89.81,1,David Reyna,Geronimo Navarro,89.81,265.35,174.63,219.99,659.98,Single-ply,SBD,M,
Boys,89.81,2,Josiah Marquez,Pearsall,85.91,247.21,142.88,244.94,635.03,Single-ply,SBD,M,
Boys,89.81,3,Martin Rios,Crystal City,89.81,258.55,147.42,229.06,635.03,Single-ply,SBD,M,
Boys,89.81,4,Isaac Garcia,Crystal City,88.54,235.87,138.35,242.67,616.89,Single-ply,SBD,M,
Boys,89.81,5,Gilbert Salas,San Antonio Holy Cross,89.27,258.55,145.15,213.19,616.89,Single-ply,SBD,M,
Boys,89.81,6,Joseph Fillmore,Corpus Christi John Paul II High School,89.54,244.94,122.47,238.14,605.55,Single-ply,SBD,M,
Boys,89.81,7,Nicolas Lopez,Rio Hondo,86.82,217.72,145.15,226.8,589.67,Single-ply,SBD,M,
Boys,89.81,DQ,Cody Rosas,Robstown,86.64,,,,,Single-ply,SBD,M,
Boys,89.81,DQ,Joe D Montoya,Beeville Jones,89.27,251.74,161.03,,,Single-ply,SBD,M,
Boys,89.81,NS,Euler de Leon,Geronimo Navarro,,,,,,Single-ply,SBD,M,
Boys,89.81,NS,Donny Caballero,Hidalgo Early College,,,,,,Single-ply,SBD,M,
Boys,89.81,NS,Irvin Castro,La Feria,,,,,,Single-ply,SBD,M,
Boys,99.79,1,Seth Ruff,Ingleside,94.26,306.17,151.95,294.84,752.96,Single-ply,SBD,M,
Boys,99.79,2,Ambrose Patton,Beeville Jones,98.25,265.35,151.95,244.94,662.24,Single-ply,SBD,M,
Boys,99.79,3,Moses Carrasco,Poteet,98.43,249.48,163.29,249.48,662.24,Single-ply,SBD,M,
Boys,99.79,4,Roel de los Santos,Zapata,96.16,263.08,142.88,251.74,657.71,Single-ply,SBD,M,
Boys,99.79,5,Jonah Hernandez,Port Isabel,97.52,281.23,161.03,215.46,657.71,Single-ply,SBD,M,
Boys,99.79,6,Steve Peña #2,Robstown,97.25,240.4,174.63,229.06,644.1,Single-ply,SBD,M,
Boys,99.79,7,Jake Arroyos,Beeville Jones,97.52,249.48,161.03,226.8,637.3,Single-ply,SBD,M,
Boys,99.79,8,Joey Cantu,Rockport-Fulton,99.25,272.16,147.42,204.12,623.69,Single-ply,SBD,M,
Boys,99.79,9,Caleb Smith,Cuero,99.25,249.48,154.22,217.72,621.42,Single-ply,SBD,M,
Boys,99.79,DQ,Cole Booker,Geronimo Navarro,98.52,,,,,Single-ply,SBD,M,
Boys,99.79,NS,Armando Rodriguez,Carrizo Springs,,,,,,Single-ply,SBD,M,
Boys,109.77,1,Gilbert Arriaga,Kingsville King,108.14,337.93,206.38,303.91,848.22,Single-ply,SBD,M,
Boys,109.77,2,Anthony Rogers,Ingleside,108.59,281.23,172.37,238.14,691.73,Single-ply,SBD,M,
Boys,109.77,3,Alfonso Mata,Crystal City,109.41,272.16,174.63,244.94,691.73,Single-ply,SBD,M,
Boys,109.77,4,Brandon Rodriguez,Robstown,104.33,244.94,174.63,260.82,680.39,Single-ply,SBD,M,
Boys,109.77,5,Lance Lopez,Orange Grove,108.86,281.23,174.63,224.53,680.39,Single-ply,SBD,M,
Boys,109.77,6,Joe Vega #5,Crystal City,109.68,276.69,163.29,197.31,637.3,Single-ply,SBD,M,
Boys,109.77,7,Anthony Selvera,Rio Hondo,106.96,244.94,170.1,208.65,623.69,Single-ply,SBD,M,
Boys,109.77,8,Gabriel Gutierrez,Pearsall,106.87,254.01,127.01,235.87,616.89,Single-ply,SBD,M,
Boys,109.77,DQ,Christian Almaguer,Gonzales,107.5,,,,,Single-ply,SBD,M,
Boys,109.77,NS,Pulido Angel,Hidalgo Early College,,,,,,Single-ply,SBD,M,
Boys,109.77,NS,Antonio Marroquin,La Feria,,,,,,Single-ply,SBD,M,
Boys,109.77,NS,Alfredo Segura,Carrizo Springs,,,,,,Single-ply,SBD,M,
Boys,124.74,1,Matthew Lopez #1,Rio Hondo,118.75,317.51,174.63,272.16,764.3,Single-ply,SBD,M,
Boys,124.74,2,Brandon Kilough,Rockport-Fulton,122.47,274.42,167.83,297.1,739.36,Single-ply,SBD,M,
Boys,124.74,3,Ryan Gomez,Gonzales,122.47,256.28,165.56,254.01,675.85,Single-ply,SBD,M,
Boys,124.74,4,Paul Pena,Robstown,123.2,272.16,165.56,238.14,675.85,Single-ply,SBD,M,
Boys,124.74,5,Scott Atkinson,Rio Hondo,120.84,249.48,142.88,272.16,664.51,Single-ply,SBD,M,
Boys,124.74,6,Nate Beck,Victoria St. Joseph,115.21,244.94,167.83,244.94,657.71,Single-ply,SBD,M,
Boys,124.74,7,Nathan Cavazos,San Antonio Holy Cross,120.2,276.69,133.81,235.87,646.37,Single-ply,SBD,M,
Boys,124.74,8,Charles Derouen,Cuero,120.75,272.16,142.88,215.46,630.49,Single-ply,SBD,M,
Boys,124.74,9,Kollin Meeks,Pearsall,113.94,274.42,147.42,204.12,625.96,Single-ply,SBD,M,
Boys,124.74,10,Gabriel Heimer,San Antonio Brooks Academy,123.01,249.48,165.56,183.7,598.74,Single-ply,SBD,M,
Boys,124.74,11,Elijiah Brown,Sinton,124.1,242.67,149.69,204.12,596.47,Single-ply,SBD,M,
Boys,124.74,NS,Saul Hernandez,Hidalgo Early College,,,,,,Single-ply,SBD,M,
Boys,124.74+,1,Sergio Hernandez,Geronimo Navarro,159.76,331.12,217.72,260.82,809.66,Single-ply,SBD,M,
Boys,124.74+,2,Jaden Brooks,Raymondville,173.73,317.51,165.56,265.35,748.43,Single-ply,SBD,M,
Boys,124.74+,3,Seth Ritchey,Poteet,141.07,294.84,183.7,254.01,732.55,Single-ply,SBD,M,
Boys,124.74+,4,Coby Pruett,Gonzales,139.71,294.84,167.83,263.08,725.75,Single-ply,SBD,M,
Boys,124.74+,5,Carter Holtkamp,Geronimo Navarro,134.35,301.64,185.97,231.33,718.94,Single-ply,SBD,M,
Boys,124.74+,6,Nate Martinez #4,Sinton,131.09,274.42,174.63,251.74,700.8,Single-ply,SBD,M,
Boys,124.74+,7,Brett Jahns,Gonzales,139.98,235.87,181.44,192.78,610.08,Single-ply,SBD,M,
Boys,124.74+,8,Rolando Zuniga,Rio Hondo,162.02,181.44,190.51,215.46,587.4,Single-ply,SBD,M,
Boys,124.74+,DQ,Jonas DeLeon,Cuero,149.5,,,,,Single-ply,SBD,M,
Boys,124.74+,NS,Daniel Garza,Carrizo Springs,,,,,,Single-ply,SBD,M,
Boys,124.74+,NS,David Garza,Hidalgo Early College,,,,,,Single-ply,SBD,M,
Boys,124.74+,NS,Triston Rosales,La Feria,,,,,,Single-ply,SBD,M,
