Place,Name,BirthDate,Team,WeightClassKg,BodyweightKg,Squat1Kg,Squat2Kg,Squat3Kg,Best3SquatKg,Bench1Kg,Bench2Kg,Bench3Kg,Best3BenchKg,Deadlift1Kg,Deadlift2Kg,Deadlift3Kg,Best3DeadliftKg,TotalKg,Sex,Division,Event,Equipment
1,Dhruv Raj Kure,2002-02-06,MADHYA PRADESH,53,52.8,-170,170,175,175,90,-95,-95,90,177.5,-187.5,187.5,187.5,452.5,M,Sub-Juniors,SBD,Single-ply
2,Ilamparithi B,2001-06-28,PONDICHERRY,53,52.6,150,157.5,165,165,85,92.5,97.5,97.5,150,160,-165,160,422.5,M,Sub-Juniors,SBD,Single-ply
3,Naveen S,2001-08-22,TAMIL NADU,53,51.9,150,157.5,165,165,70,77.5,-82.5,77.5,170,-180,-180,170,412.5,M,Sub-Juniors,SBD,Single-ply
4,Rishikesh Kadam,2002-01-05,MAHARASHTRA,53,50.2,135,-150,150,150,77.5,85,87.5,87.5,160,170,-175,170,407.5,M,Sub-Juniors,SBD,Single-ply
5,Khushal Patel,2002-02-11,CHHATTISGARH,53,51.7,130,140,145,145,70,77.5,80,80,170,177.5,182.5,182.5,407.5,M,Sub-Juniors,SBD,Single-ply
6,Akash Devdhar,2001-01-06,MAHARASHTRA,53,51.6,145,-155,155,155,65,72.5,-75,72.5,150,162.5,170,170,397.5,M,Sub-Juniors,SBD,Single-ply
7,Gaurav Sahu,2001-10-26,RAJASTHAN,53,51.9,135,140,145,145,55,60,65,65,150,162.5,167.5,167.5,377.5,M,Sub-Juniors,SBD,Single-ply
8,Afzal Ali,2002-12-01,UTTAR PRADESH,53,52.3,120,127.5,-132.5,127.5,-70,70,-85,70,140,152.5,167.5,167.5,365,M,Sub-Juniors,SBD,Single-ply
9,Murali Krishna,2001-08-20,ANDHRA PRADESH,53,47.6,110,130,-135,130,70,75,77.5,77.5,145,150,155,155,362.5,M,Sub-Juniors,SBD,Single-ply
10,Archana G,2001-09-17,PONDICHERRY,53,52.35,100,110,125,125,50,57.5,-62.5,57.5,140,155,162.5,162.5,345,M,Sub-Juniors,SBD,Single-ply
11,K Sandeep,2001-12-10,TELANGANA,53,51.2,120,-127.5,-127.5,120,-65,65,-70,65,140,-150,-150,140,325,M,Sub-Juniors,SBD,Single-ply
12,Jayamaruthi M,2004-07-04,TAMIL NADU,53,52.55,122.5,135,-145,135,55,-62.5,-62.5,55,132.5,142.5,-160,142.5,332.5,M,Sub-Juniors,SBD,Single-ply
13,Shiv Charan Rakesh Kuldeep,2001-09-15,TELANGANA,53,51.9,130,137.5,-142.5,137.5,55,-62.5,-62.5,55,130,-135,-137.5,130,322.5,M,Sub-Juniors,SBD,Single-ply
14,Gousapeer M,2004-12-25,KARNATAKA,53,51.3,100,120,-130,120,-55,55,65,65,115,130,135,135,320,M,Sub-Juniors,SBD,Single-ply
15,Nawab Hussain,2001-05-14,UTTAR PRADESH,53,50.6,90,-100,-100,90,70,-75,75,75,135,145,-150,145,310,M,Sub-Juniors,SBD,Single-ply
DQ,Akshat Goswami,2004-06-26,CHHATTISGARH,53,53,-70,-70,-70,,,,,,,,,,,M,Sub-Juniors,SBD,Single-ply
DQ,Solanki Raj,2001-11-14,GUJARAT,53,53,-100,-100,-100,,,,,,,,,,,M,Sub-Juniors,SBD,Single-ply
DQ,Sanahal Rajkumar,2003-09-30,MANIPUR,53,46.55,70,,,70,,,,,,,,,,M,Sub-Juniors,SBD,Single-ply
DQ,Maibam Ibomcha Meitei,2002-03-16,MANIPUR,53,52,-150,-150,-150,,-60,60,72.5,72.5,145,155,-167.5,155,,M,Sub-Juniors,SBD,Single-ply
DQ,Suresh Pal,2003-12-04,MADHYA PRADESH,53,52.45,115,117.5,127.5,127.5,-82.5,-82.5,-82.5,,,,,,,M,Sub-Juniors,SBD,Single-ply
1,Anurag A,2001-07-21,TAMIL NADU,59,57.15,160,170,180,180,85,90,92.5,92.5,190,202.5,-212.5,202.5,475,M,Sub-Juniors,SBD,Single-ply
2,Tushar Kadam,2001-02-14,MADHYA PRADESH,59,58.1,172.5,-182.5,182.5,182.5,87.5,95,-97.5,95,182.5,195,-202.5,195,472.5,M,Sub-Juniors,SBD,Single-ply
3,Bharath Kumar P,2002-03-08,ANDHRA PRADESH,59,58.05,170,182.5,-190,182.5,82.5,92.5,97.5,97.5,170,185,-192.5,185,465,M,Sub-Juniors,SBD,Single-ply
4,Aswin Bv,2001-05-16,KERALA,59,55.45,150,160,165,165,70,82.5,87.5,87.5,170,185,-195,185,437.5,M,Sub-Juniors,SBD,Single-ply
5,Balaram Sk,2002-11-09,KARNATAKA,59,57.7,120,130,-140,130,75,85,87.5,87.5,145,165,170,170,387.5,M,Sub-Juniors,SBD,Single-ply
6,Shivam Tiwari,2002-12-10,MADHYA PRADESH,59,59,112.5,-117.5,117.5,117.5,77.5,82.5,85,85,150,-155,-155,150,352.5,M,Sub-Juniors,SBD,Single-ply
7,Ragul T,2003-06-10,PONDICHERRY,59,56.25,105,-115,-155,105,50,60,65,65,135,150,,150,320,M,Sub-Juniors,SBD,Single-ply
8,Padamkumar Irom,2003-01-19,MANIPUR,59,53.6,105,-115,-115,105,-60,60,-75,60,130,140,150,150,315,M,Sub-Juniors,SBD,Single-ply
9,Kesavaraman M,2002-11-12,PONDICHERRY,59,56.1,115,120,-125,120,50,55,-60,55,125,-135,-135,125,300,M,Sub-Juniors,SBD,Single-ply
DQ,Brahma Dath M Ramesh,2001-04-09,KERALA,59,57.6,160,167.5,172.5,172.5,90,100,-102.5,100,-160,-160,-160,,,M,Sub-Juniors,SBD,Single-ply
DQ,Bishal Ningthoujam,2003-03-15,MANIPUR,59,59,-130,-130,,,65,-75,-75,65,-140,140,-150,140,,M,Sub-Juniors,SBD,Single-ply
DQ,Rishiraj Bhatti,2003-01-25,GUJARAT,59,53.75,-80,-80,-80,,-40,-40,-40,,,,,,,M,Sub-Juniors,SBD,Single-ply
DQ,Rahul Bodh,2001-12-02,HARYANA,59,54.4,-110,-110,-110,,-60,-60,,,,,,,,M,Sub-Juniors,SBD,Single-ply
DQ,Rahulson R,2002-07-24,ANDAMAN & NICOBAR,59,56.5,-105,-105,-105,,-50,-50,,,,,,,,M,Sub-Juniors,SBD,Single-ply
DQ,K Mohammed Shahil,2001-03-21,ANDAMAN & NICOBAR,59,58.75,-105,-105,-105,,-50,-50,,,,,,,,M,Sub-Juniors,SBD,Single-ply
DQ,Pranav Kumar Gahlot,2002-05-05,RAJASTHAN,59,58,-160,-160,-160,,-92.5,92.5,100,100,165,-172.5,,165,,M,Sub-Juniors,SBD,Single-ply
DQ,Sangle Aman Prakash,2002-01-21,GUJARAT,59,58.9,-160,-160,-160,,60,75,-85,75,170,-180,-180,170,,M,Sub-Juniors,SBD,Single-ply
1,Naresh Ramawat,2002-12-17,RAJASTHAN,66,64.6,190,212.5,-220,212.5,90,97.5,105,105,220,232.5,237.5,237.5,555,M,Sub-Juniors,SBD,Single-ply
2,Aren Joy Fernandes,2001-09-14,KARNATAKA,66,64.4,185,-195,195,195,100,105,-107.5,105,210,-222.5,222.5,222.5,522.5,M,Sub-Juniors,SBD,Single-ply
3,Akshay Kumar Sahadur Prajapati,2001-09-10,MAHARASHTRA,66,65.7,-185,185,190,190,120,127.5,-132.5,127.5,182.5,192.5,-202.5,192.5,510,M,Sub-Juniors,SBD,Single-ply
4,Dilip Patel,2002-05-22,CHHATTISGARH,66,63.9,-190,200,215,215,80,90,92.5,92.5,190,200,-212.5,200,507.5,M,Sub-Juniors,SBD,Single-ply
5,Gurpreet Singh,2001-08-28,PUNJAB,66,64.6,155,165,172.5,172.5,90,100,102.5,102.5,205,217.5,-222.5,217.5,492.5,M,Sub-Juniors,SBD,Single-ply
6,Jeevan B,2002-01-01,KERALA,66,63.5,170,-182.5,182.5,182.5,60,72.5,82.5,82.5,170,182.5,190,190,455,M,Sub-Juniors,SBD,Single-ply
7,Vishwajit Desai,2001-02-03,MAHARASHTRA,66,64.6,165,-172.5,-175,165,90,-97.5,-100,90,180,-187.5,-190,180,435,M,Sub-Juniors,SBD,Single-ply
8,Ahammad Ibrahim,2001-03-28,KERALA,66,61.8,140,-152.5,160,160,75,-82.5,-82.5,75,180,190,-200,190,425,M,Sub-Juniors,SBD,Single-ply
9,Tarun Chary,2002-03-12,TELANGANA,66,65.5,-130,140,160,160,70,80,-85,80,125,135,147.5,147.5,387.5,M,Sub-Juniors,SBD,Single-ply
10,Kantam Vishnuvardhan,2002-05-04,ANDHRA PRADESH,66,62.2,-140,140,-145,140,60,65,-67.5,65,-170,170,175,175,380,M,Sub-Juniors,SBD,Single-ply
11,Bijender,2003-10-01,HARYANA,66,59.4,105,107.5,-130,107.5,65,70,-75,70,140,-155,-155,140,317.5,M,Sub-Juniors,SBD,Single-ply
12,Ghururahavan R,2004-08-20,PONDICHERRY,66,59.7,55,65,75,75,30,32.5,35,35,-70,70,80,80,190,M,Sub-Juniors,SBD,Single-ply
DQ,Moses M,2002-03-25,MANIPUR,66,62.2,-80,80,-90,80,40,60,-70,60,-100,-100,-100,,,M,Sub-Juniors,SBD,Single-ply
DQ,Vinay Anand,2004-03-04,CHHATTISGARH,66,65,-110,-110,-110,,-50,50,-55,50,,,,,,M,Sub-Juniors,SBD,Single-ply
DQ,M Krishna Moorthy,2001-08-11,ANDAMAN & NICOBAR,66,61.5,-80,-80,-80,,,,,,,,,,,M,Sub-Juniors,SBD,Single-ply
DQ,Mohit Kushwaha,2002-08-12,MADHYA PRADESH,66,63.9,-160,-160,-160,,,,,,,,,,,M,Sub-Juniors,SBD,Single-ply
1,Tharunraj M,2001-09-30,PONDICHERRY,74,71.8,200,210,220,220,100,105,107.5,107.5,180,185,190,190,517.5,M,Sub-Juniors,SBD,Single-ply
2,Prashant Tyagi,2001-06-06,UTTAR PRADESH,74,67.35,170,-185,192.5,192.5,105,112.5,120,120,170,-192.5,-192.5,170,482.5,M,Sub-Juniors,SBD,Single-ply
3,Hemant Kumawat,2003-05-07,RAJASTHAN,74,72.3,-160,160,170,170,120,-127.5,-127.5,120,-190,190,-195,190,480,M,Sub-Juniors,SBD,Single-ply
4,Karthik B,2001-04-04,ANDHRA PRADESH,74,66.5,150,165,172.5,172.5,70,80,87.5,87.5,170,190,200,200,460,M,Sub-Juniors,SBD,Single-ply
5,Pydi Mukesh Yada,2001-01-08,TAMIL NADU,74,69.9,-180,180,190,190,80,90,-100,90,-170,170,-180,170,450,M,Sub-Juniors,SBD,Single-ply
6,Akshay Mehendale,2001-03-14,MAHARASHTRA,74,71.1,150,-162.5,170,170,90,-95,95,95,155,167.5,-175,167.5,432.5,M,Sub-Juniors,SBD,Single-ply
7,Khaja Nixamuddin,2001-02-20,TELANGANA,74,73.2,-135,137.5,145,145,60,65,-70,65,150,165,180,180,390,M,Sub-Juniors,SBD,Single-ply
8,Karan Hardia,2001-09-26,MADHYA PRADESH,74,73.1,120,132.5,-140,132.5,60,70,-80,70,140,-155,155,155,357.5,M,Sub-Juniors,SBD,Single-ply
9,Viswanath,2001-03-02,ANDHRA PRADESH,74,70.8,90,105,120,120,70,-80,-82.5,70,120,135,-142.5,135,325,M,Sub-Juniors,SBD,Single-ply
10,Karthik M,2001-01-29,ANDAMAN & NICOBAR,74,72.2,100,-120,-130,100,55,65,-75,65,110,130,160,160,325,M,Sub-Juniors,SBD,Single-ply
DQ,Prithvi Singh,2001-09-12,HARYANA,74,73.1,-225,-225,-225,,127.5,-137.5,-137.5,127.5,185,-192.5,-197.5,185,,M,Sub-Juniors,SBD,Single-ply
DQ,Venkatesh,2001-11-02,HARYANA,74,69.8,-155,-160,-160,,90,105,107.5,107.5,185,195,-202.5,195,,M,Sub-Juniors,SBD,Single-ply
DQ,Justin Tensubam,2004-05-01,MANIPUR,74,66.65,-140,-160,-160,,70,85,-95,85,150,-170,-190,150,,M,Sub-Juniors,SBD,Single-ply
1,Aashish Gujjar,2002-03-11,DELHI,83,81,230,-237.5,240,240,155,-167.5,-167.5,155,235,242.5,-252.5,242.5,637.5,M,Sub-Juniors,SBD,Single-ply
2,Naveen S,2001-07-26,TAMIL NADU,83,82.15,230,250,260,260,125,132.5,137.5,137.5,230,240,-250,240,637.5,M,Sub-Juniors,SBD,Single-ply
3,Ashish Upadhyay,2001-01-14,RAJASTHAN,83,80.4,230,-245,-245,230,135,140,-145,140,235,-247.5,-252.5,235,605,M,Sub-Juniors,SBD,Single-ply
4,Rahul Srivastava,2002-07-15,UTTAR PRADESH,83,78.5,195,-197.5,217.5,217.5,-122.5,132.5,-140,132.5,185,195,-212.5,195,545,M,Sub-Juniors,SBD,Single-ply
5,Lakshman Reddy,2005-05-29,ANDHRA PRADESH,83,82.7,200,220,230,230,95,105,112.5,112.5,180,190,200,200,542.5,M,Sub-Juniors,SBD,Single-ply
6,Prawan D'Souza,2002-04-01,KARNATAKA,83,82.5,-180,-180,180,180,85,-100,-100,85,190,200,205,205,470,M,Sub-Juniors,SBD,Single-ply
7,A Pradeep,2001-10-25,TELANGANA,83,79.5,-150,150,170,170,85,95,-110,95,150,160,180,180,445,M,Sub-Juniors,SBD,Single-ply
8,Sumit Rathore,2001-01-01,MADHYA PRADESH,83,77.8,140,-150,-150,140,95,105,-115,105,150,170,-180,170,415,M,Sub-Juniors,SBD,Single-ply
9,Dellan S,2002-11-26,PONDICHERRY,83,82.1,150,-160,-170,150,80,85,87.5,87.5,150,160,-170,160,397.5,M,Sub-Juniors,SBD,Single-ply
10,Ritik,2003-12-19,HARYANA,83,82.1,140,-152.5,152.5,152.5,70,80,85,85,140,152.5,157.5,157.5,395,M,Sub-Juniors,SBD,Single-ply
11,Sudharshan R,2003-01-06,ANDAMAN & NICOBAR,83,78.7,-85,85,-87.5,85,50,52.5,-55,52.5,100,102.5,110,110,247.5,M,Sub-Juniors,SBD,Single-ply
12,Chinglemba T,2003-03-21,MANIPUR,83,79,50,,,50,40,42.5,,42.5,70,100,120,120,212.5,M,Sub-Juniors,SBD,Single-ply
13,Diljot Singh Padda,2003-02-11,CHHATTISGARH,83,78.3,60,62.5,-85,62.5,35,40,-50,40,70,80,90,90,192.5,M,Sub-Juniors,SBD,Single-ply
1,Anand S,2001-05-22,TAMIL NADU,93,92.5,220,240,247.5,247.5,110,115,120,120,220,235,245,245,612.5,M,Sub-Juniors,SBD,Single-ply
2,Abhijith S,2003-04-16,KERALA,93,93,215,235,-245,235,120,135,142.5,142.5,200,207.5,-212.5,207.5,585,M,Sub-Juniors,SBD,Single-ply
3,Varshith S. Rao,2002-02-25,KARNATAKA,93,86.35,210,-220,220,220,-125,125,130,130,220,230,-235,230,580,M,Sub-Juniors,SBD,Single-ply
4,Daksh Singh Chouhan,2004-04-19,RAJASTHAN,93,87.5,212.5,227.5,-232.5,227.5,-105,107.5,117.5,117.5,180,-200,-210,180,525,M,Sub-Juniors,SBD,Single-ply
5,Sukhchain Singh,2002-09-09,PUNJAB,93,87.45,-220,220,222.5,222.5,-115,-115,115,115,140,155,175,175,512.5,M,Sub-Juniors,SBD,Single-ply
6,Dharmender Sharma,2001-08-31,DELHI,93,91.1,190,-215,-215,190,120,130,-135,130,180,-205,-205,180,500,M,Sub-Juniors,SBD,Single-ply
7,Nilesh Deshmukh,2002-02-06,MAHARASHTRA,93,88.15,190,200,-220,200,90,97.5,-102.5,97.5,190,200,-207.5,200,497.5,M,Sub-Juniors,SBD,Single-ply
8,Sankhadeep Mondal,2001-04-17,WEST BENGAL,93,92.75,180,-190,-190,180,80,85,-90,85,210,225,-232.5,225,490,M,Sub-Juniors,SBD,Single-ply
9,Rakshith V,2002-12-25,KARNATAKA,93,83.1,160,175,182.5,182.5,100,110,115,115,150,175,185,185,482.5,M,Sub-Juniors,SBD,Single-ply
10,Deep Prajapati,2002-02-07,UTTAR PRADESH,93,85.6,-182.5,-182.5,185,185,-82.5,87.5,97.5,97.5,187.5,-202.5,-207.5,187.5,470,M,Sub-Juniors,SBD,Single-ply
11,Tharun Jagathguru K,2003-03-31,PONDICHERRY,93,90,180,190,-200,190,67.5,72.5,-77.5,72.5,190,-200,-200,190,452.5,M,Sub-Juniors,SBD,Single-ply
12,Yuvashankar S,2001-07-03,PONDICHERRY,93,91.3,160,180,200,200,70,-75,-75,70,170,180,-185,180,450,M,Sub-Juniors,SBD,Single-ply
13,Vidhan Chouhan,2004-05-30,MADHYA PRADESH,93,88.8,155,165,170,170,60,67.5,75,75,155,-170,-170,155,400,M,Sub-Juniors,SBD,Single-ply
14,Jaswan Reddy,2001-03-01,TELANGANA,93,87.5,150,-160,-170,150,70,-80,80,80,160,-165,-165,160,390,M,Sub-Juniors,SBD,Single-ply
15,Kataria Krishna,2001-07-20,GUJARAT,93,83.35,110,125,130,130,65,70,-77.5,70,150,175,-180,175,375,M,Sub-Juniors,SBD,Single-ply
16,Devesh Kumar Sahu,2004-07-09,CHHATTISGARH,93,91.8,90,110,-120,110,55,62.5,65,65,90,110,-125,110,285,M,Sub-Juniors,SBD,Single-ply
DQ,Sharath Chandra Reddy,2001-05-26,TELANGANA,93,83.3,-150,-150,-150,,,,,,,,,,,M,Sub-Juniors,SBD,Single-ply
1,Thangapandian V,2001-11-11,TAMIL NADU,105,100.2,260,-270,270,270,160,170,175,175,220,-235,-235,220,665,M,Sub-Juniors,SBD,Single-ply
2,Vishal Yadav,2001-10-08,HARYANA,105,102,250,-265,-265,250,140,150,-155,150,220,230,242.5,242.5,642.5,M,Sub-Juniors,SBD,Single-ply
3,Sanjay Kumar,2001-10-29,TAMIL NADU,105,104.6,270,-280,,270,130,137.5,-140,137.5,-210,-210,210,210,617.5,M,Sub-Juniors,SBD,Single-ply
4,Kail Comings,2001-02-24,MAHARASHTRA,105,96.1,220,235,250,250,110,122.5,132.5,132.5,200,220,-235,220,602.5,M,Sub-Juniors,SBD,Single-ply
5,Syed Khaja Vali,2001-01-23,ANDHRA PRADESH,105,96.1,180,190,-195,190,-100,110,125,125,190,205,212.5,212.5,527.5,M,Sub-Juniors,SBD,Single-ply
6,Prasad D'Souza,2001-02-23,KARNATAKA,105,105,190,-205,-205,190,100,110,-120,110,200,215,-222.5,215,515,M,Sub-Juniors,SBD,Single-ply
7,Pronoy K,2001-06-03,KERALA,105,103.4,165,180,200,200,100,-115,120,120,150,-165,165,165,485,M,Sub-Juniors,SBD,Single-ply
8,Parth Sawant,2002-10-05,MAHARASHTRA,105,103.9,150,162.5,170,170,90,-97.5,-97.5,90,160,-170,-175,160,420,M,Sub-Juniors,SBD,Single-ply
9,Melvin Raj,2002-04-25,KERALA,105,93.3,130,,,130,65,,,65,140,,,140,335,M,Sub-Juniors,SBD,Single-ply
DQ,Harmandeep Singh,2001-11-02,PUNJAB,105,100.2,160,-180,-190,160,-90,90,95,95,-160,-175,-175,,,M,Sub-Juniors,SBD,Single-ply
DQ,Rishikanta,2002-02-01,MANIPUR,105,98.1,120,130,,130,,,,,,,,,,M,Sub-Juniors,SBD,Single-ply
DQ,Gopal Krishan Vyas,2001-09-20,RAJASTHAN,105,103.2,-175,-182.5,-182.5,,,,,,,,,,,M,Sub-Juniors,SBD,Single-ply
1,Aniket Khatri,2001-04-20,DELHI,120,115.2,270,280,-290,280,160,175,182.5,182.5,210,225,-237.5,225,687.5,M,Sub-Juniors,SBD,Single-ply
2,Althaf Omer,2001-06-07,KERALA,120,107.3,220,237.5,252.5,252.5,-120,125,-135,125,200,220,235,235,612.5,M,Sub-Juniors,SBD,Single-ply
3,Shoyab Mundori,2001-07-06,RAJASTHAN,120,116.5,200,215,230,230,90,-95,-95,90,180,200,212.5,212.5,532.5,M,Sub-Juniors,SBD,Single-ply
4,Md Owaixuddin,2001-03-04,TELANGANA,120,107.2,210,-220,-220,210,110,120,-135,120,180,190,200,200,530,M,Sub-Juniors,SBD,Single-ply
5,M Tirumala Sai,2001-05-07,ANDHRA PRADESH,120,111,145,155,-165,155,60,65,67.5,67.5,145,150,155,155,377.5,M,Sub-Juniors,SBD,Single-ply
DQ,Naveen Kumar,2001-08-04,TAMIL NADU,120,118.5,-210,-210,-210,,-110,110,-112.5,110,-170,170,180,180,,M,Sub-Juniors,SBD,Single-ply
DQ,Pruthviraj Dongle,2003-09-27,MAHARASHTRA,120,105.3,-210,-210,-210,,75,-80,80,80,160,175,190,190,,M,Sub-Juniors,SBD,Single-ply
DQ,Sunil K,2001-11-30,KARNATAKA,120,105.1,115,-125,,115,,,,,,,,,,M,Sub-Juniors,SBD,Single-ply
1,Nishanth P,2001-10-20,TAMIL NADU,120+,127.6,-220,-220,220,220,120,130,135,135,220,-227.5,227.5,227.5,582.5,M,Sub-Juniors,SBD,Single-ply
2,Rohit Ojha,2002-10-07,RAJASTHAN,120+,134.3,200,220,-235,220,110,117.5,125,125,190,210,-230,210,555,M,Sub-Juniors,SBD,Single-ply
3,Rahul Gowtam M,2001-07-07,ANDHRA PRADESH,120+,126.7,185,195,-205,195,80,-82.5,-82.5,80,150,-160,165,165,440,M,Sub-Juniors,SBD,Single-ply
4,Shinoj Mathew,2001-11-25,MAHARASHTRA,120+,142.1,180,-192.5,197.5,197.5,-75,75,-77.5,75,150,162.5,167.5,167.5,440,M,Sub-Juniors,SBD,Single-ply
1,Raja A,1979-08-10,TAMIL NADU,59,58.05,-210,210,-217.5,210,107.5,-117.5,117.5,117.5,210,-227.5,232.5,232.5,560,M,Masters 1,SBD,Single-ply
2,Dilip Sharma,1979-08-10,MADHYA PRADESH,59,57.3,135,142.5,-147.5,142.5,115,-120,120,120,175,187.5,-192.5,187.5,450,M,Masters 1,SBD,Single-ply
3,Mahesh Patil,1976-04-13,MAHARASHTRA,59,57.45,150,160,-165,160,75,82.5,-85,82.5,155,165,172.5,172.5,415,M,Masters 1,SBD,Single-ply
4,Motiram Dabi,1977-06-30,MADHYA PRADESH,59,59,130,-145,-145,130,80,100,-110,100,150,170,185,185,415,M,Masters 1,SBD,Single-ply
5,Hanumanthe Gowda K,1976-02-02,KARNATAKA,59,58.2,-135,-135,140,140,87.5,92.5,97.5,97.5,155,165,172.5,172.5,410,M,Masters 1,SBD,Single-ply
6,Kavithraj P K Pk,1973-01-27,KARNATAKA,59,58,110,130,-140,130,45,52.5,55,55,120,135,-145,135,320,M,Masters 1,SBD,Single-ply
7,Balvir Singh Rawat,1974-05-25,RAJASTHAN,59,58.25,65,75,-85,75,65,70,72.5,72.5,120,-135,135,135,282.5,M,Masters 1,SBD,Single-ply
1,Devendra Singh Deevan,1979-02-02,MADHYA PRADESH,66,65.2,235,245,-255,245,135,145,150,150,200,210,-220,210,605,M,Masters 1,SBD,Single-ply
2,Prakash K,1975-06-11,TAMIL NADU,66,65.1,-195,-195,195,195,135,140,-142.5,140,-195,-195,195,195,530,M,Masters 1,SBD,Single-ply
3,Satisha Kharvi,1976-06-25,KARNATAKA,66,65.3,180,195,202.5,202.5,100,107.5,112.5,112.5,180,-200,202.5,202.5,517.5,M,Masters 1,SBD,Single-ply
4,Manish Kondra,1973-04-30,MAHARASHTRA,66,64.4,180,192.5,-200,192.5,-117.5,117.5,-122.5,117.5,170,-190,190,190,500,M,Masters 1,SBD,Single-ply
5,Dharmaprakash R,1970-06-13,TAMIL NADU,66,65.5,175,-182.5,182.5,182.5,90,100,102.5,102.5,170,-177.5,,170,455,M,Masters 1,SBD,Single-ply
6,Sangle Prakashchandra M,1972-01-14,GUJARAT,66,65.2,140,150,157.5,157.5,70,80,90,90,140,-160,-160,140,387.5,M,Masters 1,SBD,Single-ply
7,Pranab Kalita,1978-01-14,ASSAM,66,66,-100,105,110,110,90,100,105,105,120,130,140,140,355,M,Masters 1,SBD,Single-ply
1,Shiv Prasad,1973-12-04,MADHYA PRADESH,74,72.2,220,230,-237.5,230,135,145,-152.5,145,210,220,-225,220,595,M,Masters 1,SBD,Single-ply
2,Rajesh Kumar,1978-08-14,PUNJAB,74,71.95,190,-200,205,205,100,110,115,115,220,235,240,240,560,M,Masters 1,SBD,Single-ply
3,Senthilkumar E,1975-03-01,TAMIL NADU,74,74,210,-225,-232.5,210,125,130,135,135,200,210,-215,210,555,M,Masters 1,SBD,Single-ply
4,Ashok Mate,1972-10-05,MAHARASHTRA,74,73.3,175,185,195,195,-117.5,117.5,122.5,122.5,180,190,-200,190,507.5,M,Masters 1,SBD,Single-ply
5,Vijay Ram,1975-10-12,WEST BENGAL,74,73.9,170,180,-190,180,110,120,130,130,180,190,-200,190,500,M,Masters 1,SBD,Single-ply
6,G. Ram Babu,1975-05-03,ANDHRA PRADESH,74,69.6,150,160,165,165,100,110,-115,110,170,182.5,190,190,465,M,Masters 1,SBD,Single-ply
7,Ghanshyam Singh Goyal,1974-10-17,RAJASTHAN,74,71.1,140,-150,-150,140,100,107.5,-112.5,107.5,155,165,-172.5,165,412.5,M,Masters 1,SBD,Single-ply
8,Manoharan M K,1973-05-16,KERALA,74,72.9,135,-145,-150,135,80,-85,-85,80,130,140,-157.5,140,355,M,Masters 1,SBD,Single-ply
1,Ashwani Kumar,1977-11-04,PUNJAB,83,79.9,255,270,277.5,277.5,120,130,137.5,137.5,-225,240,-245,240,655,M,Masters 1,SBD,Single-ply
2,Sekar D,1976-11-11,TAMIL NADU,83,80.2,260,-270,-275,260,-135,135,145,145,-220,220,240,240,645,M,Masters 1,SBD,Single-ply
3,Arul V,1977-03-24,TAMIL NADU,83,79.5,250,275,280,280,130,137.5,142.5,142.5,207.5,220,-232.5,220,642.5,M,Masters 1,SBD,Single-ply
4,Santosh Bandre,1977-02-23,MAHARASHTRA,83,76.9,250,-260,260,260,130,140,-147.5,140,220,230,-237.5,230,630,M,Masters 1,SBD,Single-ply
5,Roshan Ferrao,1979-02-15,KARNATAKA,83,82.5,-240,240,250,250,102.5,107.5,112.5,112.5,215,225,232.5,232.5,595,M,Masters 1,SBD,Single-ply
6,Kamayanee Kumar Singh,1976-05-02,JHARKHAND,83,82.4,-220,220,230,230,-135,140,-150,140,207.5,215,-220,215,585,M,Masters 1,SBD,Single-ply
7,M Chandra Sekhar,1973-08-14,TELANGANA,83,77.4,220,-235,,220,100,110,,110,170,,,170,500,M,Masters 1,SBD,Single-ply
8,Raju,1978-02-22,HARYANA,83,80.5,160,-185,-205,160,95,-120,-120,95,160,185,-202.5,185,440,M,Masters 1,SBD,Single-ply
9,Balbir Singh,1973-12-08,RAJASTHAN,83,81,140,-150,-150,140,110,115,120,120,160,170,180,180,440,M,Masters 1,SBD,Single-ply
10,Biju R,1977-05-20,KERALA,83,79.1,135,150,,150,95,107.5,112.5,112.5,145,160,,160,422.5,M,Masters 1,SBD,Single-ply
11,Patel Umangkumar,1977-09-04,GUJARAT,83,80.6,110,112.5,-160,112.5,60,85,90,90,120,145,160,160,362.5,M,Masters 1,SBD,Single-ply
DQ,Anand Mandia,1971-10-07,DELHI,83,81.6,180,,,180,,,,,,,,,,M,Masters 1,SBD,Single-ply
DQ,Haridas Ev,1977-04-15,KERALA,83,77.85,-150,-150,,,,,,,,,,,,M,Masters 1,SBD,Single-ply
DQ,Manoj Patil,1975-08-02,MAHARASHTRA,83,82.3,-230,-240,-240,,,,,,,,,,,M,Masters 1,SBD,Single-ply
1,Sanjay Kumar,1976-03-21,HARYANA,93,91.6,270,272.5,280,280,125,132.5,137.5,137.5,255,267.5,-272.5,267.5,685,M,Masters 1,SBD,Single-ply
2,Balgovind Tiwari,1972-10-29,ANDHRA PRADESH,93,88.4,250,272.5,-282.5,272.5,135,145,150,150,220,230,-262.5,230,652.5,M,Masters 1,SBD,Single-ply
3,K P Reyash Ahamed,1971-12-18,PONDICHERRY,93,91.5,250,265,-275,265,135,145,152.5,152.5,210,220,225,225,642.5,M,Masters 1,SBD,Single-ply
4,Senthilkumar S,1976-08-15,TAMIL NADU,93,89.3,240,245,250,250,140,150,155,155,210,220,-232.5,220,625,M,Masters 1,SBD,Single-ply
5,Prabir Ghosh,1974-08-01,WEST BENGAL,93,92,235,250,255,255,112.5,-117.5,-117.5,112.5,250,-262.5,,250,617.5,M,Masters 1,SBD,Single-ply
6,Anup Verma,1978-07-01,MADHYA PRADESH,93,93,210,225,-232.5,225,150,157.5,162.5,162.5,225,-240,-240,225,612.5,M,Masters 1,SBD,Single-ply
7,Ashok Bhadauria,1977-06-10,UTTAR PRADESH,93,91.65,180,195,205,205,100,107.5,-115,107.5,180,195,200,200,512.5,M,Masters 1,SBD,Single-ply
8,Narendra Birahade,1972-05-27,MADHYA PRADESH,93,87.35,160,180,-190,180,95,-100,,95,175,180,,180,455,M,Masters 1,SBD,Single-ply
9,Vinod Tc,1975-01-28,KERALA,93,90.5,150,160,-175,160,110,115,125,125,100,165,-180,165,450,M,Masters 1,SBD,Single-ply
10,Manabjyoti Gogoi,1978-01-01,ASSAM,93,89.35,145,-155,-155,145,95,100,-105,100,-155,155,165,165,410,M,Masters 1,SBD,Single-ply
DQ,Lohith Muniraj,1977-06-13,KARNATAKA,93,91.15,225,240,255,255,135,140,-147.5,140,-190,-190,-190,,,M,Masters 1,SBD,Single-ply
1,Vishal Umbalkar,1978-01-17,MAHARASHTRA,105,97.3,-250,250,-272.5,250,175,187.5,-192.5,187.5,250,270,-280,270,707.5,M,Masters 1,SBD,Single-ply
2,Sujay Janardhan,1976-11-13,KARNATAKA,105,94.7,260,-270,-272.5,260,120,125,130,130,270,285,-292.5,285,675,M,Masters 1,SBD,Single-ply
3,Arunjeet Singh,1974-01-20,PUNJAB,105,96.6,220,235,-250,235,145,155,165,165,240,-260,260,260,660,M,Masters 1,SBD,Single-ply
4,Vikram Singh Chouhan,1976-06-08,RAJASTHAN,105,99.3,-252.5,257.5,-272.5,257.5,160,167.5,177.5,177.5,210,225,-235,225,660,M,Masters 1,SBD,Single-ply
5,Lingesanvelou S,1971-06-06,PONDICHERRY,105,100.1,270,-282.5,-282.5,270,130,140,147.5,147.5,-215,220,-245,220,637.5,M,Masters 1,SBD,Single-ply
6,Ramamoorthy B,1977-06-05,TAMIL NADU,105,96.4,-195,-200,200,200,100,110,120,120,-200,200,-215,200,520,M,Masters 1,SBD,Single-ply
7,K Babu Rao,1970-06-08,ANDHRA PRADESH,105,96.2,150,162.5,-172.5,162.5,80,90,-95,90,180,182.5,190,190,442.5,M,Masters 1,SBD,Single-ply
8,Nilesh Garg,1978-11-27,MADHYA PRADESH,105,98.4,-150,-150,150,150,100,110,-120,110,150,-160,170,170,430,M,Masters 1,SBD,Single-ply
9,Jaffer Kp,1979-01-10,KERALA,105,95.6,-130,130,-140,130,60,70,75,75,140,-155,155,155,360,M,Masters 1,SBD,Single-ply
1,Aurangazeb Khurram Hafiz,1974-11-16,WEST BENGAL,120,113.9,280,295,-310,295,192.5,210,,210,-250,250,-278,250,755,M,Masters 1,SBD,Single-ply
2,Girish Binjve,1971-10-01,MAHARASHTRA,120,105.8,185,210,240,240,127.5,135,-140,135,185,210,-220,210,585,M,Masters 1,SBD,Single-ply
1,Neeraj Chawla,,DELHI,120+,120.4,250,252.5,270,270,200,215,225,225,250,260,270,270,765,M,Masters 1,SBD,Single-ply
2,Sarath Kumar R,1975-10-03,KERALA,120+,125.6,265,275,-286,275,180,-187.5,187.5,187.5,260,280,-290,280,742.5,M,Masters 1,SBD,Single-ply
1,Satish Patade,1963-12-11,MAHARASHTRA,59,57.9,130,-142.5,142.5,142.5,90,100,105,105,140,150,155,155,402.5,M,Masters 2,SBD,Single-ply
2,Ravi B,1960-07-17,TAMIL NADU,59,58.1,115,125,-130,125,85,92.5,100,100,110,122.5,130,130,355,M,Masters 2,SBD,Single-ply
3,Girjesh Kumar Shandilya,1969-01-01,DELHI,59,58.15,-80,80,-110,80,65,70,-75,70,120,130,-140,130,280,M,Masters 2,SBD,Single-ply
DQ,Kiran Kumar Kangjam,1963-03-01,MANIPUR,59,46.55,-90,-90,-92.5,,50,52.5,,52.5,-100,100,110,110,,M,Masters 2,SBD,Single-ply
1,Rajagopalan V,1965-04-28,KERALA,66,62,170,185,192.5,192.5,105,112.5,115,115,170,-185,187.5,187.5,495,M,Masters 2,SBD,Single-ply
2,Rajiv Sharma,1969-01-01,DELHI,66,65.4,155,165,172.5,172.5,130,140,150,150,155,170,172.5,172.5,495,M,Masters 2,SBD,Single-ply
3,Devendra Nahar,1966-10-08,MADHYA PRADESH,66,64.7,150,170,190,190,85,95,102.5,102.5,150,170,-185,170,462.5,M,Masters 2,SBD,Single-ply
4,Kandasamy Arumugam,1965-04-06,TAMIL NADU,66,65.4,157.5,-167.5,167.5,167.5,97.5,-102.5,102.5,102.5,187.5,-200,-200,187.5,457.5,M,Masters 2,SBD,Single-ply
5,Siba Gogoi,1966-09-01,ASSAM,66,64,135,150,162.5,162.5,107.5,112.5,-115,112.5,135,-160,-160,135,410,M,Masters 2,SBD,Single-ply
6,Suhas Vengurlekar,1960-09-06,MAHARASHTRA,66,64.7,100,110,117.5,117.5,70,-75,75,75,90,100,110,110,302.5,M,Masters 2,SBD,Single-ply
7,Satyanarayana D,1969-07-16,TELANGANA,66,64.2,100,110,,110,65,,,65,120,,,120,295,M,Masters 2,SBD,Single-ply
8,Shaik Naxeer,1961-05-14,ANDHRA PRADESH,66,65.2,80,-100,105,105,60,62.5,65,65,100,110,120,120,290,M,Masters 2,SBD,Single-ply
9,Ync Ravibabu,1966-07-15,ANDHRA PRADESH,66,65.6,80,90,100,100,55,62.5,70,70,-90,-90,90,90,260,M,Masters 2,SBD,Single-ply
1,Jayarajan C,1967-05-30,KERALA,74,74,180,200,212.5,212.5,115,125,130,130,195,210,220,220,562.5,M,Masters 2,SBD,Single-ply
2,Rajendra Sawant,1966-11-23,MAHARASHTRA,74,73.3,175,187.5,-197.5,187.5,107.5,117.5,120,120,190,200,210,210,517.5,M,Masters 2,SBD,Single-ply
3,Gopi M,1964-01-10,TAMIL NADU,74,73,190,205,210,210,100,107.5,-110,107.5,175,185,197.5,197.5,515,M,Masters 2,SBD,Single-ply
4,Manoj Bohit,1968-09-01,MADHYA PRADESH,74,71,160,185,-192.5,185,105,110,-115,110,170,182.5,190,190,485,M,Masters 2,SBD,Single-ply
5,Ashok G.V,1960-02-25,KARNATAKA,74,73.7,160,170,180,180,90,95,-97.5,95,190,200,-210,200,475,M,Masters 2,SBD,Single-ply
6,Raj Kumar,1964-01-04,DELHI,74,72.1,172.5,180,-190,180,-132.5,132.5,,132.5,155,-165,,155,467.5,M,Masters 2,SBD,Single-ply
7,M. Bhaskar Rao,1965-07-01,ANDHRA PRADESH,74,73.1,162.5,-172.5,172.5,172.5,107.5,115,-120,115,167.5,-175,,167.5,455,M,Masters 2,SBD,Single-ply
8,Sashi Kumar Sahu,1969-01-01,CHHATTISGARH,74,68.25,115,120,130,130,65,70,77.5,77.5,120,127.5,137.5,137.5,345,M,Masters 2,SBD,Single-ply
1,Moorthy C,1969-10-25,TAMIL NADU,83,80.5,247.5,-257.5,-260,247.5,152.5,160,165,165,240,252.5,,252.5,665,M,Masters 2,SBD,Single-ply
2,Tanaji Patil,1966-06-01,MAHARASHTRA,83,81.9,210,222.5,232.5,232.5,115,122.5,127.5,127.5,205,215,-220,215,575,M,Masters 2,SBD,Single-ply
3,P. S. Paul,1965-02-10,MADHYA PRADESH,83,80.2,-210,220,240,240,110,115,117.5,117.5,190,-195,,190,547.5,M,Masters 2,SBD,Single-ply
4,Yuvaraj T,1963-03-31,TAMIL NADU,83,78,195,207.5,-215,207.5,85,90,92.5,92.5,200,207.5,-212.5,207.5,507.5,M,Masters 2,SBD,Single-ply
5,Ramnagina Nagina,1963-04-11,CHHATTISGARH,83,82.7,160,180,-190,180,85,95,97.5,97.5,150,170,177.5,177.5,455,M,Masters 2,SBD,Single-ply
6,Jaswant Singh,1966-09-14,PUNJAB,83,80.2,150,-160,-165,150,90,-95,-95,90,170,180,190,190,430,M,Masters 2,SBD,Single-ply
7,Shreeram Tare,1962-03-24,MADHYA PRADESH,83,79.65,-120,-140,140,140,95,-105,112.5,112.5,140,160,,160,412.5,M,Masters 2,SBD,Single-ply
8,V Bhimeswara Rao,1965-01-13,ANDHRA PRADESH,83,74.15,130,140,-152.5,140,80,90,95,95,125,140,150,150,385,M,Masters 2,SBD,Single-ply
9,Raj Kumar Pandey,1965-06-10,CHHATTISGARH,83,77.4,100,110,120,120,75,77.5,90,90,130,140,-150,140,350,M,Masters 2,SBD,Single-ply
10,Ved Pal Singh,1968-07-16,RAJASTHAN,83,81,-110,110,120,120,-70,-70,75,75,120,130,140,140,335,M,Masters 2,SBD,Single-ply
DQ,Raj Sekhar,1969-04-29,TELANGANA,83,83,-210,-210,,,,,,,,,,,,M,Masters 2,SBD,Single-ply
1,Ramachandran T.K,1968-01-05,KERALA,93,84.2,235,245,252.5,252.5,140,145,-150,145,210,217.5,-225,217.5,615,M,Masters 2,SBD,Single-ply
2,Ganesan A,1968-01-14,KERALA,93,85.55,220,240,-247.5,240,-105,105,112.5,112.5,200,210,-222.5,210,562.5,M,Masters 2,SBD,Single-ply
3,Arunachalam Subramaniam,1969-11-19,MAHARASHTRA,93,92.75,210,222.5,230,230,-135,135,-145,135,185,197.5,-212.5,197.5,562.5,M,Masters 2,SBD,Single-ply
4,Maheshwari Nikhil,1967-08-03,GUJARAT,93,92.35,160,180,-190,180,-120,120,140,140,160,170,190,190,510,M,Masters 2,SBD,Single-ply
5,Sanjiv Razdhan,1960-11-13,MADHYA PRADESH,93,91.8,147.5,157.5,170,170,115,120,125,125,170,180,185,185,480,M,Masters 2,SBD,Single-ply
6,Arun Kharat,1963-10-10,MAHARASHTRA,93,88.35,170,185,195,195,90,100,-110,100,150,160,167.5,167.5,462.5,M,Masters 2,SBD,Single-ply
7,Prem Narayan Pandey,1964-07-01,MADHYA PRADESH,93,85.75,150,160,165,165,95,100,105,105,165,180,-185,180,450,M,Masters 2,SBD,Single-ply
8,Pallab Kumar Borah,1966-12-31,ASSAM,93,87.65,110,120,130,130,70,80,90,90,130,145,155,155,375,M,Masters 2,SBD,Single-ply
9,Malin Chandra Das,1963-05-20,ASSAM,93,89,115,125,130,130,-90,90,95,95,125,137.5,145,145,370,M,Masters 2,SBD,Single-ply
10,K Ramesh Yadav,1960-01-01,TELANGANA,93,85.5,90,100,110,110,-75,75,85,85,100,110,120,120,315,M,Masters 2,SBD,Single-ply
11,M Sambasiva Rao,1969-02-05,ANDHRA PRADESH,93,85.55,-100,100,110,110,70,75,-80,75,110,120,-125,120,305,M,Masters 2,SBD,Single-ply
12,Vishwanatha P,1967-05-24,KARNATAKA,93,83.7,90,100,,100,40,45,,45,100,120,125,125,270,M,Masters 2,SBD,Single-ply
DQ,Suraj Ram Pawar,1968-10-04,JHARKHAND,93,84.63,-232.5,-232.5,-232.5,,,,,,,,,,,M,Masters 2,SBD,Single-ply
1,Sanjay Saxena,1964-03-10,MADHYA PRADESH,105,103.7,200,220,235,235,130,145,152.5,152.5,200,220,,220,607.5,M,Masters 2,SBD,Single-ply
2,Sree Kumar,1969-05-12,KERALA,105,104,180,-200,-210,180,-105,105,110,110,177.5,187.5,-192.5,187.5,477.5,M,Masters 2,SBD,Single-ply
3,Sabir. A,1965-04-20,KERALA,105,94.35,150,170,-180,170,100,107.5,-110,107.5,165,185,190,190,467.5,M,Masters 2,SBD,Single-ply
4,Veeraraghavan R,1961-06-15,TAMIL NADU,105,94,-150,155,-170,155,130,135,140,140,140,150,-160,150,445,M,Masters 2,SBD,Single-ply
5,Veerakumar G,1961-12-24,TAMIL NADU,105,100.2,140,-150,150,150,70,80,-90,80,-150,160,-170,160,390,M,Masters 2,SBD,Single-ply
1,Gunasekaran A,1964-06-06,TAMIL NADU,120,105.5,-210,-210,210,210,120,132.5,140,140,200,210,232.5,232.5,582.5,M,Masters 2,SBD,Single-ply
2,Mathew T J,1969-05-30,KERALA,120,111.3,227.5,230,-255,230,107.5,120,127.5,127.5,200,212.5,220,220,577.5,M,Masters 2,SBD,Single-ply
1,Lakshmanan D,1958-08-28,TAMIL NADU,59,57.7,-130,130,-140,130,80,87.5,-92.5,87.5,155,165,170,170,387.5,M,Masters 3,SBD,Single-ply
2,Vijayakumaran Nair,1956-10-07,KERALA,59,57.6,110,-120,120,120,65,70,72.5,72.5,150,165,-167.5,165,357.5,M,Masters 3,SBD,Single-ply
3,Haradhan Bag,1955-01-01,WEST BENGAL,59,58.8,120,127.5,-132.5,127.5,70,75,77.5,77.5,130,140,-150,140,345,M,Masters 3,SBD,Single-ply
4,Bhagwan Das Kashyap,1956-03-14,MADHYA PRADESH,59,59,110,120,130,130,55,60,62.5,62.5,135,145,152.5,152.5,345,M,Masters 3,SBD,Single-ply
5,Gopinath Pawar,1956-04-01,MAHARASHTRA,59,58.8,105,115,120,120,72.5,80,82.5,82.5,110,122.5,130,130,332.5,M,Masters 3,SBD,Single-ply
6,Kuppan R,1959-08-11,TAMIL NADU,59,58.3,100,-107.5,107.5,107.5,50,-60,-60,50,135,145,-150,145,302.5,M,Masters 3,SBD,Single-ply
1,Premachandran C,1950-12-01,KERALA,66,62.3,150,160,167.5,167.5,70,75,,75,175,-190,-190,175,417.5,M,Masters 3,SBD,Single-ply
2,Muthukrishnan A,1954-10-07,TAMIL NADU,66,64.3,110,130,140,140,60,70,75,75,120,140,150,150,365,M,Masters 3,SBD,Single-ply
3,Ramesh Chandra Namdev,1958-03-24,MADHYA PRADESH,66,62.8,110,120,130,130,57.5,65,-72.5,65,110,120,-125,120,315,M,Masters 3,SBD,Single-ply
1,Vijayarangan K,1958-02-02,TAMIL NADU,74,74,195,-202.5,205,205,105,112.5,120,120,175,185,-192.5,185,510,M,Masters 3,SBD,Single-ply
2,Satpal,1958-07-06,DELHI,74,74,110,125,130,130,90,105,110,110,150,160,170,170,410,M,Masters 3,SBD,Single-ply
3,Pauly N I,1956-11-13,KERALA,74,67,140,-150,-155,140,-80,-82.5,82.5,82.5,150,160,170,170,392.5,M,Masters 3,SBD,Single-ply
4,Ashok Kumar Tiwari,1959-07-01,MADHYA PRADESH,74,70.8,115,125,-135,125,75,82.5,-90,82.5,-120,127.5,135,135,342.5,M,Masters 3,SBD,Single-ply
1,Kantilal Takale,1959-05-01,MAHARASHTRA,83,80,140,160,-170,160,85,95,-102.5,95,140,160,-170,160,415,M,Masters 3,SBD,Single-ply
2,Somasekaran C,1958-03-20,TAMIL NADU,83,79.7,155,-162.5,-165,155,85,90,-95,90,145,152.5,-160,152.5,397.5,M,Masters 3,SBD,Single-ply
3,Mool Chand Yadav,1953-06-01,MADHYA PRADESH,83,74.7,110,122.5,130,130,50,55,-60,55,110,122.5,132.5,132.5,317.5,M,Masters 3,SBD,Single-ply
4,Yadava Suvarna,1950-05-08,KARNATAKA,83,74.1,100,110,,110,72.5,-82.5,82.5,82.5,110,120,-125,120,312.5,M,Masters 3,SBD,Single-ply
5,Uthamakumar K,1954-08-28,KERALA,93,92.5,-100,105,,105,80,-90,-90,80,100,110,,110,295,M,Masters 3,SBD,Single-ply
1,Selvam S,1953-06-15,TAMIL NADU,93,88,150,165,170,170,95,100,105,105,155,-165,165,165,440,M,Masters 3,SBD,Single-ply
2,Chandrasen Yadav,1959-06-26,MADHYA PRADESH,93,89.5,-140,140,-160,140,70,80,-85,80,130,140,-145,140,360,M,Masters 3,SBD,Single-ply
3,Dr Ha Pradip Kumar,1959-03-23,TELANGANA,93,90.5,-100,100,-120,100,-70,70,80,80,110,130,140,140,320,M,Masters 3,SBD,Single-ply
4,Suresh Bansode,1952-04-01,MAHARASHTRA,93,86.1,60,70,-80,70,50,60,65,65,80,100,105,105,240,M,Masters 3,SBD,Single-ply
DQ,Ajit Kumar Barooah,1955-03-01,ASSAM,93,86.5,-150,-150,-150,,,,,,,,,,,M,Masters 3,SBD,Single-ply
1,Shanmugasundaram K,1955-02-01,TAMIL NADU,105,93.5,165,-175,180,180,110,-120,120,120,160,-170,-170,160,460,M,Masters 3,SBD,Single-ply
2,Shyam Sahani,1959-11-19,MAHARASHTRA,105,95.7,110,120,125,125,-90,100,-105,100,130,145,155,155,380,M,Masters 3,SBD,Single-ply
3,Mahesh Chandra Mahatma,1957-07-19,RAJASTHAN,105,101.1,-100,-100,100,100,-120,125,130,130,130,137.5,147.5,147.5,377.5,M,Masters 3,SBD,Single-ply
4,Ganeshkumar A,1959-02-12,TAMIL NADU,105,100.4,-120,120,130,130,85,-90,-90,85,135,-145,145,145,360,M,Masters 3,SBD,Single-ply
5,Sayyad Salim,1955-05-20,MAHARASHTRA,105,94.5,-100,100,-110,100,60,65,-70,65,120,130,135,135,300,M,Masters 3,SBD,Single-ply
1,Veerabhadrappa,1949-08-12,KARNATAKA,59,54.45,100,125,130,130,35,40,42.5,42.5,100,125,135,135,307.5,M,Masters 4,SBD,Single-ply
2,Veeraiyan R,1946-06-04,TAMIL NADU,59,56.3,80,85,87.5,87.5,60,-65,,60,90,100,-110,100,247.5,M,Masters 4,SBD,Single-ply
3,Anil Kumtekar,1941-06-26,MAHARASHTRA,59,54.5,65,-70,-70,65,55,-57.5,57.5,57.5,70,80,90,90,212.5,M,Masters 4,SBD,Single-ply
1,Ilamurugan A,1949-01-06,TAMIL NADU,66,63.9,140,150,160,160,60,67.5,-70,67.5,135,-145,,135,362.5,M,Masters 4,SBD,Single-ply
2,Soundarrajan D,1949-11-13,TAMIL NADU,66,61,70,80,-85,80,65,70,72.5,72.5,110,120,125,125,277.5,M,Masters 4,SBD,Single-ply
3,R. Vaidyanathan,1935-06-01,MAHARASHTRA,66,63.2,95,105,-110,105,50,52.5,55,55,105,110,115,115,275,M,Masters 4,SBD,Single-ply
4,Vijay Gandhi,1948-09-02,MAHARASHTRA,66,63.6,60,-70,70,70,50,55,-60,55,60,70,75,75,200,M,Masters 4,SBD,Single-ply
1,Satish Pai,1949-05-14,MAHARASHTRA,83,74.1,90,-110,120,120,50,57.5,62.5,62.5,130,140,152.5,152.5,335,M,Masters 4,SBD,Single-ply
2,Kuselar R,1941-08-19,TAMIL NADU,83,76.6,120,130,132.5,132.5,55,60,-62.5,60,120,130,140,140,332.5,M,Masters 4,SBD,Single-ply
3,Ram Prakash,1949-03-28,DELHI,83,75.4,40,,,40,50,60,65,65,-80,90,100,100,205,M,Masters 4,SBD,Single-ply
1,Aleena Joseph,2001-02-25,KERALA,43,43,125,135,145,145,50,55,60,60,100,115,122.5,122.5,327.5,F,Sub-Juniors,SBD,Single-ply
2,Teena Pareek,2002-04-04,RAJASTHAN,43,43,100,110,117.5,117.5,50,-57.5,57.5,57.5,110,120,-127.5,120,295,F,Sub-Juniors,SBD,Single-ply
3,Humanshi Gurjar,2003-09-26,RAJASTHAN,43,42.2,-107.5,107.5,-110,107.5,55,60,-62.5,60,110,117.5,120,120,287.5,F,Sub-Juniors,SBD,Single-ply
4,Abhirami V,2003-12-15,KERALA,43,43,-90,110,120,120,-50,55,-60,55,90,107.5,-120,107.5,282.5,F,Sub-Juniors,SBD,Single-ply
5,M Kavya,2003-04-14,ANDHRA PRADESH,43,41.8,75,-85,-92.5,75,30,35,-37.5,35,80,92.5,-100,92.5,202.5,F,Sub-Juniors,SBD,Single-ply
6,Janvi,2003-07-31,PUNJAB,43,42.9,50,60,-70,60,25,30,-35,30,75,95,-115,95,185,F,Sub-Juniors,SBD,Single-ply
7,Vanya Nayak,2005-01-21,MADHYA PRADESH,43,42.4,-70,-70,70,70,30,35,-37.5,35,75,-80,-80,75,180,F,Sub-Juniors,SBD,Single-ply
8,Simran Kaur,2002-03-25,CHHATTISGARH,43,41.65,-60,-60,60,60,20,25,-30,25,-70,70,-77.5,70,155,F,Sub-Juniors,SBD,Single-ply
9,Ch Ganga Bhavani,2003-01-01,TELANGANA,43,36.5,-45,45,50,50,20,22.5,25,25,55,-65,65,65,140,F,Sub-Juniors,SBD,Single-ply
DQ,Mini Mathi M,2004-07-25,PONDICHERRY,43,42.8,-110,-110,-110,,-42.5,-42.5,-42.5,,,,,,,F,Sub-Juniors,SBD,Single-ply
DQ,Inunganbi Elangbam,2003-11-15,MANIPUR,43,38.5,-40,,,,-20,-20,-20,,,,,,,F,Sub-Juniors,SBD,Single-ply
1,Aneesha M,2001-12-07,KERALA,47,46.6,125,-150,155,155,60,75,80,80,130,150,-160,150,385,F,Sub-Juniors,SBD,Single-ply
2,Sona Lakshmi V,2005-03-12,TAMIL NADU,47,46.6,80,90,95,95,50,57.5,-60,57.5,100,-105,110,110,262.5,F,Sub-Juniors,SBD,Single-ply
3,Sayma,2001-04-23,DELHI,47,45.5,90,105,-112.5,105,40,45,-50,45,90,-100,102.5,102.5,252.5,F,Sub-Juniors,SBD,Single-ply
4,Santosh Godara,2001-07-22,RAJASTHAN,47,45.7,80,-92.5,-92.5,80,40,45,-47.5,45,95,-105,112.5,112.5,237.5,F,Sub-Juniors,SBD,Single-ply
5,Monica V,2002-07-23,PONDICHERRY,47,43.1,85,92.5,-100,92.5,37.5,40,-45,40,90,100,-102.5,100,232.5,F,Sub-Juniors,SBD,Single-ply
6,Priya S,2001-05-27,TAMIL NADU,47,45.6,70,-80,-80,70,30,-32.5,32.5,32.5,90,100,-110,100,202.5,F,Sub-Juniors,SBD,Single-ply
7,Bharti Badele,2001-07-13,MADHYA PRADESH,47,46.15,60,67.5,-72.5,67.5,30,-35,-35,30,80,85,-90,85,182.5,F,Sub-Juniors,SBD,Single-ply
1,Mamta Choudhary,2002-10-06,RAJASTHAN,52,50.85,-112.5,112.5,120,120,-65,65,-70,65,115,120,-125,120,305,F,Sub-Juniors,SBD,Single-ply
2,Seeya Metilda,2002-07-09,KERALA,52,50.4,90,110,115,115,45,50,-55,50,100,112.5,-117.5,112.5,277.5,F,Sub-Juniors,SBD,Single-ply
3,Rishitaa Jain,2003-04-19,DELHI,52,51.55,95,105,-110,105,40,45,-47.5,45,110,117.5,-127.5,117.5,267.5,F,Sub-Juniors,SBD,Single-ply
4,Vidhushi Sharma,2002-08-04,MADHYA PRADESH,52,49.3,95,-105,-110,95,30,35,-40,35,105,115,-122.5,115,245,F,Sub-Juniors,SBD,Single-ply
5,K Maheswari,2002-10-01,ANDHRA PRADESH,52,51.8,80,92.5,100,100,30,37.5,-40,37.5,-100,100,-110,100,237.5,F,Sub-Juniors,SBD,Single-ply
6,Chanchal Bhojak,2002-12-13,RAJASTHAN,52,50.4,75,-82.5,-85,75,37.5,-40,-40,37.5,75,82.5,87.5,87.5,200,F,Sub-Juniors,SBD,Single-ply
7,Simran Rani,2001-11-15,PUNJAB,52,47.3,60,67.5,-75,67.5,25,30,-32.5,30,70,-90,-90,70,167.5,F,Sub-Juniors,SBD,Single-ply
8,Amuktha Malyada,2004-10-06,TELANGANA,52,51.8,-55,55,65,65,25,-30,,25,65,-75,75,75,165,F,Sub-Juniors,SBD,Single-ply
1,Harinipriya D,2004-01-08,TAMIL NADU,57,56.7,155,-167.5,170,170,65,72.5,-77.5,72.5,145,-152.5,152.5,152.5,395,F,Sub-Juniors,SBD,Single-ply
2,Dhanashree Anil Mahadik,2003-05-27,MAHARASHTRA,57,56,120,-127.5,127.5,127.5,57.5,-62.5,62.5,62.5,110,115,117.5,117.5,307.5,F,Sub-Juniors,SBD,Single-ply
3,Anjana Boban,2001-03-29,KERALA,57,55.8,115,-125,-130,115,42.5,50,55,55,120,127.5,130,130,300,F,Sub-Juniors,SBD,Single-ply
4,Meenu,2003-08-26,HARYANA,57,56.3,110,120,125,125,47.5,52.5,55,55,115,120,-132.5,120,300,F,Sub-Juniors,SBD,Single-ply
5,Neethu Shree Das,2001-11-19,TELANGANA,57,55.65,-100,102.5,-107.5,102.5,35,40,45,45,110,122.5,130,130,277.5,F,Sub-Juniors,SBD,Single-ply
6,Samuktha G,2002-01-20,PONDICHERRY,57,55.55,120,-132.5,-132.5,120,37.5,-42.5,-42.5,37.5,105,110,-115,110,267.5,F,Sub-Juniors,SBD,Single-ply
7,Thanusha M,2002-03-27,KARNATAKA,57,56.2,100,107.5,112.5,112.5,40,42.5,-45,42.5,95,100,107.5,107.5,262.5,F,Sub-Juniors,SBD,Single-ply
8,Prachi Soni,2001-12-08,RAJASTHAN,57,54.1,-95,-100,107.5,107.5,35,40,-47.5,40,100,-110,-110,100,247.5,F,Sub-Juniors,SBD,Single-ply
9,Thingujam Bidyalaxmi Devi,2004-10-17,MANIPUR,57,55.9,80,-90,90,90,30,-35,-35,30,80,-95,-95,80,200,F,Sub-Juniors,SBD,Single-ply
10,Dipu,2003-09-02,PUNJAB,57,55.3,50,55,-62.5,55,27.5,30,-37.5,30,60,75,-80,75,160,F,Sub-Juniors,SBD,Single-ply
DQ,Sk Sadiya Almas,2002-10-27,ANDHRA PRADESH,57,56.1,-155,-162.5,-162.5,,55,62.5,70,70,125,135,-145,135,,F,Sub-Juniors,SBD,Single-ply
DQ,Riya Kaushal,2006-01-01,MADHYA PRADESH,57,54.7,-75,-75,-75,,-30,-30,-30,,,,,,,F,Sub-Juniors,SBD,Single-ply
DQ,Archita Sidhant Shirodkar,2005-02-10,GOA,57,55.6,-100,-100,-100,,-50,-50,-60,,-110,,,,,F,Sub-Juniors,SBD,Single-ply
DQ,Sapna Chauhan,2001-08-07,HARYANA,57,55.3,70,-80,-80,70,30,-37.5,-37.5,30,-100,-100,-105,,,F,Sub-Juniors,SBD,Single-ply
1,Nagashree,2001-03-12,KARNATAKA,63,61.5,145,155,162.5,162.5,65,-72.5,-72.5,65,150,160,-165,160,387.5,F,Sub-Juniors,SBD,Single-ply
2,Nandini Dhawan,2002-07-20,DELHI,63,62,-140,140,-160,140,-60,-70,70,70,120,135,142.5,142.5,352.5,F,Sub-Juniors,SBD,Single-ply
3,Aditi Bairagi,2002-09-28,MADHYA PRADESH,63,62.65,-120,120,130,130,65,75,-80,75,110,120,-132.5,120,325,F,Sub-Juniors,SBD,Single-ply
4,Shruthi S Anchan,2001-10-24,KARNATAKA,63,62.3,105,110,112.5,112.5,42.5,47.5,50,50,100,110,117.5,117.5,280,F,Sub-Juniors,SBD,Single-ply
5,N. Supriya,2001-05-25,TELANGANA,63,62.45,105,115,-122.5,115,35,40,42.5,42.5,105,115,-117.5,115,272.5,F,Sub-Juniors,SBD,Single-ply
6,Ruba S,2001-11-30,TAMIL NADU,63,57.6,80,90,97.5,97.5,37.5,42.5,-45,42.5,105,115,-122.5,115,255,F,Sub-Juniors,SBD,Single-ply
7,Samrudhi Devalekar,2001-05-25,MAHARASHTRA,63,57.45,90,100,-105,100,40,45,47.5,47.5,85,95,102.5,102.5,250,F,Sub-Juniors,SBD,Single-ply
8,Sophia G,2001-08-17,PONDICHERRY,63,58.7,95,-102.5,-110,95,35,-42.5,-42.5,35,110,-120,-122.5,110,240,F,Sub-Juniors,SBD,Single-ply
9,G. Naga Sai Geetika,2004-08-01,ANDHRA PRADESH,63,61.35,70,85,95,95,30,-35,-35,30,90,100,-107.5,100,225,F,Sub-Juniors,SBD,Single-ply
10,Gunjan,2005-04-06,HARYANA,63,59.6,50,52.5,-57.5,52.5,30,-35,-35,30,85,-90,-90,85,167.5,F,Sub-Juniors,SBD,Single-ply
1,Nandana R,2001-11-07,KERALA,72,64.15,190,-200,-200,190,100,110,115,115,130,155,-160,155,460,F,Sub-Juniors,SBD,Single-ply
2,S. Dwaraka,2001-03-13,ANDHRA PRADESH,72,71.3,140,167.5,-172.5,167.5,50,65,-75,65,150,157.5,175,175,407.5,F,Sub-Juniors,SBD,Single-ply
3,Aiswarya Remesh,2002-03-19,KERALA,72,70.2,110,-135,-140,110,55,65,70,70,120,140,-150,140,320,F,Sub-Juniors,SBD,Single-ply
4,Komala E,2003-06-03,PONDICHERRY,72,68.3,95,105,110,110,32.5,37.5,-40,37.5,115,130,-140,130,277.5,F,Sub-Juniors,SBD,Single-ply
5,Shalini S,2002-03-29,TAMIL NADU,72,71.7,85,-100,105,105,40,45,50,50,100,110,115,115,270,F,Sub-Juniors,SBD,Single-ply
6,Yashaswini,2001-02-16,KARNATAKA,72,64.15,95,-105,-105,95,40,45,50,50,105,115,120,120,265,F,Sub-Juniors,SBD,Single-ply
7,Vinothini B,2003-10-14,PONDICHERRY,72,70.9,90,-100,-100,90,45,50,55,55,100,115,-125,115,260,F,Sub-Juniors,SBD,Single-ply
8,Harshita Sunnap,2001-10-12,MADHYA PRADESH,72,68,80,100,105,105,40,47.5,-50,47.5,100,105,-110,105,257.5,F,Sub-Juniors,SBD,Single-ply
9,Korat Hency,2001-11-07,GUJARAT,72,70.1,90,100,110,110,40,45,47.5,47.5,80,95,100,100,257.5,F,Sub-Juniors,SBD,Single-ply
10,Patel Vaishali,2001-06-12,GUJARAT,72,63.2,-50,50,60,60,-32.5,37.5,-40,37.5,60,80,95,95,192.5,F,Sub-Juniors,SBD,Single-ply
DQ,Jeshika Elangbam,2004-03-20,MANIPUR,72,67.1,-70,-70,-70,,25,27.5,-30,27.5,80,90,-105,90,,F,Sub-Juniors,SBD,Single-ply
DQ,Payal R,2005-09-13,TAMIL NADU,72,68.7,-110,-110,-110,,,,,,,,,,,F,Sub-Juniors,SBD,Single-ply
DQ,Janhavi Sawardekar,2001-09-19,MAHARASHTRA,72,69.2,-165,-165,-165,,75,80,-82.5,80,135,-140,-140,135,,F,Sub-Juniors,SBD,Single-ply
1,Navya Prasad,2001-11-14,KERALA,84,73.35,140,-152.5,155,155,57.5,65,-72.5,65,130,145,150,150,370,F,Sub-Juniors,SBD,Single-ply
2,P. Revathi,2001-10-13,TELANGANA,84,83.2,150,-165,-165,150,47.5,52.5,-55,52.5,120,-130,130,130,332.5,F,Sub-Juniors,SBD,Single-ply
3,Wakila W,2005-02-15,MANIPUR,84,72.5,110,-120,130,130,42.5,52.5,-57.5,52.5,-130,130,142.5,142.5,325,F,Sub-Juniors,SBD,Single-ply
4,Asha Kumari,2004-01-13,HARYANA,84,81.4,125,130,-142.5,130,50,52.5,-57.5,52.5,125,137.5,142.5,142.5,325,F,Sub-Juniors,SBD,Single-ply
5,Gayathri S,2004-11-02,PONDICHERRY,84,78.65,110,120,-132.5,120,55,60,62.5,62.5,120,-132.5,-132.5,120,302.5,F,Sub-Juniors,SBD,Single-ply
6,Sithara,2001-11-02,KARNATAKA,84,82,-125,125,130,130,40,45,-47.5,45,120,-130,-130,120,295,F,Sub-Juniors,SBD,Single-ply
7,Nivedita Kharkar,2002-05-27,MAHARASHTRA,84,79.1,125,135,-140,135,42.5,50,-52.5,50,95,105,-115,105,290,F,Sub-Juniors,SBD,Single-ply
8,Shashtika Sharma,2002-02-23,RAJASTHAN,84,73.1,100,112.5,-122.5,112.5,50,57.5,-65,57.5,115,-130,-132.5,115,285,F,Sub-Juniors,SBD,Single-ply
9,Sneha,2002-06-12,KARNATAKA,84,79.9,110,-120,-127.5,110,50,57.5,-60,57.5,110,117.5,-120,117.5,285,F,Sub-Juniors,SBD,Single-ply
10,S Shakeela,2001-01-25,ANDHRA PRADESH,84,73.4,90,-105,105,105,40,47.5,-65,47.5,100,-122.5,122.5,122.5,275,F,Sub-Juniors,SBD,Single-ply
11,Shanmugapreethi S,2001-11-18,TAMIL NADU,84,73.2,120,-130,-135,120,40,42.5,-45,42.5,100,110,-117.5,110,272.5,F,Sub-Juniors,SBD,Single-ply
12,Nandita G,2001-04-11,TAMIL NADU,84,75.5,-105,110,-120,110,37.5,42.5,45,45,112.5,-120,-120,112.5,267.5,F,Sub-Juniors,SBD,Single-ply
1,Archana Surendran,2001-08-29,KERALA,84+,87,110,-122.5,-125,110,55,-70,75,75,110,130,140,140,325,F,Sub-Juniors,SBD,Single-ply
2,Deepthika J Putran,2002-06-07,KARNATAKA,84+,87.2,90,-100,-100,90,50,55,62.5,62.5,120,130,140,140,292.5,F,Sub-Juniors,SBD,Single-ply
3,Medhavi Gehlot,2005-05-23,RAJASTHAN,84+,101.7,107.5,120,-130,120,40,-50,-50,40,110,120,-135,120,280,F,Sub-Juniors,SBD,Single-ply
4,Narmadha I,2001-01-19,PONDICHERRY,84+,102.5,100,107.5,-112.5,107.5,45,50,55,55,105,115,-120,115,277.5,F,Sub-Juniors,SBD,Single-ply
5,V. Smrithi,2001-06-25,TELANGANA,84+,94.5,-100,-100,120,120,30,40,42.5,42.5,90,-107.5,-127.5,90,252.5,F,Sub-Juniors,SBD,Single-ply
6,Roshini,2003-03-25,TELANGANA,84+,88,90,100,-110,100,40,-45,45,45,100,-110,-110,100,245,F,Sub-Juniors,SBD,Single-ply
7,Priyadharshini J,2003-08-02,TAMIL NADU,84+,96.2,90,97.5,102.5,102.5,40,-45,-45,40,95,102.5,-105,102.5,245,F,Sub-Juniors,SBD,Single-ply
8,Kalika Nagwekar,2004-11-01,MAHARASHTRA,84+,93.3,80,100,-115,100,30,37.5,42.5,42.5,-90,-90,90,90,232.5,F,Sub-Juniors,SBD,Single-ply
9,Purvi Sharma,2002-08-24,MADHYA PRADESH,84+,94.6,90,-100,105,105,35,40,-45,40,85,-100,-100,85,230,F,Sub-Juniors,SBD,Single-ply
1,Kh Debikarani Devi,1975-02-04,MANIPUR,47,41.7,20,-30,40,40,20,25,30,30,50,60,70,70,140,F,Masters 1,SBD,Single-ply
2,Ahanthem Suni Devi,1974-09-06,MANIPUR,47,46.15,20,30,-40,30,20,25,-35,25,50,60,-70,60,115,F,Masters 1,SBD,Single-ply
1,Suvarna Shinde,1976-10-05,MAHARASHTRA,52,51.5,100,110,-115,110,45,50,-52.5,50,95,105,107.5,107.5,267.5,F,Masters 1,SBD,Single-ply
2,Archana Jain,1974-01-01,DELHI,52,51.7,92.5,100,-105,100,-52.5,55,60,60,95,102.5,-110,102.5,262.5,F,Masters 1,SBD,Single-ply
1,Ekta Vishnoi,1978-06-03,MAHARASHTRA,57,55.1,115,120,-125,120,65,70,72.5,72.5,130,140,-145,140,332.5,F,Masters 1,SBD,Single-ply
1,Poonam Yadav,1978-10-02,DELHI,63,63,115,120,125,125,70,72.5,75,75,152.5,157.5,-162.5,157.5,357.5,F,Masters 1,SBD,Single-ply
2,Sulochana C Karnataka,,,63,61.7,115,130,-140,130,45,-50,50,50,130,145,-160,145,325,F,Masters 1,SBD,Single-ply
3,Lakhi Rajkhowa,1976-05-16,ASSAM,63,62.1,110,-120,-125,110,40,50,-55,50,120,130,-140,130,290,F,Masters 1,SBD,Single-ply
4,Bindu K,1977-01-01,KERALA,63,61.45,95,105,-115,105,42.5,47.5,50,50,105,120,130,130,285,F,Masters 1,SBD,Single-ply
1,Arathi Arun Dr,1975-03-13,TAMIL NADU,72,66.3,125,140,150,150,55,65,70,70,130,145,-155,145,365,F,Masters 1,SBD,Single-ply
2,Sarala G,1977-01-12,TAMIL NADU,72,68.2,115,122.5,125,125,50,60,65,65,95,105,120,120,310,F,Masters 1,SBD,Single-ply
3,Alifiya Vagh,1976-12-25,KARNATAKA,72,65.9,110,117.5,125,125,50,55,-57.5,55,110,117.5,127.5,127.5,307.5,F,Masters 1,SBD,Single-ply
4,Jyoti Singh,1974-08-12,UTTARAKHAND,72,67.8,82.5,95,-110,95,40,52.5,-60,52.5,92.5,105,115,115,262.5,F,Masters 1,SBD,Single-ply
5,Bharati Sonowal Gogoi,1976-01-06,ASSAM,72,70.5,80,90,100,100,45,-50,-50,45,90,100,110,110,255,F,Masters 1,SBD,Single-ply
6,Alpona Duarah Konwar,1977-03-01,ASSAM,72,63.45,90,-100,-100,90,50,-60,-60,50,95,-105,-105,95,235,F,Masters 1,SBD,Single-ply
7,Rekha Agrawal,1973-03-15,MADHYA PRADESH,72,67.6,75,80,-85,80,40,45,50,50,80,-90,90,90,220,F,Masters 1,SBD,Single-ply
1,Rakhi Sarma,1971-12-31,ASSAM,84,74.55,132.5,-142.5,-147.5,132.5,62.5,67.5,72.5,72.5,130,135,137.5,137.5,342.5,F,Masters 1,SBD,Single-ply
2,Charusita Tiwari,1978-06-26,MADHYA PRADESH,84,,-137.5,137.5,-142.5,137.5,57.5,60,65,65,122.5,-127.5,127.5,127.5,330,F,Masters 1,SBD,Single-ply
3,Rohini Gohri,1977-04-01,DELHI,84,78,-110,-110,110,110,75,82.5,87.5,87.5,120,-130,-130,120,317.5,F,Masters 1,SBD,Single-ply
4,Alka Sharma,1977-11-07,RAJASTHAN,84,76.1,80,90,-102.5,90,40,-50,-50,40,90,100,107.5,107.5,237.5,F,Masters 1,SBD,Single-ply
5,Raval Bela,1976-06-17,GUJARAT,84,82.55,55,-70,-72.5,55,32.5,40,-47.5,40,65,85,90,90,185,F,Masters 1,SBD,Single-ply
DQ,Leelavathi S,1975-07-25,TAMIL NADU,84,73.25,-80,-85,-85,,,,,,,,,,,F,Masters 1,SBD,Single-ply
1,Ch Sujatha,1978-06-01,TELANGANA,84+,88.55,100,110,115,115,45,50,-60,50,110,120,130,130,295,F,Masters 1,SBD,Single-ply
2,Santwana Sharma,1973-04-20,MADHYA PRADESH,84+,88.35,80,-90,100,100,37.5,45,-50,45,80,95,97.5,97.5,242.5,F,Masters 1,SBD,Single-ply
3,Shubhangi Shinde,1975-06-01,MAHARASHTRA,84+,86.2,85,-95,-102.5,85,40,-45,-45,40,100,-110,110,110,235,F,Masters 1,SBD,Single-ply
1,Anindita Priyadarshini Das,1967-10-31,ASSAM,57,53.9,90,100,110,110,40,45,50,50,100,110,120,120,280,F,Masters 2,SBD,Single-ply
1,Shivkanya Gupta,1964-07-26,MADHYA PRADESH,72,69.1,70,75,85,85,45,50,-55,50,85,100,110,110,245,F,Masters 2,SBD,Single-ply
2,Maipakpi Devi N,1962-03-01,MANIPUR,72,64.5,-30,40,-50,40,20,25,30,30,-50,50,,50,120,F,Masters 2,SBD,Single-ply
1,Gaytri Tomer,1966-11-04,MADHYA PRADESH,84,82.1,100,110,-115,110,65,-70,70,70,120,-140,-140,120,300,F,Masters 2,SBD,Single-ply
2,Kala Venktachalam,1963-08-28,MAHARASHTRA,84,75,100,-110,110,110,40,45,50,50,100,105,110,110,270,F,Masters 2,SBD,Single-ply
1,Mary Beena,1965-05-31,KERALA,84+,86.35,125,135,-137.5,135,50,60,65,65,130,135,-145,135,335,F,Masters 2,SBD,Single-ply
2,Namrata Gautam,1962-08-02,UTTAR PRADESH,84+,88.25,50,70,-90,70,30,42.5,-52.5,42.5,80,90,100,100,212.5,F,Masters 2,SBD,Single-ply
3,Ibempishak Devi Huirem,1965-03-01,MANIPUR,84+,84.8,-40,-40,40,40,25,-30,-30,25,60,70,80,80,145,F,Masters 2,SBD,Single-ply
1,Ibemhal Devi T,1957-07-10,MANIPUR,57,52.55,20,30,-40,30,-20,-25,25,25,50,-55,55,55,110,F,Masters 3,SBD,Single-ply
1,Anuja Tendolkar,1958-10-01,MAHARASHTRA,84+,102.3,80,-90,90,90,55,60,65,65,110,120,125,125,280,F,Masters 3,SBD,Single-ply
1,Jayalakxmi Vaidyanathan,1943-06-16,MAHARASHTRA,63,63,-55,60,-65,60,30,32.5,35,35,75,80,85,85,180,F,Masters 4,SBD,Single-ply
1,A Ibempishak Devi,1947-07-05,MANIPUR,72,68.1,40,42.5,-60,42.5,20,25,30,30,60,-70,,60,132.5,F,Masters 4,SBD,Single-ply
1,Kunjarani Devi Th,1940-03-21,MANIPUR,84,72.1,30,-40,40,40,30,-35,-35,30,60,65,70,70,140,F,Masters 4,SBD,Single-ply
