Place,Name,Sex,BirthDate,Age,State,Equipment,Division,BodyweightKg,WeightClassKg,Squat1Kg,Squat2Kg,Squat3Kg,Squat4Kg,Best3SquatKg,Bench1Kg,Bench2Kg,Bench3Kg,Bench4Kg,Best3BenchKg,Deadlift1Kg,Deadlift2Kg,Deadlift3Kg,Deadlift4Kg,Best3DeadliftKg,TotalKg,Event
1,Leslie Del Angel Chavez,F,1998-12-27,22,TX,Raw,DT Int,59.1,60,90,97.5,107.5,112.5,107.5,35,42.5,-47.5,,42.5,90,107.5,120,132.5,120,270,SBD
1,Haley McEntire,F,1995-10-30,25,TX,Raw,DT Open,51.8,52,100,102.5,107.5,112.5,107.5,52.5,57.5,-60,,57.5,105,112.5,115,120,115,280,SBD
1,Jessica Jones #3,F,2004-06-23,16,TX,Raw,DT Open,63.2,67.5,75,85,90,92.5,90,40,45,47.5,,47.5,92.5,97.5,102.5,,102.5,240,SBD
1,Erica Williams,F,1988-05-27,32,TX,Raw,DT Open,87.2,90,82.5,92.5,105,,105,52.5,60,65,,65,125,137.5,142.5,147.5,142.5,312.5,SBD
1,Grace Dailey,F,2006-05-23,14,TX,Raw,DT Teen,62,67.5,77.5,-85,92.5,,92.5,35,40,42.5,,42.5,92.5,100,105,-112.5,105,240,SBD
1,Jodie Duncan,F,1974-11-19,46,TX,Raw,Master 1,73.9,75,127.5,-137.5,137.5,,137.5,65,67.5,-70,,67.5,-147.5,147.5,155,-162.5,155,360,SBD
1,Jodie Duncan,F,1974-11-19,46,TX,Raw,Open,73.9,75,127.5,-137.5,137.5,,137.5,65,67.5,-70,,67.5,-147.5,147.5,155,-162.5,155,360,SBD
1,Jodie Duncan,F,1974-11-19,46,TX,Raw,Master 1,73.9,75,,,,,,65,67.5,-70,,67.5,-147.5,147.5,155,-162.5,155,222.5,BD
1,Jodie Duncan,F,1974-11-19,46,TX,Raw,Open,73.9,75,,,,,,65,67.5,-70,,67.5,-147.5,147.5,155,-162.5,155,222.5,BD
1,Jodie Duncan,F,1974-11-19,46,TX,Raw,Master 1,73.9,75,,,,,,65,67.5,-70,,67.5,,,,,,67.5,B
1,Jodie Duncan,F,1974-11-19,46,TX,Raw,Open,73.9,75,,,,,,65,67.5,-70,,67.5,,,,,,67.5,B
1,Jodie Duncan,F,1974-11-19,46,TX,Raw,Master 1,73.9,75,,,,,,,,,,,-147.5,147.5,155,-162.5,155,155,D
1,Jodie Duncan,F,1974-11-19,46,TX,Raw,Open,73.9,75,,,,,,,,,,,-147.5,147.5,155,-162.5,155,155,D
1,Robert Horn,M,1979-11-07,41,TX,Raw,DT Master 1,107.4,110,-175.5,-187.5,187.5,,187.5,-127.5,132.5,-137.5,,132.5,177.5,200,210,-215,210,530,SBD
1,John Trent,M,1963-03-31,58,TX,Raw,DT Master 2,87.6,90,170,-180,-180,,170,60,-65,70,,70,170,190,205,,205,445,SBD
1,Kevin Parker #1,M,1964-10-22,56,TX,Wraps,DT Master 2,93.9,100,150,165,-175,,165,105,112.5,120,,120,192.5,205,-212.5,,205,490,SBD
1,Bufford Smith,M,1963-06-04,57,TX,Raw,DT Master 2,122.1,125,192.5,205,215,,215,-147.5,150,152.5,,152.5,207.5,-227.5,-250,,207.5,575,SBD
1,Daniel Francis,M,1989-07-20,31,TX,Raw,DT Open,94.5,100,205,220,-232.5,,220,130,140,-147.5,,140,225,245,-265,,245,605,SBD
1,Joshua Stringer,M,1981-03-26,40,TX,Raw,DT Open,101.3,110,177.5,180,185,,185,120,-125,-125,,120,190,195,200,,200,505,SBD
1,Jose Argote,M,1993-03-08,28,TX,Raw,DT Open,119,125,255,265,-272.5,,265,165,-175,-175,,165,222.5,245,-255,,245,675,SBD
1,Matthew Rice,M,1986-08-20,34,CO,Raw,DT Open,130.3,140,290,305,,,305,160,-172.5,,,160,270,280,,,280,745,SBD
1,Manases Rosales,M,1982-04-16,38,TX,Raw,DT Sub Master,88.3,90,-147.5,147.5,-152.5,,147.5,105,-112.5,-112.5,,105,147.5,155,160,-165,160,412.5,SBD
1,Ricky Vargas,M,1989-06-30,31,TX,Raw,DT Open,113.9,125,180,200,215,,215,135,142.5,150,-155,150,180,200,220,,220,585,SBD
1,Matthew Rice,M,1986-08-20,34,CO,Raw,DT Sub Master,130.3,140,290,305,,,305,160,-172.5,,,160,270,280,,,280,745,SBD
2,Jakob Conner,M,1986-01-08,35,TX,Raw,DT Sub Master,137.4,140,205,227.5,235,,235,115,135,,,135,265,272.5,-280,,272.5,642.5,SBD
1,Christopher Davis,M,1980-10-23,40,TX,Raw,Master 1,131.1,140,102.5,145,195,,195,95,105,-120,,105,102.5,150,-215,,150,450,SBD
1,Alex Hamblin,M,1985-02-18,36,TX,Raw,Open,140,140,290,,,,290,205,220,227.5,,227.5,300,-320,,,300,817.5,SBD
1,Jimmy Roberts,M,1975-07-08,45,TX,Wraps,DT Master 1,92.8,100,237.5,245,-250,,245,147.5,152.5,157.5,,157.5,237.5,245,-247.5,,245,647.5,SBD
1,Ryan Graham,M,1996-02-17,25,TX,Wraps,DT Novice,100,100,190,195,205,,205,132.5,140,145,,145,190,195,205,212.5,205,555,SBD
1,Domenique Timmons,M,1990-12-18,30,TX,Wraps,DT Open,94.5,100,157.5,165,-175,,165,-110,-110,110,-112.5,110,185,195,212.5,215,212.5,487.5,SBD
DD,Justin Hollie,M,1988-09-27,32,TX,Wraps,DT Open,112.5,125,277.5,280,,,280,207.5,215,,,215,300,320,327.5,,327.5,,SBD
1,Blake Hollingsworth,M,2003-01-06,18,TX,Wraps,DT Teen,89.4,90,215,227.5,-235,,227.5,102.5,112.5,-117.5,,112.5,225,240,247.5,-250,247.5,587.5,SBD
1,Bobby Edmonson,M,1968-03-12,53,TX,Wraps,Master 2,96.4,100,197.5,215,-227.5,,215,-140,145,-162.5,,145,227.5,-252.5,-252.5,,227.5,587.5,SBD
1,Sean Gill,M,1995-10-02,25,TX,Wraps,Novice,108.8,110,132.5,150,160,,160,112.5,-130,-130,,112.5,180,190,-220,,190,462.5,SBD
1,Bobby Edmonson,M,1968-03-12,53,TX,Wraps,Open,96.4,100,197.5,215,-227.5,,215,-140,145,-162.5,,145,227.5,-252.5,-252.5,,227.5,587.5,SBD
1,Andrew Womack,M,1998-10-08,22,TX,Single-ply,DT Open,97,100,255,270,277.5,,277.5,162.5,-202.5,-210,,162.5,225,250,-257.5,,250,690,SBD
1,John Herod,M,1979-04-22,41,TX,Raw,DT Master 1,111.7,125,,,,,,152.5,162.5,167.5,,167.5,247.5,265,272.5,,272.5,440,BD
1,Bufford Smith,M,1963-06-04,57,TX,Raw,DT Master 2,122.1,125,,,,,,-147.5,150,152.5,,152.5,207.5,-227.5,-250,,207.5,360,BD
1,Ty Ward,M,2002-04-18,18,TX,Raw,DT Teen,92.4,100,,,,,,-102.5,112.5,-117.5,,112.5,175,192.5,-220,,192.5,305,BD
1,Jimmy Roberts,M,1975-07-08,45,TX,Raw,DT Master 1,92.8,100,,,,,,147.5,152.5,157.5,,157.5,237.5,245,-247.5,,245,402.5,BD
1,Willis Smith,M,1974-11-13,46,TX,Single-ply,DT Master 1,120.38,125,,,,,,145,150,160,165,160,232.5,250,-265,,250,410,BD
1,Chad Ward,M,1971-01-26,50,TX,Raw,DT Master 2,123.7,125,,,,,,-192.5,200,210,,210,,,,,,210,B
1,Chad Ward,M,1971-01-26,50,TX,Raw,DT Open,123.7,125,,,,,,-192.5,200,210,,210,,,,,,210,B
1,Jack Anderson #1,M,1979-03-05,42,TX,Raw,DT Open,108.7,110,,,,,,,,,,,197.5,205,-217.5,,205,205,D
