﻿BDFPF BK.-CHAMP.BEL DEADLIFT EQ
1                                 1   - 55,5 KG Wuyts       Helen               V  Gilberts Gym    19 T3   55,0    150    165    175            161,86
1                                 1   - 70 KG Lerot         Viviane         V   Castors            51 M3   66,6    105    115    -123           90,59
1                                 1   - 80 KG Dechamps      Nadege     V        Castors            14 T1   70,9    135    140    -145           105,17
1                                 1   75 KG Hallewaert      Bart                M     Isogym       41 M1   74,7    215    230    242,5          161,65
2                                 1   75 KG Sudarminto      Indra               M Planet Fitness   19 T3   73,1    210    230    240     250    162,77
3                                 1   75 KG Slachmuylders   Bjorn               M Planet Fitness   22 JR   69,9    170    190    -195           133,76
4                                 1   75 KG Callemeyn       Johny               M    Fit 4 fun     57 M4   73,1    165    175                   118,69
5                                 1   75 KG Peeters         Alan                M  Gilberts Gym    16 T2   72,1    160    170    -180           116,60
6                                 1   75 KG Verret          Danny               M Planet Fitness   36 SR   74,8    145    155    165            109,87
1                                 1   82,5 KG Verbeke       Beny                M     Isogym       45 M2   82,5    265    280    290     -300   179,60
1                                 1   110 KG Lewyllie       Jeroen              M    Fit 4 Fun     23 JR   101,6   -205   215    230     -251   126,59
1                                 1   125 KG Collart        Jean-Luc   M        Castors            50 M3   118,7   280    -295                  147,90
2                                 1   125 KG Dechamps       Sebastien   M       Castors            17 T2   124,9   260    270    -275           140,70
3                                 1   125 KG Jammaer        Wim                 M Planet Fitness   28 SR   116,5   240    255    -263           135,18
1                                 1   145 KG Goovaerts      Marc                M Elite Gym Gent   53 M3   126,4   210    220    230            119,44
BR
BEST LIFTER
DRUGTEST
11 December 2010 Merksem
