Division,WeightClassKg,Place,Name,Team,BodyweightKg,Best3SquatKg,Best3BenchKg,Best3DeadliftKg,TotalKg,Equipment,Event,Sex,BirthDate
Boys,51.71,1,Austin Cuthbertson,Van Alstyne,50.35,201.85,104.33,170.1,476.27,Single-ply,SBD,M,
Boys,51.71,2,Fabian Garcia,Edinburg Idea College Prep,51.17,174.63,115.67,181.44,471.74,Single-ply,SBD,M,
Boys,51.71,3,Tomas Elizondo,San Diego,51.71,174.63,102.06,192.78,469.47,Single-ply,SBD,M,
Boys,51.71,4,Jaydan Flemmons,Jasper,50.98,179.17,81.65,183.7,444.52,Single-ply,SBD,M,
Boys,51.71,5,Jamie Rios,Big Lake Reagan County,50.35,174.63,99.79,165.56,439.98,Single-ply,SBD,M,
Boys,51.71,6,Hisaac Guerrero,Rio Hondo,50.71,149.69,115.67,172.37,437.72,Single-ply,SBD,M,
Boys,51.71,7,Jason Ramirez,Levelland,48.99,151.95,108.86,167.83,428.64,Single-ply,SBD,M,
Boys,51.71,8,Heath Schlottman,Mount Vernon,51.71,151.95,88.45,161.03,401.43,Single-ply,SBD,M,
Boys,51.71,9,Chase Stansbury,Vidor,51.71,149.69,88.45,156.49,394.63,Single-ply,SBD,M,
Boys,51.71,10,Javier Aleman,Karnes City,51.26,151.95,86.18,149.69,387.82,Single-ply,SBD,M,
Boys,51.71,11,Roberto Ortiz,Alvarado,50.89,156.49,81.65,140.61,378.75,Single-ply,SBD,M,
Boys,51.71,12,Mark Valdez,Brady,51.71,136.08,86.18,154.22,376.48,Single-ply,SBD,M,
Boys,51.71,13,Gage Woodring,Millsap,51.07,117.93,74.84,129.27,322.05,Single-ply,SBD,M,
Boys,51.71,DQ,Nicholas Gutierrez,Boling,50.89,163.29,,,,Single-ply,SBD,M,
Boys,51.71,DQ,Kirkland Cobb,White Oak,50.17,,,,,Single-ply,SBD,M,
Boys,55.79,1,Chase Chapa,Port Lavaca Calhoun,55.16,197.31,120.2,226.8,544.31,Single-ply,SBD,M,
Boys,55.79,2,Lukthaddeus Collins,Jasper,54.43,197.31,106.59,197.31,501.22,Single-ply,SBD,M,
Boys,55.79,3,Jaden Lopez,Port Isabel,55.25,199.58,97.52,197.31,494.42,Single-ply,SBD,M,
Boys,55.79,4,Cristian Orona,Monahans,54.43,190.51,90.72,201.85,483.08,Single-ply,SBD,M,
Boys,55.79,5,Zaniel Florez,Kermit,54.16,195.04,106.59,179.17,480.81,Single-ply,SBD,M,
Boys,55.79,6,Jakovi Dabbs,Paris,55.16,161.03,104.33,213.19,478.54,Single-ply,SBD,M,
Boys,55.79,7,Steven Cantu,Brownsboro,54.79,167.83,120.2,158.76,446.79,Single-ply,SBD,M,
Boys,55.79,8,Kenaj Washington,Kennedale,53.89,163.29,97.52,181.44,442.25,Single-ply,SBD,M,
Boys,55.79,9,Braden Watson,Comfort,55.07,158.76,88.45,156.49,403.7,Single-ply,SBD,M,
Boys,55.79,10,Jake Bartnick,Little River Academy,55.16,145.15,95.25,149.69,390.09,Single-ply,SBD,M,
Boys,55.79,DQ,Donavon Longoria,Mathis,54.16,176.9,95.25,,,Single-ply,SBD,M,
Boys,55.79,DQ,Alex Labrada,Whitesboro,55.34,,,,,Single-ply,SBD,M,
Boys,59.87,1,Robert Rios,Mathis,59.42,222.26,140.61,231.33,594.21,Single-ply,SBD,M,
Boys,59.87,2,Kyle Crawford,Brownsboro,58.6,217.72,106.59,208.65,532.97,Single-ply,SBD,M,
Boys,59.87,3,Ivan Zamora,Andrews,58.24,206.38,120.2,204.12,530.7,Single-ply,SBD,M,
Boys,59.87,4,David Hernandez,Port Isabel,59.24,204.12,108.86,213.19,526.17,Single-ply,SBD,M,
Boys,59.87,5,Tristen Thompson,Merkel,58.69,201.85,122.47,199.58,523.9,Single-ply,SBD,M,
Boys,59.87,6,Edwin Rodriguez,Pilot Point,59.69,219.99,104.33,195.04,519.36,Single-ply,SBD,M,
Boys,59.87,7,Bryan Gutierrez,Bishop,59.87,195.04,133.81,190.51,519.36,Single-ply,SBD,M,
Boys,59.87,8,Lane Baker,Shepherd,58.6,199.58,115.67,201.85,517.1,Single-ply,SBD,M,
Boys,59.87,9,Anthony Cuellar,Brownsboro,58.88,190.51,129.27,183.7,503.49,Single-ply,SBD,M,
Boys,59.87,10,Caidn Kocian,West,59.33,188.24,102.06,190.51,480.81,Single-ply,SBD,M,
Boys,59.87,11,Zachary Kreg,Splendora,58.88,176.9,115.67,170.1,462.66,Single-ply,SBD,M,
Boys,59.87,12,Asher Contreras,Whitesboro,58.24,172.37,95.25,190.51,458.13,Single-ply,SBD,M,
Boys,59.87,DQ,Brady Bearden,Troy,59.51,192.78,136.08,,,Single-ply,SBD,M,
Boys,67.13,1,Chase Hafer,San Antonio Cole,66.68,238.14,129.27,260.82,628.23,Single-ply,SBD,M,
Boys,67.13,2,Elijah Ybarra,Mathis,65.77,258.55,154.22,213.19,625.96,Single-ply,SBD,M,
Boys,67.13,3,Jesus Barrientos,Brownsboro,66.5,238.14,151.95,219.99,610.08,Single-ply,SBD,M,
Boys,67.13,4,Jakob Cortez,Port Lavaca Calhoun,64.68,249.48,117.93,240.4,607.81,Single-ply,SBD,M,
Boys,67.13,5,Marlete Joyner,Kennedale,66.04,233.6,131.54,235.87,601.01,Single-ply,SBD,M,
Boys,67.13,6,Christian Laja,Perryton,65.95,240.4,122.47,219.99,582.87,Single-ply,SBD,M,
Boys,67.13,7,Sergio Watkins,China Spring,66.13,222.26,138.35,215.46,576.06,Single-ply,SBD,M,
Boys,67.13,8,Xavier Cerna,Gonzales,66.5,240.4,124.74,210.92,576.06,Single-ply,SBD,M,
Boys,67.13,9,D'Cameron Walker,Henderson,67.04,229.06,142.88,199.58,571.53,Single-ply,SBD,M,
Boys,67.13,10,Peyton Knight,Melissa,64.59,224.53,138.35,206.38,569.26,Single-ply,SBD,M,
Boys,67.13,11,Austin Mendez,San Diego,67.04,215.46,122.47,231.33,569.26,Single-ply,SBD,M,
Boys,67.13,12,Creed Carter,Sanger,63.32,226.8,124.74,201.85,553.38,Single-ply,SBD,M,
Boys,67.13,13,Nick Rhinehart,Bonham,66.41,206.38,151.95,190.51,548.85,Single-ply,SBD,M,
Boys,67.13,14,Khyran Jones,McGregor,66.22,204.12,122.47,219.99,546.58,Single-ply,SBD,M,
Boys,67.13,15,Miguel Sanchez,Palacios,65.86,229.06,120.2,192.78,542.04,Single-ply,SBD,M,
Boys,67.13,16,Josh Lopez,Big Spring,65.95,217.72,115.67,201.85,535.24,Single-ply,SBD,M,
Boys,67.13,DQ,Justin Legg,Livingston,65.95,208.65,,,,Single-ply,SBD,M,
Boys,67.13,DQ,Jerek Sanchez,Taft,65.5,233.6,,,,Single-ply,SBD,M,
Boys,74.84,1,Harley Sanders,Brownsboro,72.48,272.16,181.44,256.28,709.87,Single-ply,SBD,M,
Boys,74.84,2,Moises Amaro,Palacios,74.03,274.42,201.85,233.6,709.87,Single-ply,SBD,M,
Boys,74.84,3,Greyson Blanchard,Celina,72.12,310.71,142.88,222.26,675.85,Single-ply,SBD,M,
Boys,74.84,4,Anthony Garcia,Mathis,74.48,247.21,161.03,256.28,664.51,Single-ply,SBD,M,
Boys,74.84,5,Lukas Salaiz,San Diego,73.57,254.01,158.76,242.67,655.44,Single-ply,SBD,M,
Boys,74.84,6,Ya'Corus Porter,Henderson,74.57,240.4,147.42,240.4,628.23,Single-ply,SBD,M,
Boys,74.84,7,Sabien Perry,Dumas,73.48,244.94,136.08,222.26,603.28,Single-ply,SBD,M,
Boys,74.84,8,Alex Cuellar,Brownsboro,73.66,219.99,154.22,224.53,598.74,Single-ply,SBD,M,
Boys,74.84,9,Chris Rader,Slaton,73.39,229.06,133.81,233.6,596.47,Single-ply,SBD,M,
Boys,74.84,10,Daniel Almeida,Uvalde,73.66,217.72,120.2,258.55,596.47,Single-ply,SBD,M,
Boys,74.84,11,Fabian Salomon,Cameron Yoe,72.3,226.8,136.08,219.99,582.87,Single-ply,SBD,M,
Boys,74.84,12,Joey Townsend,Wallis Brazos,70.4,233.6,113.4,226.8,573.79,Single-ply,SBD,M,
Boys,74.84,13,Carson Stevens,Iowa Park,73.3,213.19,145.15,208.65,566.99,Single-ply,SBD,M,
Boys,74.84,14,Cesar Matamoros,Gonzales,72.94,229.06,120.2,204.12,553.38,Single-ply,SBD,M,
Boys,74.84,DQ,Billy Gann,West,71.49,258.55,133.81,,,Single-ply,SBD,M,
Boys,82.1,1,Yovanni Juarez,Gainesville,80.74,312.98,204.12,238.14,755.23,Single-ply,SBD,M,
Boys,82.1,2,Colby Stinedurf,Farmersville,77.75,297.1,190.51,256.28,743.89,Single-ply,SBD,M,
Boys,82.1,3,Jaxon Mabile,Ingleside,78.11,290.3,161.03,249.48,700.8,Single-ply,SBD,M,
Boys,82.1,4,Marcos Molina,Brownsboro,78.74,283.5,181.44,224.53,689.46,Single-ply,SBD,M,
Boys,82.1,5,Jose Martinez,Celina,80.29,267.62,151.95,247.21,666.78,Single-ply,SBD,M,
Boys,82.1,6,Emmanuel Abdallah,China Spring,80.47,247.21,161.03,249.48,657.71,Single-ply,SBD,M,
Boys,82.1,7,Jesus Portillo,Kemp,79.2,272.16,158.76,219.99,650.91,Single-ply,SBD,M,
Boys,82.1,8,John Engle,Bullard,81.47,226.8,174.63,233.6,635.03,Single-ply,SBD,M,
Boys,82.1,9,Skyler Davis,Levelland,80.65,235.87,136.08,258.55,630.49,Single-ply,SBD,M,
Boys,82.1,10,Robert Torres,Sinton,81.37,254.01,147.42,226.8,628.23,Single-ply,SBD,M,
Boys,82.1,11,Jordan Nguyen #1,Mabank,80.83,249.48,140.61,235.87,625.96,Single-ply,SBD,M,
Boys,82.1,12,Randall Hamilton,Jacksboro,80.56,256.28,149.69,215.46,621.42,Single-ply,SBD,M,
Boys,82.1,13,Rylan Wagner,Lytle,80.47,226.8,165.56,226.8,619.15,Single-ply,SBD,M,
Boys,82.1,14,Grant Metts,Orangefield,78.93,242.67,140.61,229.06,612.35,Single-ply,SBD,M,
Boys,82.1,15,Pristine Hysten,Sweeny,79.92,226.8,156.49,219.99,603.28,Single-ply,SBD,M,
Boys,82.1,16,Alex Trevino,Lubbock Roosevelt,80.1,231.33,115.67,244.94,591.94,Single-ply,SBD,M,
Boys,82.1,17,Christian DeLuna,Big Lake Reagan County,80.47,226.8,138.35,206.38,571.53,Single-ply,SBD,M,
Boys,82.1,DQ,Chris Verdin,Jourdanton,80.1,265.35,136.08,,,Single-ply,SBD,M,
Boys,82.1,DQ,Jarvis Haynes,Anderson-Shiro,81.19,260.82,,,,Single-ply,SBD,M,
Boys,89.81,1,Derik DeLeon,Mathis,87.54,312.98,190.51,274.42,777.91,Single-ply,SBD,M,
Boys,89.81,2,Dwayne Wilson,Gainesville,84.1,317.51,145.15,231.33,694,Single-ply,SBD,M,
Boys,89.81,3,Keshawn Wallace,Paris,86.64,272.16,163.29,249.48,684.92,Single-ply,SBD,M,
Boys,89.81,4,Alex Marek,Bellville,88.18,265.35,142.88,265.35,673.58,Single-ply,SBD,M,
Boys,89.81,5,Amar Love,De Kalb,86.27,272.16,140.61,258.55,671.32,Single-ply,SBD,M,
Boys,89.81,6,Ethan Cortez,Bangs,82.28,251.74,174.63,242.67,669.05,Single-ply,SBD,M,
Boys,89.81,7,Weston Reid,Lampasas,83.55,272.16,151.95,240.4,664.51,Single-ply,SBD,M,
Boys,89.81,8,Mason Ford,Gainesville,86.09,229.06,183.7,242.67,655.44,Single-ply,SBD,M,
Boys,89.81,9,Jj Diaz,Lubbock Roosevelt,87.54,247.21,154.22,244.94,646.37,Single-ply,SBD,M,
Boys,89.81,10,Jose Torres,San Diego,87.63,263.08,154.22,226.8,644.1,Single-ply,SBD,M,
Boys,89.81,11,Lawson Kendrick,West,85.73,240.4,158.76,242.67,641.83,Single-ply,SBD,M,
Boys,89.81,12,J Galvan,East Bernard,83.01,249.48,154.22,217.72,621.42,Single-ply,SBD,M,
Boys,89.81,13,Tinaye Mubvumba,Vernon,87.82,235.87,147.42,238.14,621.42,Single-ply,SBD,M,
Boys,89.81,DQ,Joe Barrera,Tulia,87.82,,,,,Single-ply,SBD,M,
Boys,99.79,1,Issac Paredes,Jourdanton,96.98,306.17,183.7,269.89,759.77,Single-ply,SBD,M,
Boys,99.79,2,Reyes Silva,Snyder,95.44,328.85,165.56,263.08,757.5,Single-ply,SBD,M,
Boys,99.79,3,Dre'Lyn Washington,Hemphill,98.52,263.08,158.76,272.16,694,Single-ply,SBD,M,
Boys,99.79,4,Shane Davis,Whitewright,95.62,269.89,179.17,240.4,689.46,Single-ply,SBD,M,
Boys,99.79,5,Carlos Rojas,Redwater,98.34,272.16,156.49,244.94,673.58,Single-ply,SBD,M,
Boys,99.79,6,Chase Bunnell,Argyle,98.7,254.01,140.61,278.96,673.58,Single-ply,SBD,M,
Boys,99.79,7,Christian Holmes,Comanche,94.17,258.55,185.97,226.8,671.32,Single-ply,SBD,M,
Boys,99.79,8,Aiden Wilson,Salado,94.62,265.35,149.69,240.4,655.44,Single-ply,SBD,M,
Boys,99.79,9,James White,Danbury,96.8,238.14,167.83,235.87,641.83,Single-ply,SBD,M,
Boys,99.79,10,Hunter Saavedra,El Maton Tidehaven,96.62,251.74,156.49,219.99,628.23,Single-ply,SBD,M,
Boys,99.79,DQ,Jerry Montgomery,Rice,94.62,,,,,Single-ply,SBD,M,
Boys,99.79,DQ,Isaiah Valdez,Somerset,99.43,319.78,231.33,,,Single-ply,SBD,M,
Boys,99.79,DQ,Ethan Coleman,Midland Greenwood,93.08,,,,,Single-ply,SBD,M,
Boys,109.77,1,Seth Ruff,Ingleside,107.32,340.19,201.85,312.98,855.02,Single-ply,SBD,M,
Boys,109.77,2,Dante DeLeon,Mathis,107.41,335.66,235.87,235.87,807.39,Single-ply,SBD,M,
Boys,109.77,3,John Collier,Redwater,105.14,331.12,170.1,249.48,750.7,Single-ply,SBD,M,
Boys,109.77,4,Karlo Sanchez,Dumas,101.42,303.91,183.7,240.4,728.02,Single-ply,SBD,M,
Boys,109.77,5,Ashton Smith,Stanton,103.33,276.69,174.63,267.62,718.94,Single-ply,SBD,M,
Boys,109.77,6,Jesse Rosales,Gainesville,107.23,276.69,210.92,231.33,718.94,Single-ply,SBD,M,
Boys,109.77,7,Eduardo Gil,Cameron Yoe,107.05,278.96,181.44,233.6,694,Single-ply,SBD,M,
Boys,109.77,8,Kamron Rogers,Leonard,109.04,290.3,172.37,226.8,689.46,Single-ply,SBD,M,
Boys,109.77,9,Mikial Burrola,Kermit,105.05,272.16,183.7,226.8,682.66,Single-ply,SBD,M,
Boys,109.77,10,Cole Booker,Geronimo Navarro,108.95,274.42,149.69,247.21,671.32,Single-ply,SBD,M,
Boys,109.77,11,Tarik Hussien,Redwater,106.96,249.48,167.83,231.33,648.64,Single-ply,SBD,M,
Boys,109.77,DQ,Hunter Ashworth,Orangefield,104.42,294.84,158.76,,,Single-ply,SBD,M,
Boys,109.77,DQ,Colby Franks,McGregor,103.33,,,,,Single-ply,SBD,M,
Boys,124.74,1,Colt Cooper,Quinlan Ford,109.86,328.85,195.04,292.57,816.47,Single-ply,SBD,M,
Boys,124.74,2,Landon Henke,Needville,120.2,335.66,204.12,276.69,816.47,Single-ply,SBD,M,
Boys,124.74,3,Ryan Smiley,Gatesville,117.48,333.39,188.24,251.74,773.37,Single-ply,SBD,M,
Boys,124.74,4,Alfredo Segura,Carrizo Springs,112.31,310.71,179.17,278.96,768.84,Single-ply,SBD,M,
Boys,124.74,5,Shane Whitworth,Canyon,119.84,301.64,201.85,244.94,748.43,Single-ply,SBD,M,
Boys,124.74,6,Jacob Castellanos,Corpus Christi Calallen,110.22,297.1,185.97,254.01,737.09,Single-ply,SBD,M,
Boys,124.74,7,Hunter Norwood,Orangefield,113.85,294.84,195.04,247.21,737.09,Single-ply,SBD,M,
Boys,124.74,8,Carter Holtkamp,Geronimo Navarro,120.02,301.64,176.9,247.21,725.75,Single-ply,SBD,M,
Boys,124.74,9,Brad Robinson,Brownwood,120.29,294.84,174.63,256.28,725.75,Single-ply,SBD,M,
Boys,124.74,10,Tristan Bermea,Vanderbilt Industrial,121.65,285.76,190.51,240.4,716.68,Single-ply,SBD,M,
Boys,124.74,11,Angel Banda,Rice,119.39,272.16,195.04,244.94,712.14,Single-ply,SBD,M,
Boys,124.74,12,Eujayvion McAlister,Henderson,112.67,301.64,174.63,233.6,709.87,Single-ply,SBD,M,
Boys,124.74,13,Daniel Alvidrez,Perryton,116.75,281.23,138.35,263.08,682.66,Single-ply,SBD,M,
Boys,124.74,14,Jacob Gallardo,Van Alstyne,121.11,274.42,165.56,238.14,678.12,Single-ply,SBD,M,
Boys,124.74,15,Jacob Gonzales,Wills Point,120.47,265.35,154.22,247.21,666.78,Single-ply,SBD,M,
Boys,124.74,16,Junior Seay,Kennedale,121.65,265.35,172.37,226.8,664.51,Single-ply,SBD,M,
Boys,139.71,1,Sergio Hernandez,Geronimo Navarro,139.34,347,213.19,254.01,814.2,Single-ply,SBD,M,
Boys,139.71,2,Jacob Bayer,Grandview,135.62,340.19,199.58,263.08,802.86,Single-ply,SBD,M,
Boys,139.71,3,Quinton Johnson,Mount Vernon,135.17,317.51,165.56,288.03,771.11,Single-ply,SBD,M,
Boys,139.71,4,Jayden Parsons,Iowa Park,135.62,324.32,197.31,249.48,771.11,Single-ply,SBD,M,
Boys,139.71,5,Tyler Webb,Vidor,128.09,281.23,195.04,278.96,755.23,Single-ply,SBD,M,
Boys,139.71,6,Tyrell King,Atlanta,135.53,294.84,185.97,274.42,755.23,Single-ply,SBD,M,
Boys,139.71,7,Jonathan Petoskey,Lumberton,136.98,299.37,197.31,251.74,748.43,Single-ply,SBD,M,
Boys,139.71,8,Bartolo Guevara,Boyd,130,317.51,172.37,254.01,743.89,Single-ply,SBD,M,
Boys,139.71,9,Paul Thonsgaard,Hardin,127.1,281.23,188.24,265.35,734.82,Single-ply,SBD,M,
Boys,139.71,10,John Long,Lampasas,134.35,281.23,213.19,240.4,734.82,Single-ply,SBD,M,
Boys,139.71,11,Jusiah Sampleton,Giddings,131.54,294.84,167.83,254.01,716.68,Single-ply,SBD,M,
Boys,139.71,12,Ryan Gomez,Gonzales,133.08,294.84,172.37,249.48,716.68,Single-ply,SBD,M,
Boys,139.71,13,Nate Martinez #4,Sinton,125.37,274.42,197.31,224.53,696.26,Single-ply,SBD,M,
Boys,139.71,14,Dustin Soto,Natalia,127.1,288.03,170.1,238.14,696.26,Single-ply,SBD,M,
Boys,139.71,15,Charles Aynes,Lamesa,128.09,278.96,167.83,244.94,691.73,Single-ply,SBD,M,
Boys,139.71,16,Lucas Martinez,Dumas,134.54,254.01,161.03,233.6,648.64,Single-ply,SBD,M,
Boys,139.71+,1,Blake Boenisch,Needville,163.29,335.66,195.04,276.69,807.39,Single-ply,SBD,M,
Boys,139.71+,2,Daniel Garza,Carrizo Springs,148.51,322.05,190.51,269.89,782.45,Single-ply,SBD,M,
Boys,139.71+,3,Cj Cofer,Brownsboro,141.97,328.85,192.78,258.55,780.18,Single-ply,SBD,M,
Boys,139.71+,4,Devin Smith,Waco La Vega,145.33,317.51,188.24,249.48,755.23,Single-ply,SBD,M,
Boys,139.71+,5,Bj Moore,Freeport Brazosport,160.57,340.19,181.44,233.6,755.23,Single-ply,SBD,M,
Boys,139.71+,6,Shunmarkus Adams,Jasper,154.4,294.84,183.7,247.21,725.75,Single-ply,SBD,M,
Boys,139.71+,7,Elijah McFarland,Bonham,199.58,240.4,222.26,235.87,698.53,Single-ply,SBD,M,
Boys,139.71+,8,Logan Davis,Stephenville,148.05,272.16,151.95,272.16,696.26,Single-ply,SBD,M,
Boys,139.71+,9,KeJuan Fite,Mineola,144.97,260.82,201.85,204.12,666.78,Single-ply,SBD,M,
Boys,139.71+,10,DeVondre Sledge,Tulia,154.86,219.99,136.08,226.8,582.87,Single-ply,SBD,M,
Boys,139.71+,DQ,Hunter Cobb,Pecos,152.32,,,,,Single-ply,SBD,M,
Boys,139.71+,DQ,Ruben Leal,Aransas Pass,160.21,294.84,199.58,,,Single-ply,SBD,M,
Boys,139.71+,DQ,Trent Tidwell,Hillsboro,142.25,285.76,,,,Single-ply,SBD,M,
